EESchema Schematic File Version 4
EELAYER 30 0
EELAYER END
$Descr A4 11693 8268
encoding utf-8
Sheet 1 1
Title ""
Date ""
Rev ""
Comp ""
Comment1 ""
Comment2 ""
Comment3 ""
Comment4 ""
$EndDescr
$Comp
L starChips:ABCStar U4
U 1 1 5E3804C5
P 10550 5050
F 0 "U4" H 10700 4950 50  0000 L CNN
F 1 "ABCStar" H 10600 4800 50  0000 L CNN
F 2 "starChips:ABCStar" H 10750 4300 50  0001 C CNN
F 3 "" H 10750 4300 50  0001 C CNN
F 4 "No" H 10550 5050 50  0001 C CNN "Mounted"
	1    10550 5050
	1    0    0    -1  
$EndComp
$Comp
L starChips:HCCStar U3
U 1 1 5E38057D
P 8400 2950
F 0 "U3" H 8400 3000 50  0000 C CNN
F 1 "HCCStar" H 8400 2850 50  0000 C CNN
F 2 "starChips:HCCStarV1" H 8400 2900 50  0001 C CNN
F 3 "" H 8400 2900 50  0001 C CNN
F 4 "No" H 8400 2950 50  0001 C CNN "Mounted"
	1    8400 2950
	1    0    0    -1  
$EndComp
$Comp
L starChips:Powerboard U2
U 1 1 5E3806B2
P 5750 5300
F 0 "U2" H 5750 5450 50  0000 C CNN
F 1 "Powerboard" H 5750 5300 50  0000 C CNN
F 2 "starChips:Powerboard" H 5600 4450 50  0001 C CNN
F 3 "" H 5600 4450 50  0001 C CNN
F 4 "No" H 5750 5300 50  0001 C CNN "Mounted"
	1    5750 5300
	1    0    0    -1  
$EndComp
$Comp
L starChips:Powerboard U1
U 1 1 5E380732
P 3350 2950
F 0 "U1" H 3350 3050 50  0000 C CNN
F 1 "Powerboard" H 3350 2900 50  0000 C CNN
F 2 "starChips:Powerboard" H 3200 2100 50  0001 C CNN
F 3 "" H 3200 2100 50  0001 C CNN
F 4 "No" H 3350 2950 50  0001 C CNN "Mounted"
	1    3350 2950
	1    0    0    -1  
$EndComp
Wire Wire Line
	4550 5300 4550 4600
Wire Wire Line
	4550 4600 4850 4600
$Comp
L Connector_Generic:Conn_01x22 J2
U 1 1 5E380EE5
P 1550 2750
F 0 "J2" H 1450 1500 50  0000 L CNN
F 1 "TE2129320-3" H 1250 1400 50  0000 L CNN
F 2 "GBT-AMAC-adapter:MiniDP" H 1550 2750 50  0001 C CNN
F 3 "~" H 1550 2750 50  0001 C CNN
F 4 "Yes" H 1550 2750 50  0001 C CNN "Mounted"
F 5 "Mouser 571-2129320-3" H 1550 2750 50  0001 C CNN "Order Code"
F 6 "Mini DisplayPort Connector" H 1550 2750 50  0001 C CNN "Part Description"
	1    1550 2750
	1    0    0    -1  
$EndComp
$Comp
L power:GND #PWR01
U 1 1 5E38102E
P 700 7100
F 0 "#PWR01" H 700 6850 50  0001 C CNN
F 1 "GND" H 705 6927 50  0000 C CNN
F 2 "" H 700 7100 50  0001 C CNN
F 3 "" H 700 7100 50  0001 C CNN
	1    700  7100
	1    0    0    -1  
$EndComp
Wire Wire Line
	1350 1750 700  1750
Wire Wire Line
	700  1750 700  2350
Wire Wire Line
	1350 2350 700  2350
Connection ~ 700  2350
Wire Wire Line
	700  2350 700  2450
Wire Wire Line
	1350 2450 700  2450
Connection ~ 700  2450
Wire Wire Line
	700  2450 700  2950
Wire Wire Line
	1350 2950 700  2950
Connection ~ 700  2950
Wire Wire Line
	700  2950 700  3050
Wire Wire Line
	1350 3050 700  3050
Connection ~ 700  3050
Wire Wire Line
	700  3050 700  3550
Wire Wire Line
	1350 3550 700  3550
Connection ~ 700  3550
Wire Wire Line
	700  3550 700  3750
Wire Wire Line
	1350 3750 700  3750
Connection ~ 700  3750
Wire Wire Line
	700  3750 700  3850
Wire Wire Line
	1350 3850 700  3850
Connection ~ 700  3850
Wire Wire Line
	700  3850 700  4750
Wire Wire Line
	1350 4750 700  4750
Connection ~ 700  4750
Wire Wire Line
	700  4750 700  5350
Wire Wire Line
	1350 5350 700  5350
Connection ~ 700  5350
Wire Wire Line
	700  5350 700  5450
Wire Wire Line
	1350 5450 700  5450
Connection ~ 700  5450
Wire Wire Line
	700  5450 700  5950
Wire Wire Line
	1350 5950 700  5950
Connection ~ 700  5950
Wire Wire Line
	700  5950 700  6050
Wire Wire Line
	1350 6050 700  6050
Connection ~ 700  6050
Wire Wire Line
	700  6050 700  6550
Wire Wire Line
	1350 6550 700  6550
Connection ~ 700  6550
Wire Wire Line
	700  6550 700  6750
Wire Wire Line
	1350 6750 700  6750
Connection ~ 700  6750
Wire Wire Line
	700  6750 700  6850
Wire Wire Line
	1350 6850 700  6850
Connection ~ 700  6850
Wire Wire Line
	700  6850 700  7100
NoConn ~ 1350 1850
NoConn ~ 1350 2050
NoConn ~ 1350 2250
NoConn ~ 1350 3650
NoConn ~ 1350 4850
NoConn ~ 1350 5250
NoConn ~ 1350 6650
NoConn ~ 1350 4950
NoConn ~ 1350 5550
NoConn ~ 1350 5750
NoConn ~ 1350 6150
NoConn ~ 1350 6350
Text Label 1350 2150 2    50   ~ 0
R3L1_P
Text Label 1350 1950 2    50   ~ 0
R3L1_N
Text Label 1350 2750 2    50   ~ 0
D0_N
Text Label 1350 2850 2    50   ~ 0
LCB_P
Text Label 1350 2550 2    50   ~ 0
D0_P
Text Label 1350 2650 2    50   ~ 0
LCB_N
Text Label 1350 3450 2    50   ~ 0
BTC_P
Text Label 1350 3250 2    50   ~ 0
BTC_N
Text Label 1350 5050 2    50   ~ 0
CALin
Text Label 1350 5650 2    50   ~ 0
CMDin_P
Text Label 1350 5850 2    50   ~ 0
CMDin_N
Text Label 1350 6250 2    50   ~ 0
CMDout_P
Text Label 1350 6450 2    50   ~ 0
CMDout_N
Text Label 4850 3950 2    50   ~ 0
CMDin_N
Text Label 4850 4050 2    50   ~ 0
CMDin_P
Text Label 4850 4200 2    50   ~ 0
CMDout_N
Text Label 4850 4300 2    50   ~ 0
CMDout_P
Text Label 4850 4450 2    50   ~ 0
CALin
NoConn ~ 4250 3350
NoConn ~ 4250 3450
NoConn ~ 4250 3850
NoConn ~ 4250 4350
NoConn ~ 4250 4450
NoConn ~ 4250 4550
NoConn ~ 6650 3950
NoConn ~ 6650 4050
NoConn ~ 6650 4150
NoConn ~ 6650 4250
NoConn ~ 6650 4350
NoConn ~ 6650 4450
NoConn ~ 6650 4550
NoConn ~ 6650 4750
NoConn ~ 6650 5050
NoConn ~ 6650 5150
NoConn ~ 6650 5250
NoConn ~ 6650 5600
NoConn ~ 6650 5700
NoConn ~ 6650 5800
NoConn ~ 6650 5900
NoConn ~ 6650 6000
NoConn ~ 6650 6100
NoConn ~ 6650 6200
NoConn ~ 6650 6400
NoConn ~ 6650 4850
NoConn ~ 6650 6700
NoConn ~ 6650 6800
NoConn ~ 6650 6900
$Comp
L power:GND #PWR08
U 1 1 5E39C62B
P 5500 3150
F 0 "#PWR08" H 5500 2900 50  0001 C CNN
F 1 "GND" H 5505 2977 50  0000 C CNN
F 2 "" H 5500 3150 50  0001 C CNN
F 3 "" H 5500 3150 50  0001 C CNN
	1    5500 3150
	-1   0    0    1   
$EndComp
$Comp
L power:GND #PWR06
U 1 1 5E39C69B
P 3100 800
F 0 "#PWR06" H 3100 550 50  0001 C CNN
F 1 "GND" H 3105 627 50  0000 C CNN
F 2 "" H 3100 800 50  0001 C CNN
F 3 "" H 3100 800 50  0001 C CNN
	1    3100 800 
	-1   0    0    1   
$EndComp
$Comp
L power:+12V #PWR07
U 1 1 5E39C71B
P 3300 800
F 0 "#PWR07" H 3300 650 50  0001 C CNN
F 1 "+12V" H 3315 973 50  0000 C CNN
F 2 "" H 3300 800 50  0001 C CNN
F 3 "" H 3300 800 50  0001 C CNN
	1    3300 800 
	1    0    0    -1  
$EndComp
$Comp
L power:+12V #PWR09
U 1 1 5E39C767
P 5700 3150
F 0 "#PWR09" H 5700 3000 50  0001 C CNN
F 1 "+12V" H 5715 3323 50  0000 C CNN
F 2 "" H 5700 3150 50  0001 C CNN
F 3 "" H 5700 3150 50  0001 C CNN
	1    5700 3150
	1    0    0    -1  
$EndComp
Text Label 4250 1600 0    50   ~ 0
CALx
Text Label 4250 1700 0    50   ~ 0
SHUNTx
Text Label 4250 2000 0    50   ~ 0
NTCxN
Text Label 4250 2100 0    50   ~ 0
NTCxP
Text Label 4250 2200 0    50   ~ 0
GNDx
Text Label 4250 4050 0    50   ~ 0
GNDx
Text Label 4250 4150 0    50   ~ 0
VOUTx
Text Label 4250 2700 0    50   ~ 0
SSSHx
Text Label 4250 2800 0    50   ~ 0
HRSTBx
Text Label 4250 2900 0    50   ~ 0
LD0xEN
Text Label 8600 700  1    50   ~ 0
VOUTx
Text Label 10400 3600 1    50   ~ 0
VOUTx
Text Label 8400 5150 3    50   ~ 0
GNDx
Text Label 10550 6300 3    50   ~ 0
GNDx
NoConn ~ 9300 2600
NoConn ~ 9300 2700
NoConn ~ 9300 2850
NoConn ~ 9300 2950
NoConn ~ 9300 3100
NoConn ~ 9300 3200
NoConn ~ 9300 3350
NoConn ~ 9300 3450
NoConn ~ 9300 3600
NoConn ~ 9300 3700
NoConn ~ 9300 3850
NoConn ~ 9300 3950
NoConn ~ 9300 4100
NoConn ~ 9300 4200
NoConn ~ 9300 4350
NoConn ~ 9300 4450
NoConn ~ 9300 4600
NoConn ~ 9300 4700
Text Label 7500 3950 2    50   ~ 0
SSSHx
Text Label 7500 4050 2    50   ~ 0
RSTB
Text Label 9850 4750 2    50   ~ 0
RSTB
NoConn ~ 4250 1800
Text Label 2450 1600 2    50   ~ 0
CMDin_N
Text Label 2450 1700 2    50   ~ 0
CMDin_P
Text Label 2450 1850 2    50   ~ 0
CMDout_N
Text Label 2450 1950 2    50   ~ 0
CMDout_P
Text Label 2450 2100 2    50   ~ 0
CALin
Text Label 9850 4900 2    50   ~ 0
LDy1EN
Text Label 9850 5050 2    50   ~ 0
SHUNTx
Text Label 7500 3300 2    50   ~ 0
CALx
Text Label 7500 3500 2    50   ~ 0
HRSTBx
Text Label 7500 3400 2    50   ~ 0
LD0xEN
Text Label 7500 2900 2    50   ~ 0
D0_N
Text Label 7500 2800 2    50   ~ 0
D0_P
Text Label 6300 900  1    50   ~ 0
LCB_P
Text Label 6200 900  1    50   ~ 0
LCB_N
Text Label 6350 2050 2    50   ~ 0
BTC_P
Text Label 6350 2150 2    50   ~ 0
BTC_N
Text Label 6900 3800 3    50   ~ 0
R3L1_P
Text Label 7000 3800 3    50   ~ 0
R3L1_N
Text Label 9300 1150 0    50   ~ 0
BCHYB_P
Text Label 9300 1250 0    50   ~ 0
BCHYB_N
Text Label 9300 1400 0    50   ~ 0
PRLPHYB_P
Text Label 9300 1500 0    50   ~ 0
PRLPHYB_N
Text Label 9300 1650 0    50   ~ 0
LCBHYB_P
Text Label 9300 1750 0    50   ~ 0
LCBHYB_N
Text Label 9300 1900 0    50   ~ 0
RCLK_P
Text Label 9300 2000 0    50   ~ 0
RCLK_N
Text Label 9300 2350 0    50   ~ 0
DATA_P
Text Label 9300 2450 0    50   ~ 0
DATA_N
Text Label 9850 4100 2    50   ~ 0
BCHYB_N
Text Label 9850 4200 2    50   ~ 0
BCHYB_P
Text Label 9850 4350 2    50   ~ 0
PRLPHYB_N
Text Label 9850 4450 2    50   ~ 0
PRLPHYB_P
Text Label 9850 5200 2    50   ~ 0
LCBHYB_N
Text Label 9850 5300 2    50   ~ 0
LCBHYB_P
Text Label 9850 5450 2    50   ~ 0
RCLK_N
Text Label 9850 5550 2    50   ~ 0
RCLK_P
Text Label 9850 5700 2    50   ~ 0
DATA_N
Text Label 9850 5800 2    50   ~ 0
DATA_P
$Comp
L Device:C C1
U 1 1 5E3A82BD
P 6300 1150
F 0 "C1" V 6250 1050 50  0000 C CNN
F 1 "CC0402_220NF_16V_10%_X7R" V 6150 1100 50  0000 C CNN
F 2 "Capacitor_SMD:C_0402_1005Metric" H 6338 1000 50  0001 C CNN
F 3 "~" H 6300 1150 50  0001 C CNN
F 4 "0402" V 4950 400 50  0001 C CNN "Case"
F 5 "Yes" V 4950 400 50  0001 C CNN "Mounted"
F 6 "SMD Multilayer Chip Ceramic Capacitor" V 4950 400 50  0001 C CNN "Part Description"
	1    6300 1150
	-1   0    0    1   
$EndComp
$Comp
L Device:C C4
U 1 1 5E3A8354
P 6200 1450
F 0 "C4" V 6150 1350 50  0000 C CNN
F 1 "CC0402_220NF_16V_10%_X7R" V 6350 1200 50  0000 C CNN
F 2 "Capacitor_SMD:C_0402_1005Metric" H 6238 1300 50  0001 C CNN
F 3 "~" H 6200 1450 50  0001 C CNN
F 4 "0402" V 4550 600 50  0001 C CNN "Case"
F 5 "Yes" V 4550 600 50  0001 C CNN "Mounted"
F 6 "SMD Multilayer Chip Ceramic Capacitor" V 4550 600 50  0001 C CNN "Part Description"
	1    6200 1450
	-1   0    0    1   
$EndComp
$Comp
L Device:C C2
U 1 1 5E3A83EB
P 6600 2050
F 0 "C2" V 6550 1950 50  0000 C CNN
F 1 "CC0402_220NF_16V_10%_X7R" V 6450 2050 50  0000 C CNN
F 2 "Capacitor_SMD:C_0402_1005Metric" H 6638 1900 50  0001 C CNN
F 3 "~" H 6600 2050 50  0001 C CNN
F 4 "0402" V 5250 1050 50  0001 C CNN "Case"
F 5 "Yes" V 5250 1050 50  0001 C CNN "Mounted"
F 6 "SMD Multilayer Chip Ceramic Capacitor" V 5250 1050 50  0001 C CNN "Part Description"
	1    6600 2050
	0    1    1    0   
$EndComp
$Comp
L Device:C C5
U 1 1 5E3A83F2
P 6900 2150
F 0 "C5" V 6850 2050 50  0000 C CNN
F 1 "CC0402_220NF_16V_10%_X7R" V 6950 1550 50  0000 C CNN
F 2 "Capacitor_SMD:C_0402_1005Metric" H 6938 2000 50  0001 C CNN
F 3 "~" H 6900 2150 50  0001 C CNN
F 4 "0402" V 5250 1050 50  0001 C CNN "Case"
F 5 "Yes" V 5250 1050 50  0001 C CNN "Mounted"
F 6 "SMD Multilayer Chip Ceramic Capacitor" V 5250 1050 50  0001 C CNN "Part Description"
	1    6900 2150
	0    1    1    0   
$EndComp
$Comp
L Device:C C3
U 1 1 5E3A8AFE
P 6900 3550
F 0 "C3" V 6850 3450 50  0000 C CNN
F 1 "CC0402_220NF_16V_10%_X7R" V 6750 3700 50  0000 C CNN
F 2 "Capacitor_SMD:C_0402_1005Metric" H 6938 3400 50  0001 C CNN
F 3 "~" H 6900 3550 50  0001 C CNN
F 4 "0402" V 5550 2300 50  0001 C CNN "Case"
F 5 "Yes" V 5550 2300 50  0001 C CNN "Mounted"
F 6 "SMD Multilayer Chip Ceramic Capacitor" V 5550 2300 50  0001 C CNN "Part Description"
	1    6900 3550
	1    0    0    -1  
$EndComp
$Comp
L Device:C C6
U 1 1 5E3A8B05
P 7000 3250
F 0 "C6" V 6950 3150 50  0000 C CNN
F 1 "CC0402_220NF_16V_10%_X7R" V 7150 3300 50  0000 C CNN
F 2 "Capacitor_SMD:C_0402_1005Metric" H 7038 3100 50  0001 C CNN
F 3 "~" H 7000 3250 50  0001 C CNN
F 4 "0402" V 5350 1900 50  0001 C CNN "Case"
F 5 "Yes" V 5350 1900 50  0001 C CNN "Mounted"
F 6 "SMD Multilayer Chip Ceramic Capacitor" V 5350 1900 50  0001 C CNN "Part Description"
	1    7000 3250
	1    0    0    -1  
$EndComp
Wire Wire Line
	6300 900  6300 1000
Wire Wire Line
	6200 900  6200 1300
Wire Wire Line
	6350 2050 6450 2050
Wire Wire Line
	6350 2150 6750 2150
Wire Wire Line
	6900 3800 6900 3700
Wire Wire Line
	7000 3800 7000 3400
$Comp
L Device:C C7
U 1 1 5E3B67DB
P 7350 600
F 0 "C7" V 7300 500 50  0000 C CNN
F 1 "CC0402_100NF_16V_10%_X7R" V 7300 1200 50  0000 C CNN
F 2 "Capacitor_SMD:C_0402_1005Metric" H 7388 450 50  0001 C CNN
F 3 "~" H 7350 600 50  0001 C CNN
F 4 "0402" V 5250 1050 50  0001 C CNN "Case"
F 5 "Yes" V 5250 1050 50  0001 C CNN "Mounted"
F 6 "SMD Multilayer Chip Ceramic Capacitor" V 5250 1050 50  0001 C CNN "Part Description"
	1    7350 600 
	0    1    1    0   
$EndComp
$Comp
L Device:C C8
U 1 1 5E3B67E2
P 7350 800
F 0 "C8" V 7400 700 50  0000 C CNN
F 1 "CC0402_100NF_16V_10%_X7R" V 7500 550 50  0000 C CNN
F 2 "Capacitor_SMD:C_0402_1005Metric" H 7388 650 50  0001 C CNN
F 3 "~" H 7350 800 50  0001 C CNN
F 4 "0402" V 5250 1050 50  0001 C CNN "Case"
F 5 "Yes" V 5250 1050 50  0001 C CNN "Mounted"
F 6 "SMD Multilayer Chip Ceramic Capacitor" V 5250 1050 50  0001 C CNN "Part Description"
	1    7350 800 
	0    1    1    0   
$EndComp
Wire Wire Line
	7200 600  7200 800 
Wire Wire Line
	8600 700  9300 700 
Wire Wire Line
	9300 700  9300 600 
Wire Wire Line
	9300 700  9300 800 
Connection ~ 9300 700 
Text Label 7200 700  2    50   ~ 0
GNDx
$Comp
L Device:C C9
U 1 1 5E3BCBC7
P 9450 600
F 0 "C9" V 9400 500 50  0000 C CNN
F 1 "CC0402_100NF_16V_10%_X7R" V 9400 1200 50  0000 C CNN
F 2 "Capacitor_SMD:C_0402_1005Metric" H 9488 450 50  0001 C CNN
F 3 "~" H 9450 600 50  0001 C CNN
F 4 "0402" V 5250 1050 50  0001 C CNN "Case"
F 5 "Yes" V 5250 1050 50  0001 C CNN "Mounted"
F 6 "SMD Multilayer Chip Ceramic Capacitor" V 5250 1050 50  0001 C CNN "Part Description"
	1    9450 600 
	0    1    1    0   
$EndComp
$Comp
L Device:C C10
U 1 1 5E3BCBCE
P 9450 800
F 0 "C10" V 9500 650 50  0000 C CNN
F 1 "CC0402_100NF_16V_10%_X7R" V 9500 1400 50  0000 C CNN
F 2 "Capacitor_SMD:C_0402_1005Metric" H 9488 650 50  0001 C CNN
F 3 "~" H 9450 800 50  0001 C CNN
F 4 "0402" V 5250 1050 50  0001 C CNN "Case"
F 5 "Yes" V 5250 1050 50  0001 C CNN "Mounted"
F 6 "SMD Multilayer Chip Ceramic Capacitor" V 5250 1050 50  0001 C CNN "Part Description"
	1    9450 800 
	0    1    1    0   
$EndComp
Wire Wire Line
	9600 600  9600 800 
Text Label 9600 700  0    50   ~ 0
GNDx
$Comp
L Device:C C11
U 1 1 5E3BEB75
P 9900 3150
F 0 "C11" V 9850 3000 50  0000 C CNN
F 1 "CC0402_220NF_16V_10%_X7R" V 10050 3200 50  0000 C CNN
F 2 "Capacitor_SMD:C_0402_1005Metric" H 9938 3000 50  0001 C CNN
F 3 "~" H 9900 3150 50  0001 C CNN
F 4 "0402" V 5100 600 50  0001 C CNN "Case"
F 5 "Yes" V 5100 600 50  0001 C CNN "Mounted"
F 6 "SMD Multilayer Chip Ceramic Capacitor" V 5100 600 50  0001 C CNN "Part Description"
	1    9900 3150
	-1   0    0    1   
$EndComp
$Comp
L Device:C C12
U 1 1 5E3BEC7D
P 10550 3250
F 0 "C12" V 10500 3300 50  0000 L CNN
F 1 "CC0402_100NF_16V_10%_X7R" V 10950 2750 50  0000 L CNN
F 2 "Capacitor_SMD:C_0402_1005Metric" H 10588 3100 50  0001 C CNN
F 3 "~" H 10550 3250 50  0001 C CNN
F 4 "0402" V 5250 1050 50  0001 C CNN "Case"
F 5 "Yes" V 5250 1050 50  0001 C CNN "Mounted"
F 6 "SMD Multilayer Chip Ceramic Capacitor" V 5250 1050 50  0001 C CNN "Part Description"
	1    10550 3250
	1    0    0    -1  
$EndComp
$Comp
L Device:C C13
U 1 1 5E3BECCB
P 10700 2900
F 0 "C13" V 10650 2950 50  0000 L CNN
F 1 "CC0402_100NF_16V_10%_X7R" V 11050 2400 50  0000 L CNN
F 2 "Capacitor_SMD:C_0402_1005Metric" H 10738 2750 50  0001 C CNN
F 3 "~" H 10700 2900 50  0001 C CNN
F 4 "0402" V 5250 1050 50  0001 C CNN "Case"
F 5 "Yes" V 5250 1050 50  0001 C CNN "Mounted"
F 6 "SMD Multilayer Chip Ceramic Capacitor" V 5250 1050 50  0001 C CNN "Part Description"
	1    10700 2900
	1    0    0    -1  
$EndComp
$Comp
L Device:C C14
U 1 1 5E3BED1B
P 10850 2550
F 0 "C14" V 10900 2600 50  0000 L CNN
F 1 "CC0402_100NF_16V_10%_X7R" V 11150 2300 50  0000 L CNN
F 2 "Capacitor_SMD:C_0402_1005Metric" H 10888 2400 50  0001 C CNN
F 3 "~" H 10850 2550 50  0001 C CNN
F 4 "0402" V 5250 1050 50  0001 C CNN "Case"
F 5 "Yes" V 5250 1050 50  0001 C CNN "Mounted"
F 6 "SMD Multilayer Chip Ceramic Capacitor" V 5250 1050 50  0001 C CNN "Part Description"
	1    10850 2550
	1    0    0    -1  
$EndComp
Wire Wire Line
	10850 2400 10700 2400
Wire Wire Line
	10550 2400 10550 3100
Wire Wire Line
	10700 2750 10700 2400
Connection ~ 10700 2400
Wire Wire Line
	10700 2400 10550 2400
Wire Wire Line
	10850 2700 10850 3600
Wire Wire Line
	10700 3600 10700 3050
Wire Wire Line
	10550 3400 10550 3600
Wire Wire Line
	9900 2400 10550 2400
Connection ~ 10550 2400
Text Label 10250 2400 1    50   ~ 0
GNDx
$Comp
L Device:R R2
U 1 1 5E3C67FC
P 5300 1450
F 0 "R2" V 5093 1450 50  0000 C CNN
F 1 "R0603_100R_1%_0.0625W_100PPM" V 5184 1450 50  0000 C CNN
F 2 "Resistor_SMD:R_0603_1608Metric" V 5230 1450 50  0001 C CNN
F 3 "~" H 5300 1450 50  0001 C CNN
F 4 "0603" V 5300 1450 50  0001 C CNN "Case"
F 5 "Yes" V 5300 1450 50  0001 C CNN "Mounted"
F 6 "General Purpose Thick Film Chip Resistor" V 5300 1450 50  0001 C CNN "Part Description"
	1    5300 1450
	0    1    1    0   
$EndComp
$Comp
L Device:R R3
U 1 1 5E3C686C
P 5300 1800
F 0 "R3" V 5093 1800 50  0000 C CNN
F 1 "R0603_100R_1%_0.0625W_100PPM" V 5184 1800 50  0000 C CNN
F 2 "Resistor_SMD:R_0603_1608Metric" V 5230 1800 50  0001 C CNN
F 3 "~" H 5300 1800 50  0001 C CNN
F 4 "0603" V 4700 1250 50  0001 C CNN "Case"
F 5 "Yes" V 4700 1250 50  0001 C CNN "Mounted"
F 6 "General Purpose Thick Film Chip Resistor" V 4700 1250 50  0001 C CNN "Part Description"
	1    5300 1800
	0    1    1    0   
$EndComp
$Comp
L Device:R R1
U 1 1 5E3C68DE
P 5300 1100
F 0 "R1" V 5093 1100 50  0000 C CNN
F 1 "R0603_100R_1%_0.0625W_100PPM" V 5184 1100 50  0000 C CNN
F 2 "Resistor_SMD:R_0603_1608Metric" V 5230 1100 50  0001 C CNN
F 3 "~" H 5300 1100 50  0001 C CNN
F 4 "0603" V 5350 200 50  0001 C CNN "Case"
F 5 "Yes" V 5350 200 50  0001 C CNN "Mounted"
F 6 "General Purpose Thick Film Chip Resistor" V 5350 200 50  0001 C CNN "Part Description"
	1    5300 1100
	0    1    1    0   
$EndComp
$Comp
L Device:R R4
U 1 1 5E3C6934
P 5300 2150
F 0 "R4" V 5093 2150 50  0000 C CNN
F 1 "R0402_100R_1%_0.0625W_100PPM" V 5184 2150 50  0000 C CNN
F 2 "Resistor_SMD:R_0402_1005Metric" V 5230 2150 50  0001 C CNN
F 3 "~" H 5300 2150 50  0001 C CNN
F 4 "0402" V 5150 800 50  0001 C CNN "Case"
F 5 "Yes" V 5150 800 50  0001 C CNN "Mounted"
F 6 "General Purpose Thick Film Chip Resistor" V 5150 800 50  0001 C CNN "Part Description"
	1    5300 2150
	0    1    1    0   
$EndComp
Text Label 5150 1450 2    50   ~ 0
LCB_P
Text Label 5450 1450 0    50   ~ 0
LCB_N
Text Label 5150 1800 2    50   ~ 0
BTC_P
Text Label 5450 1800 0    50   ~ 0
BTC_N
Text Label 5150 1100 2    50   ~ 0
R3L1_P
Text Label 5450 1100 0    50   ~ 0
R3L1_N
Text Label 5450 2150 0    50   ~ 0
D0_N
Text Label 5150 2150 2    50   ~ 0
D0_P
Wire Wire Line
	2100 5300 2100 2400
Wire Wire Line
	4850 4750 4700 4750
Wire Wire Line
	4700 4750 4700 5450
Wire Wire Line
	1950 5450 1950 2250
$Comp
L Device:R NTC1
U 1 1 5E3CEEBE
P 2300 6850
F 0 "NTC1" V 2050 6750 50  0000 L CNN
F 1 "ERTJ0EG103FA" V 2150 6600 50  0000 L CNN
F 2 "Resistor_SMD:R_0402_1005Metric" V 2230 6850 50  0001 C CNN
F 3 "~" H 2300 6850 50  0001 C CNN
F 4 "0402" V 4400 1500 50  0001 C CNN "Case"
F 5 "Yes" V 4400 1500 50  0001 C CNN "Mounted"
F 6 "Thermistor, NTC, 10 kohm, ERTJ Series, 3435 K, SMD, 0402 [1005 Metric]" V 4400 1500 50  0001 C CNN "Part Description"
F 7 "Farnell 1892596" H 2300 6850 50  0001 C CNN "Order Code"
	1    2300 6850
	0    -1   -1   0   
$EndComp
Text Label 2150 6850 2    50   ~ 0
NTCxP
Text Label 2450 6850 0    50   ~ 0
NTCxN
$Comp
L Device:R R5
U 1 1 5E3CF28F
P 5300 2500
F 0 "R5" V 5093 2500 50  0000 C CNN
F 1 "R0603_100R_1%_0.0625W_100PPM" V 5184 2500 50  0000 C CNN
F 2 "Resistor_SMD:R_0603_1608Metric" V 5230 2500 50  0001 C CNN
F 3 "~" H 5300 2500 50  0001 C CNN
F 4 "0603" V 4350 800 50  0001 C CNN "Case"
F 5 "Yes" V 4350 800 50  0001 C CNN "Mounted"
F 6 "General Purpose Thick Film Chip Resistor" V 4350 800 50  0001 C CNN "Part Description"
	1    5300 2500
	0    1    1    0   
$EndComp
Text Label 5450 2500 0    50   ~ 0
CMDin_N
Text Label 5150 2500 2    50   ~ 0
CMDin_P
$Comp
L Connector_Generic:Conn_02x03_Top_Bottom J1
U 1 1 5E3D0E23
P 1300 950
F 0 "J1" H 1350 1267 50  0000 C CNN
F 1 "Molex 39-30-0060" H 1350 1176 50  0000 C CNN
F 2 "Connector_Molex:Molex_Mini-Fit_Jr_5569-06A2_2x03_P4.20mm_Horizontal" H 1300 950 50  0001 C CNN
F 3 "~" H 1300 950 50  0001 C CNN
F 4 "Yes" H 1300 950 50  0001 C CNN "Mounted"
F 5 "Wire-To-Board Connector, Right Angle, 4.2 mm, 6 Contacts, Header, Mini-Fit Jr. 5569 Series" H 1300 950 50  0001 C CNN "Part Description"
F 6 "Farnell 1697135" H 1300 950 50  0001 C CNN "Order Code"
	1    1300 950 
	1    0    0    -1  
$EndComp
$Comp
L power:GND #PWR04
U 1 1 5E3D4257
P 1600 950
F 0 "#PWR04" H 1600 700 50  0001 C CNN
F 1 "GND" V 1605 822 50  0000 R CNN
F 2 "" H 1600 950 50  0001 C CNN
F 3 "" H 1600 950 50  0001 C CNN
	1    1600 950 
	0    -1   -1   0   
$EndComp
$Comp
L power:GND #PWR02
U 1 1 5E3D4300
P 1100 950
F 0 "#PWR02" H 1100 700 50  0001 C CNN
F 1 "GND" V 1105 822 50  0000 R CNN
F 2 "" H 1100 950 50  0001 C CNN
F 3 "" H 1100 950 50  0001 C CNN
	1    1100 950 
	0    1    1    0   
$EndComp
$Comp
L power:+12V #PWR05
U 1 1 5E3D43ED
P 1600 1050
F 0 "#PWR05" H 1600 900 50  0001 C CNN
F 1 "+12V" V 1615 1178 50  0000 L CNN
F 2 "" H 1600 1050 50  0001 C CNN
F 3 "" H 1600 1050 50  0001 C CNN
	1    1600 1050
	0    1    1    0   
$EndComp
$Comp
L power:+12V #PWR03
U 1 1 5E3D4460
P 1100 1050
F 0 "#PWR03" H 1100 900 50  0001 C CNN
F 1 "+12V" V 1115 1178 50  0000 L CNN
F 2 "" H 1100 1050 50  0001 C CNN
F 3 "" H 1100 1050 50  0001 C CNN
	1    1100 1050
	0    -1   -1   0   
$EndComp
Wire Wire Line
	6750 2050 7500 2050
Wire Wire Line
	7050 2150 7500 2150
Text Label 7050 1700 0    50   ~ 0
LCBin_P
Text Label 7050 1800 0    50   ~ 0
LCBin_N
Text Label 7200 2050 0    50   ~ 0
BTCin_P
Text Label 7200 2150 0    50   ~ 0
BTCin_N
Text Label 6900 2950 1    50   ~ 0
R3L1in_P
Text Label 7000 2950 1    50   ~ 0
R3L1in_N
$Comp
L Device:R R6
U 1 1 5E3E066C
P 3600 7300
F 0 "R6" V 3700 7250 50  0000 L CNN
F 1 "R0402_100R_1%_0.0625W_100PPM" V 3800 6700 50  0000 L CNN
F 2 "Resistor_SMD:R_0402_1005Metric" V 3530 7300 50  0001 C CNN
F 3 "~" H 3600 7300 50  0001 C CNN
F 4 "0402" V 1300 2450 50  0001 C CNN "Case"
F 5 "Yes" V 1300 2450 50  0001 C CNN "Mounted"
F 6 "General Purpose Thick Film Chip Resistor" V 1300 2450 50  0001 C CNN "Part Description"
	1    3600 7300
	0    -1   -1   0   
$EndComp
$Comp
L Device:R R7
U 1 1 5E3E06DF
P 3600 6950
F 0 "R7" V 3700 6900 50  0000 L CNN
F 1 "R0402_100R_1%_0.0625W_100PPM" V 3800 6350 50  0000 L CNN
F 2 "Resistor_SMD:R_0402_1005Metric" V 3530 6950 50  0001 C CNN
F 3 "~" H 3600 6950 50  0001 C CNN
F 4 "0402" V 950 2100 50  0001 C CNN "Case"
F 5 "Yes" V 950 2100 50  0001 C CNN "Mounted"
F 6 "General Purpose Thick Film Chip Resistor" V 950 2100 50  0001 C CNN "Part Description"
	1    3600 6950
	0    -1   -1   0   
$EndComp
$Comp
L Device:R R8
U 1 1 5E3E0775
P 3600 6600
F 0 "R8" V 3700 6550 50  0000 L CNN
F 1 "R0402_100R_1%_0.0625W_100PPM" V 3800 6000 50  0000 L CNN
F 2 "Resistor_SMD:R_0402_1005Metric" V 3530 6600 50  0001 C CNN
F 3 "~" H 3600 6600 50  0001 C CNN
F 4 "0402" V 600 1750 50  0001 C CNN "Case"
F 5 "Yes" V 600 1750 50  0001 C CNN "Mounted"
F 6 "General Purpose Thick Film Chip Resistor" V 600 1750 50  0001 C CNN "Part Description"
	1    3600 6600
	0    -1   -1   0   
$EndComp
$Comp
L Device:R R9
U 1 1 5E3E07D9
P 3600 6250
F 0 "R9" V 3700 6200 50  0000 L CNN
F 1 "R0402_100R_1%_0.0625W_100PPM" V 3800 5650 50  0000 L CNN
F 2 "Resistor_SMD:R_0402_1005Metric" V 3530 6250 50  0001 C CNN
F 3 "~" H 3600 6250 50  0001 C CNN
F 4 "0402" V 250 1400 50  0001 C CNN "Case"
F 5 "Yes" V 250 1400 50  0001 C CNN "Mounted"
F 6 "General Purpose Thick Film Chip Resistor" V 250 1400 50  0001 C CNN "Part Description"
	1    3600 6250
	0    -1   -1   0   
$EndComp
Text Label 3450 7300 2    50   ~ 0
BCHYB_N
Text Label 3450 6950 2    50   ~ 0
PRLPHYB_N
Text Label 3450 6600 2    50   ~ 0
LCBHYB_N
Text Label 3450 6250 2    50   ~ 0
RCLK_N
Text Label 3750 7300 0    50   ~ 0
BCHYB_P
Text Label 3750 6950 0    50   ~ 0
PRLPHYB_P
Text Label 3750 6600 0    50   ~ 0
LCBHYB_P
Text Label 3750 6250 0    50   ~ 0
RCLK_P
NoConn ~ 4250 2400
NoConn ~ 4250 2500
$Comp
L Device:R NTC2
U 1 1 5E396F3C
P 2300 6350
F 0 "NTC2" V 2050 6250 50  0000 L CNN
F 1 "ERTJ0EG103FA" V 2150 6100 50  0000 L CNN
F 2 "Resistor_SMD:R_0402_1005Metric" V 2230 6350 50  0001 C CNN
F 3 "~" H 2300 6350 50  0001 C CNN
F 4 "0402" V 3900 1000 50  0001 C CNN "Case"
F 5 "Yes" V 3900 1000 50  0001 C CNN "Mounted"
F 6 "Thermistor, NTC, 10 kohm, ERTJ Series, 3435 K, SMD, 0402 [1005 Metric]" V 3900 1000 50  0001 C CNN "Part Description"
F 7 "Farnell 1892596" H 2300 6350 50  0001 C CNN "Order Code"
	1    2300 6350
	0    -1   -1   0   
$EndComp
Text Label 2150 6350 2    50   ~ 0
NTCyP
Text Label 2450 6350 0    50   ~ 0
NTCyN
Text Label 4250 3650 0    50   ~ 0
NTCyN
Text Label 4250 3750 0    50   ~ 0
NTCyP
Text Label 4250 3250 0    50   ~ 0
CALy
NoConn ~ 4250 1900
Text Label 4250 3550 0    50   ~ 0
LDy1EN
Text Label 9850 4600 2    50   ~ 0
CALy
Text Label 6900 6000 1    50   ~ 0
VOUT_MONITOR
Text Label 1350 5150 2    50   ~ 0
VOUT_MONITOR
$Comp
L Connector_Generic:Conn_01x22 J3
U 1 1 5E380FA1
P 1550 5750
F 0 "J3" H 1450 4500 50  0000 L CNN
F 1 "TE2129320-3" H 1250 4400 50  0000 L CNN
F 2 "GBT-AMAC-adapter:MiniDP" H 1550 5750 50  0001 C CNN
F 3 "~" H 1550 5750 50  0001 C CNN
F 4 "Yes" H 1550 2750 50  0001 C CNN "Mounted"
F 5 "Mouser 571-2129320-3" H 1550 2750 50  0001 C CNN "Order Code"
F 6 "Mini DisplayPort Connector" H 1550 2750 50  0001 C CNN "Part Description"
	1    1550 5750
	1    0    0    -1  
$EndComp
$Comp
L power:GND #PWR010
U 1 1 5EAFCEB6
P 1100 850
F 0 "#PWR010" H 1100 600 50  0001 C CNN
F 1 "GND" V 1105 722 50  0000 R CNN
F 2 "" H 1100 850 50  0001 C CNN
F 3 "" H 1100 850 50  0001 C CNN
	1    1100 850 
	0    1    1    0   
$EndComp
Text Label 1600 850  0    50   ~ 0
HVin
NoConn ~ 4850 5950
NoConn ~ 4850 6100
Wire Wire Line
	1950 2250 2450 2250
Wire Wire Line
	2100 2400 2450 2400
Wire Wire Line
	2100 5300 4550 5300
Wire Wire Line
	1950 5450 4700 5450
Text Label 2450 3600 2    50   ~ 0
HVin
Text Label 2450 3750 2    50   ~ 0
HVout
$Comp
L Device:R R10
U 1 1 5EB064EC
P 2200 5700
F 0 "R10" V 2300 5650 50  0000 L CNN
F 1 "R0805_249k_1%_0.5W_100PPM" V 2100 5100 50  0000 L CNN
F 2 "Resistor_SMD:R_0805_2012Metric" V 2130 5700 50  0001 C CNN
F 3 "~" H 2200 5700 50  0001 C CNN
F 4 "0805" V 2200 5700 50  0001 C CNN "Case"
F 5 "Yes" V 2200 5700 50  0001 C CNN "Mounted"
F 6 "Farnell 2312205" V 2200 5700 50  0001 C CNN "Order Code"
F 7 "General Purpose Thick Film Chip Resistor" V 2200 5700 50  0001 C CNN "Part Description"
	1    2200 5700
	0    -1   -1   0   
$EndComp
Text Label 2050 5700 2    50   ~ 0
HVout
$Comp
L power:GND #PWR011
U 1 1 5EB07908
P 2650 5700
F 0 "#PWR011" H 2650 5450 50  0001 C CNN
F 1 "GND" H 2655 5527 50  0000 C CNN
F 2 "" H 2650 5700 50  0001 C CNN
F 3 "" H 2650 5700 50  0001 C CNN
	1    2650 5700
	0    -1   -1   0   
$EndComp
$Comp
L Device:R R11
U 1 1 5EB080B6
P 6900 6150
F 0 "R11" V 7000 6050 50  0000 L CNN
F 1 "R0603_1k_1%_0.0625W_100PPM" V 7100 5800 50  0000 L CNN
F 2 "Resistor_SMD:R_0603_1608Metric" V 6830 6150 50  0001 C CNN
F 3 "~" H 6900 6150 50  0001 C CNN
F 4 "0603" V 6900 6150 50  0001 C CNN "Case"
F 5 "Yes" V 6900 6150 50  0001 C CNN "Mounted"
F 6 "General Purpose Thick Film Chip Resistor" V 6900 6150 50  0001 C CNN "Part Description"
	1    6900 6150
	1    0    0    -1  
$EndComp
Wire Wire Line
	6650 6500 6900 6500
Wire Wire Line
	6900 6500 6900 6300
Wire Wire Line
	7500 600  8200 600 
Wire Wire Line
	8200 600  8200 700 
Wire Wire Line
	8000 700  7500 700 
Wire Wire Line
	7500 700  7500 800 
Wire Wire Line
	7000 2400 7500 2400
Wire Wire Line
	7000 2400 7000 3100
Wire Wire Line
	7500 2300 6900 2300
Wire Wire Line
	6900 2300 6900 3400
Wire Wire Line
	6200 1600 6200 1800
Wire Wire Line
	6200 1800 7300 1800
Wire Wire Line
	7300 1800 7300 1900
Wire Wire Line
	7300 1900 7500 1900
Wire Wire Line
	7500 1800 7500 1700
Wire Wire Line
	7500 1700 6300 1700
Wire Wire Line
	6300 1700 6300 1300
Wire Wire Line
	9900 2400 9900 3000
Wire Wire Line
	9900 3300 9900 3600
Wire Wire Line
	9900 3600 10400 3600
$Comp
L Device:R R12
U 1 1 5EB0562D
P 2500 5700
F 0 "R12" V 2600 5650 50  0000 L CNN
F 1 "R0805_249k_1%_0.5W_100PPM" V 2300 5100 50  0000 L CNN
F 2 "Resistor_SMD:R_0805_2012Metric" V 2430 5700 50  0001 C CNN
F 3 "~" H 2500 5700 50  0001 C CNN
F 4 "0805" V 2500 5700 50  0001 C CNN "Case"
F 5 "Yes" V 2500 5700 50  0001 C CNN "Mounted"
F 6 "Farnell 2312205" V 2500 5700 50  0001 C CNN "Order Code"
F 7 "General Purpose Thick Film Chip Resistor" V 2500 5700 50  0001 C CNN "Part Description"
	1    2500 5700
	0    -1   -1   0   
$EndComp
Text Notes 1000 1600 0    50   ~ 0
NB. all CCR inverted
Text Label 10750 6300 3    50   ~ 0
D1_N
Text Label 10850 6300 3    50   ~ 0
D1_P
Text Label 1350 3350 2    50   ~ 0
D1_N
Text Label 1350 3150 2    50   ~ 0
D1_P
$EndSCHEMATC
