(export (version D)
  (design
    (source H:\KiCad\starChipsSEE\starChipsSEE.sch)
    (date "15/12/2021 11:16:04")
    (tool "Eeschema (5.1.6)-1")
    (sheet (number 1) (name /) (tstamps /)
      (title_block
        (title)
        (company)
        (rev)
        (date)
        (source starChipsSEE.sch)
        (comment (number 1) (value ""))
        (comment (number 2) (value ""))
        (comment (number 3) (value ""))
        (comment (number 4) (value "")))))
  (components
    (comp (ref U4)
      (value ABCStar)
      (footprint starChips:ABCStar)
      (fields
        (field (name Mounted) No))
      (libsource (lib starChips) (part ABCStar) (description ""))
      (sheetpath (names /) (tstamps /))
      (tstamp 5E3804C5))
    (comp (ref U3)
      (value HCCStar)
      (footprint starChips:HCCStarV1)
      (fields
        (field (name Mounted) No))
      (libsource (lib starChips) (part HCCStar) (description ""))
      (sheetpath (names /) (tstamps /))
      (tstamp 5E38057D))
    (comp (ref U2)
      (value Powerboard)
      (footprint starChips:Powerboard)
      (fields
        (field (name Mounted) No))
      (libsource (lib starChips) (part Powerboard) (description ""))
      (sheetpath (names /) (tstamps /))
      (tstamp 5E3806B2))
    (comp (ref U1)
      (value Powerboard)
      (footprint starChips:Powerboard)
      (fields
        (field (name Mounted) No))
      (libsource (lib starChips) (part Powerboard) (description ""))
      (sheetpath (names /) (tstamps /))
      (tstamp 5E380732))
    (comp (ref J2)
      (value TE2129320-3)
      (footprint GBT-AMAC-adapter:MiniDP)
      (datasheet ~)
      (fields
        (field (name Mounted) Yes)
        (field (name "Order Code") "Mouser 571-2129320-3")
        (field (name "Part Description") "Mini DisplayPort Connector"))
      (libsource (lib Connector_Generic) (part Conn_01x22) (description "Generic connector, single row, 01x22, script generated (kicad-library-utils/schlib/autogen/connector/)"))
      (sheetpath (names /) (tstamps /))
      (tstamp 5E380EE5))
    (comp (ref C1)
      (value CC0402_220NF_16V_10%_X7R)
      (footprint Capacitor_SMD:C_0402_1005Metric)
      (datasheet ~)
      (fields
        (field (name Case) 0402)
        (field (name Mounted) Yes)
        (field (name "Part Description") "SMD Multilayer Chip Ceramic Capacitor"))
      (libsource (lib Device) (part C) (description "Unpolarized capacitor"))
      (sheetpath (names /) (tstamps /))
      (tstamp 5E3A82BD))
    (comp (ref C4)
      (value CC0402_220NF_16V_10%_X7R)
      (footprint Capacitor_SMD:C_0402_1005Metric)
      (datasheet ~)
      (fields
        (field (name Case) 0402)
        (field (name Mounted) Yes)
        (field (name "Part Description") "SMD Multilayer Chip Ceramic Capacitor"))
      (libsource (lib Device) (part C) (description "Unpolarized capacitor"))
      (sheetpath (names /) (tstamps /))
      (tstamp 5E3A8354))
    (comp (ref C2)
      (value CC0402_220NF_16V_10%_X7R)
      (footprint Capacitor_SMD:C_0402_1005Metric)
      (datasheet ~)
      (fields
        (field (name Case) 0402)
        (field (name Mounted) Yes)
        (field (name "Part Description") "SMD Multilayer Chip Ceramic Capacitor"))
      (libsource (lib Device) (part C) (description "Unpolarized capacitor"))
      (sheetpath (names /) (tstamps /))
      (tstamp 5E3A83EB))
    (comp (ref C5)
      (value CC0402_220NF_16V_10%_X7R)
      (footprint Capacitor_SMD:C_0402_1005Metric)
      (datasheet ~)
      (fields
        (field (name Case) 0402)
        (field (name Mounted) Yes)
        (field (name "Part Description") "SMD Multilayer Chip Ceramic Capacitor"))
      (libsource (lib Device) (part C) (description "Unpolarized capacitor"))
      (sheetpath (names /) (tstamps /))
      (tstamp 5E3A83F2))
    (comp (ref C3)
      (value CC0402_220NF_16V_10%_X7R)
      (footprint Capacitor_SMD:C_0402_1005Metric)
      (datasheet ~)
      (fields
        (field (name Case) 0402)
        (field (name Mounted) Yes)
        (field (name "Part Description") "SMD Multilayer Chip Ceramic Capacitor"))
      (libsource (lib Device) (part C) (description "Unpolarized capacitor"))
      (sheetpath (names /) (tstamps /))
      (tstamp 5E3A8AFE))
    (comp (ref C6)
      (value CC0402_220NF_16V_10%_X7R)
      (footprint Capacitor_SMD:C_0402_1005Metric)
      (datasheet ~)
      (fields
        (field (name Case) 0402)
        (field (name Mounted) Yes)
        (field (name "Part Description") "SMD Multilayer Chip Ceramic Capacitor"))
      (libsource (lib Device) (part C) (description "Unpolarized capacitor"))
      (sheetpath (names /) (tstamps /))
      (tstamp 5E3A8B05))
    (comp (ref C7)
      (value CC0402_100NF_16V_10%_X7R)
      (footprint Capacitor_SMD:C_0402_1005Metric)
      (datasheet ~)
      (fields
        (field (name Case) 0402)
        (field (name Mounted) Yes)
        (field (name "Part Description") "SMD Multilayer Chip Ceramic Capacitor"))
      (libsource (lib Device) (part C) (description "Unpolarized capacitor"))
      (sheetpath (names /) (tstamps /))
      (tstamp 5E3B67DB))
    (comp (ref C8)
      (value CC0402_100NF_16V_10%_X7R)
      (footprint Capacitor_SMD:C_0402_1005Metric)
      (datasheet ~)
      (fields
        (field (name Case) 0402)
        (field (name Mounted) Yes)
        (field (name "Part Description") "SMD Multilayer Chip Ceramic Capacitor"))
      (libsource (lib Device) (part C) (description "Unpolarized capacitor"))
      (sheetpath (names /) (tstamps /))
      (tstamp 5E3B67E2))
    (comp (ref C9)
      (value CC0402_100NF_16V_10%_X7R)
      (footprint Capacitor_SMD:C_0402_1005Metric)
      (datasheet ~)
      (fields
        (field (name Case) 0402)
        (field (name Mounted) Yes)
        (field (name "Part Description") "SMD Multilayer Chip Ceramic Capacitor"))
      (libsource (lib Device) (part C) (description "Unpolarized capacitor"))
      (sheetpath (names /) (tstamps /))
      (tstamp 5E3BCBC7))
    (comp (ref C10)
      (value CC0402_100NF_16V_10%_X7R)
      (footprint Capacitor_SMD:C_0402_1005Metric)
      (datasheet ~)
      (fields
        (field (name Case) 0402)
        (field (name Mounted) Yes)
        (field (name "Part Description") "SMD Multilayer Chip Ceramic Capacitor"))
      (libsource (lib Device) (part C) (description "Unpolarized capacitor"))
      (sheetpath (names /) (tstamps /))
      (tstamp 5E3BCBCE))
    (comp (ref C11)
      (value CC0402_220NF_16V_10%_X7R)
      (footprint Capacitor_SMD:C_0402_1005Metric)
      (datasheet ~)
      (fields
        (field (name Case) 0402)
        (field (name Mounted) Yes)
        (field (name "Part Description") "SMD Multilayer Chip Ceramic Capacitor"))
      (libsource (lib Device) (part C) (description "Unpolarized capacitor"))
      (sheetpath (names /) (tstamps /))
      (tstamp 5E3BEB75))
    (comp (ref C12)
      (value CC0402_100NF_16V_10%_X7R)
      (footprint Capacitor_SMD:C_0402_1005Metric)
      (datasheet ~)
      (fields
        (field (name Case) 0402)
        (field (name Mounted) Yes)
        (field (name "Part Description") "SMD Multilayer Chip Ceramic Capacitor"))
      (libsource (lib Device) (part C) (description "Unpolarized capacitor"))
      (sheetpath (names /) (tstamps /))
      (tstamp 5E3BEC7D))
    (comp (ref C13)
      (value CC0402_100NF_16V_10%_X7R)
      (footprint Capacitor_SMD:C_0402_1005Metric)
      (datasheet ~)
      (fields
        (field (name Case) 0402)
        (field (name Mounted) Yes)
        (field (name "Part Description") "SMD Multilayer Chip Ceramic Capacitor"))
      (libsource (lib Device) (part C) (description "Unpolarized capacitor"))
      (sheetpath (names /) (tstamps /))
      (tstamp 5E3BECCB))
    (comp (ref C14)
      (value CC0402_100NF_16V_10%_X7R)
      (footprint Capacitor_SMD:C_0402_1005Metric)
      (datasheet ~)
      (fields
        (field (name Case) 0402)
        (field (name Mounted) Yes)
        (field (name "Part Description") "SMD Multilayer Chip Ceramic Capacitor"))
      (libsource (lib Device) (part C) (description "Unpolarized capacitor"))
      (sheetpath (names /) (tstamps /))
      (tstamp 5E3BED1B))
    (comp (ref R2)
      (value R0603_100R_1%_0.0625W_100PPM)
      (footprint Resistor_SMD:R_0603_1608Metric)
      (datasheet ~)
      (fields
        (field (name Case) 0603)
        (field (name Mounted) Yes)
        (field (name "Part Description") "General Purpose Thick Film Chip Resistor"))
      (libsource (lib Device) (part R) (description Resistor))
      (sheetpath (names /) (tstamps /))
      (tstamp 5E3C67FC))
    (comp (ref R3)
      (value R0603_100R_1%_0.0625W_100PPM)
      (footprint Resistor_SMD:R_0603_1608Metric)
      (datasheet ~)
      (fields
        (field (name Case) 0603)
        (field (name Mounted) Yes)
        (field (name "Part Description") "General Purpose Thick Film Chip Resistor"))
      (libsource (lib Device) (part R) (description Resistor))
      (sheetpath (names /) (tstamps /))
      (tstamp 5E3C686C))
    (comp (ref R1)
      (value R0603_100R_1%_0.0625W_100PPM)
      (footprint Resistor_SMD:R_0603_1608Metric)
      (datasheet ~)
      (fields
        (field (name Case) 0603)
        (field (name Mounted) Yes)
        (field (name "Part Description") "General Purpose Thick Film Chip Resistor"))
      (libsource (lib Device) (part R) (description Resistor))
      (sheetpath (names /) (tstamps /))
      (tstamp 5E3C68DE))
    (comp (ref R4)
      (value R0402_100R_1%_0.0625W_100PPM)
      (footprint Resistor_SMD:R_0402_1005Metric)
      (datasheet ~)
      (fields
        (field (name Case) 0402)
        (field (name Mounted) Yes)
        (field (name "Part Description") "General Purpose Thick Film Chip Resistor"))
      (libsource (lib Device) (part R) (description Resistor))
      (sheetpath (names /) (tstamps /))
      (tstamp 5E3C6934))
    (comp (ref NTC1)
      (value ERTJ0EG103FA)
      (footprint Resistor_SMD:R_0402_1005Metric)
      (datasheet ~)
      (fields
        (field (name Case) 0402)
        (field (name Mounted) Yes)
        (field (name "Order Code") "Farnell 1892596")
        (field (name "Part Description") "Thermistor, NTC, 10 kohm, ERTJ Series, 3435 K, SMD, 0402 [1005 Metric]"))
      (libsource (lib Device) (part R) (description Resistor))
      (sheetpath (names /) (tstamps /))
      (tstamp 5E3CEEBE))
    (comp (ref R5)
      (value R0603_100R_1%_0.0625W_100PPM)
      (footprint Resistor_SMD:R_0603_1608Metric)
      (datasheet ~)
      (fields
        (field (name Case) 0603)
        (field (name Mounted) Yes)
        (field (name "Part Description") "General Purpose Thick Film Chip Resistor"))
      (libsource (lib Device) (part R) (description Resistor))
      (sheetpath (names /) (tstamps /))
      (tstamp 5E3CF28F))
    (comp (ref J1)
      (value "Molex 39-30-0060")
      (footprint Connector_Molex:Molex_Mini-Fit_Jr_5569-06A2_2x03_P4.20mm_Horizontal)
      (datasheet ~)
      (fields
        (field (name Mounted) Yes)
        (field (name "Order Code") "Farnell 1697135")
        (field (name "Part Description") "Wire-To-Board Connector, Right Angle, 4.2 mm, 6 Contacts, Header, Mini-Fit Jr. 5569 Series"))
      (libsource (lib Connector_Generic) (part Conn_02x03_Top_Bottom) (description "Generic connector, double row, 02x03, top/bottom pin numbering scheme (row 1: 1...pins_per_row, row2: pins_per_row+1 ... num_pins), script generated (kicad-library-utils/schlib/autogen/connector/)"))
      (sheetpath (names /) (tstamps /))
      (tstamp 5E3D0E23))
    (comp (ref R6)
      (value R0402_100R_1%_0.0625W_100PPM)
      (footprint Resistor_SMD:R_0402_1005Metric)
      (datasheet ~)
      (fields
        (field (name Case) 0402)
        (field (name Mounted) Yes)
        (field (name "Part Description") "General Purpose Thick Film Chip Resistor"))
      (libsource (lib Device) (part R) (description Resistor))
      (sheetpath (names /) (tstamps /))
      (tstamp 5E3E066C))
    (comp (ref R7)
      (value R0402_100R_1%_0.0625W_100PPM)
      (footprint Resistor_SMD:R_0402_1005Metric)
      (datasheet ~)
      (fields
        (field (name Case) 0402)
        (field (name Mounted) Yes)
        (field (name "Part Description") "General Purpose Thick Film Chip Resistor"))
      (libsource (lib Device) (part R) (description Resistor))
      (sheetpath (names /) (tstamps /))
      (tstamp 5E3E06DF))
    (comp (ref R8)
      (value R0402_100R_1%_0.0625W_100PPM)
      (footprint Resistor_SMD:R_0402_1005Metric)
      (datasheet ~)
      (fields
        (field (name Case) 0402)
        (field (name Mounted) Yes)
        (field (name "Part Description") "General Purpose Thick Film Chip Resistor"))
      (libsource (lib Device) (part R) (description Resistor))
      (sheetpath (names /) (tstamps /))
      (tstamp 5E3E0775))
    (comp (ref R9)
      (value R0402_100R_1%_0.0625W_100PPM)
      (footprint Resistor_SMD:R_0402_1005Metric)
      (datasheet ~)
      (fields
        (field (name Case) 0402)
        (field (name Mounted) Yes)
        (field (name "Part Description") "General Purpose Thick Film Chip Resistor"))
      (libsource (lib Device) (part R) (description Resistor))
      (sheetpath (names /) (tstamps /))
      (tstamp 5E3E07D9))
    (comp (ref NTC2)
      (value ERTJ0EG103FA)
      (footprint Resistor_SMD:R_0402_1005Metric)
      (datasheet ~)
      (fields
        (field (name Case) 0402)
        (field (name Mounted) Yes)
        (field (name "Order Code") "Farnell 1892596")
        (field (name "Part Description") "Thermistor, NTC, 10 kohm, ERTJ Series, 3435 K, SMD, 0402 [1005 Metric]"))
      (libsource (lib Device) (part R) (description Resistor))
      (sheetpath (names /) (tstamps /))
      (tstamp 5E396F3C))
    (comp (ref J3)
      (value TE2129320-3)
      (footprint GBT-AMAC-adapter:MiniDP)
      (datasheet ~)
      (fields
        (field (name Mounted) Yes)
        (field (name "Order Code") "Mouser 571-2129320-3")
        (field (name "Part Description") "Mini DisplayPort Connector"))
      (libsource (lib Connector_Generic) (part Conn_01x22) (description "Generic connector, single row, 01x22, script generated (kicad-library-utils/schlib/autogen/connector/)"))
      (sheetpath (names /) (tstamps /))
      (tstamp 5E380FA1))
    (comp (ref R10)
      (value R0805_249k_1%_0.5W_100PPM)
      (footprint Resistor_SMD:R_0805_2012Metric)
      (datasheet ~)
      (fields
        (field (name Case) 0805)
        (field (name Mounted) Yes)
        (field (name "Order Code") "Farnell 2312205")
        (field (name "Part Description") "General Purpose Thick Film Chip Resistor"))
      (libsource (lib Device) (part R) (description Resistor))
      (sheetpath (names /) (tstamps /))
      (tstamp 5EB064EC))
    (comp (ref R11)
      (value R0603_1k_1%_0.0625W_100PPM)
      (footprint Resistor_SMD:R_0603_1608Metric)
      (datasheet ~)
      (fields
        (field (name Case) 0603)
        (field (name Mounted) Yes)
        (field (name "Part Description") "General Purpose Thick Film Chip Resistor"))
      (libsource (lib Device) (part R) (description Resistor))
      (sheetpath (names /) (tstamps /))
      (tstamp 5EB080B6))
    (comp (ref R12)
      (value R0805_249k_1%_0.5W_100PPM)
      (footprint Resistor_SMD:R_0805_2012Metric)
      (datasheet ~)
      (fields
        (field (name Case) 0805)
        (field (name Mounted) Yes)
        (field (name "Order Code") "Farnell 2312205")
        (field (name "Part Description") "General Purpose Thick Film Chip Resistor"))
      (libsource (lib Device) (part R) (description Resistor))
      (sheetpath (names /) (tstamps /))
      (tstamp 5EB0562D)))
  (libparts
    (libpart (lib Connector_Generic) (part Conn_01x22)
      (description "Generic connector, single row, 01x22, script generated (kicad-library-utils/schlib/autogen/connector/)")
      (docs ~)
      (footprints
        (fp Connector*:*_1x??_*))
      (fields
        (field (name Reference) J)
        (field (name Value) Conn_01x22))
      (pins
        (pin (num 1) (name Pin_1) (type passive))
        (pin (num 2) (name Pin_2) (type passive))
        (pin (num 3) (name Pin_3) (type passive))
        (pin (num 4) (name Pin_4) (type passive))
        (pin (num 5) (name Pin_5) (type passive))
        (pin (num 6) (name Pin_6) (type passive))
        (pin (num 7) (name Pin_7) (type passive))
        (pin (num 8) (name Pin_8) (type passive))
        (pin (num 9) (name Pin_9) (type passive))
        (pin (num 10) (name Pin_10) (type passive))
        (pin (num 11) (name Pin_11) (type passive))
        (pin (num 12) (name Pin_12) (type passive))
        (pin (num 13) (name Pin_13) (type passive))
        (pin (num 14) (name Pin_14) (type passive))
        (pin (num 15) (name Pin_15) (type passive))
        (pin (num 16) (name Pin_16) (type passive))
        (pin (num 17) (name Pin_17) (type passive))
        (pin (num 18) (name Pin_18) (type passive))
        (pin (num 19) (name Pin_19) (type passive))
        (pin (num 20) (name Pin_20) (type passive))
        (pin (num 21) (name Pin_21) (type passive))
        (pin (num 22) (name Pin_22) (type passive))))
    (libpart (lib Connector_Generic) (part Conn_02x03_Top_Bottom)
      (description "Generic connector, double row, 02x03, top/bottom pin numbering scheme (row 1: 1...pins_per_row, row2: pins_per_row+1 ... num_pins), script generated (kicad-library-utils/schlib/autogen/connector/)")
      (docs ~)
      (footprints
        (fp Connector*:*_2x??_*))
      (fields
        (field (name Reference) J)
        (field (name Value) Conn_02x03_Top_Bottom))
      (pins
        (pin (num 1) (name Pin_1) (type passive))
        (pin (num 2) (name Pin_2) (type passive))
        (pin (num 3) (name Pin_3) (type passive))
        (pin (num 4) (name Pin_4) (type passive))
        (pin (num 5) (name Pin_5) (type passive))
        (pin (num 6) (name Pin_6) (type passive))))
    (libpart (lib Device) (part C)
      (description "Unpolarized capacitor")
      (docs ~)
      (footprints
        (fp C_*))
      (fields
        (field (name Reference) C)
        (field (name Value) C))
      (pins
        (pin (num 1) (name ~) (type passive))
        (pin (num 2) (name ~) (type passive))))
    (libpart (lib Device) (part R)
      (description Resistor)
      (docs ~)
      (footprints
        (fp R_*))
      (fields
        (field (name Reference) R)
        (field (name Value) R))
      (pins
        (pin (num 1) (name ~) (type passive))
        (pin (num 2) (name ~) (type passive))))
    (libpart (lib starChips) (part ABCStar)
      (fields
        (field (name Reference) U)
        (field (name Value) ABCStar))
      (pins
        (pin (num 1) (name BC_N) (type input))
        (pin (num 2) (name BC_P) (type input))
        (pin (num 3) (name PRLP_N) (type input))
        (pin (num 4) (name PRLP_P) (type input))
        (pin (num 5) (name ADCAL) (type input))
        (pin (num 6) (name RSTB) (type input))
        (pin (num 7) (name PowerLow) (type input))
        (pin (num 8) (name ShuntCtrl) (type input))
        (pin (num 9) (name LCB_N) (type input))
        (pin (num 10) (name LCB_P) (type input))
        (pin (num 11) (name CLK_N) (type input))
        (pin (num 12) (name CLK_P) (type input))
        (pin (num 13) (name DATA_N) (type output))
        (pin (num 14) (name DATA_P) (type output))
        (pin (num 15) (name DVDD) (type power_in))
        (pin (num 16) (name VDDD) (type power_in))
        (pin (num 17) (name VDDA) (type power_in))
        (pin (num 18) (name GND) (type power_in))
        (pin (num 19) (name VDDD) (type power_in))
        (pin (num 20) (name TESTOUT_N) (type input))
        (pin (num 21) (name TESTOUT_P) (type input))))
    (libpart (lib starChips) (part HCCStar)
      (fields
        (field (name Reference) U)
        (field (name Value) HCCStar))
      (pins
        (pin (num 1) (name R3L1in_N) (type input))
        (pin (num 2) (name R3L1in_P) (type input))
        (pin (num 3) (name BTCin_N) (type input))
        (pin (num 4) (name BTCin_P) (type input))
        (pin (num 5) (name LCBin_N) (type input))
        (pin (num 6) (name LCBin_P) (type input))
        (pin (num 7) (name Data_N) (type input))
        (pin (num 8) (name Data_P) (type input))
        (pin (num 9) (name CALin) (type input))
        (pin (num 10) (name LowPower) (type input))
        (pin (num 11) (name RSTB) (type input))
        (pin (num 12) (name SSSH) (type output))
        (pin (num 13) (name ABCSRTB) (type output))
        (pin (num 14) (name RCLK_N) (type output))
        (pin (num 15) (name RCLK_P) (type output))
        (pin (num 16) (name LCBHYB_N) (type output))
        (pin (num 17) (name LCBHYB_P) (type output))
        (pin (num 18) (name PRLPHYB_N) (type output))
        (pin (num 19) (name PRLPHYB_P) (type output))
        (pin (num 20) (name BCHYB_N) (type output))
        (pin (num 21) (name BCHYB_P) (type output))
        (pin (num 22) (name D0_P) (type input))
        (pin (num 23) (name D0_N) (type input))
        (pin (num 24) (name D1_P) (type input))
        (pin (num 25) (name D1_N) (type input))
        (pin (num 26) (name D2_P) (type input))
        (pin (num 27) (name D2_N) (type input))
        (pin (num 28) (name D3_P) (type input))
        (pin (num 29) (name D3_N) (type input))
        (pin (num 30) (name D4_P) (type input))
        (pin (num 31) (name D4_N) (type input))
        (pin (num 32) (name D5_P) (type input))
        (pin (num 33) (name D5_N) (type input))
        (pin (num 34) (name D6_P) (type input))
        (pin (num 35) (name D6_N) (type input))
        (pin (num 36) (name D7_P) (type input))
        (pin (num 37) (name D7_N) (type input))
        (pin (num 38) (name D8_P) (type input))
        (pin (num 39) (name D8_N) (type input))
        (pin (num 40) (name D9_P) (type input))
        (pin (num 41) (name D9_N) (type input))
        (pin (num 42) (name VDD) (type power_in))
        (pin (num 43) (name DVDD) (type power_in))
        (pin (num 44) (name VDD) (type power_in))
        (pin (num 45) (name GND) (type power_in))))
    (libpart (lib starChips) (part Powerboard)
      (fields
        (field (name Reference) U)
        (field (name Value) Powerboard))
      (pins
        (pin (num 1) (name GND) (type power_in))
        (pin (num 2) (name Vin) (type power_in))
        (pin (num 3) (name CMDin_N) (type input))
        (pin (num 4) (name CMDin_P) (type input))
        (pin (num 5) (name CMDout_N) (type output))
        (pin (num 6) (name CMDout_P) (type output))
        (pin (num 7) (name CAL) (type input))
        (pin (num 8) (name OFin) (type input))
        (pin (num 9) (name OFout) (type output))
        (pin (num 10) (name CALx) (type output))
        (pin (num 11) (name SHUNTx) (type output))
        (pin (num 12) (name LDx2EN) (type output))
        (pin (num 13) (name LDx1EN) (type output))
        (pin (num 14) (name NTCxN) (type output))
        (pin (num 15) (name NTCxP) (type output))
        (pin (num 16) (name HREFx) (type output))
        (pin (num 17) (name GNDx) (type power_out))
        (pin (num 18) (name VOUTx) (type power_out))
        (pin (num 19) (name SSSHx) (type input))
        (pin (num 20) (name HRSTBx) (type output))
        (pin (num 21) (name LDx0EN) (type output))
        (pin (num 22) (name CALy) (type output))
        (pin (num 23) (name SHUNTy) (type output))
        (pin (num 24) (name LDy2EN) (type output))
        (pin (num 25) (name LDy1EN) (type output))
        (pin (num 26) (name NTCyN) (type output))
        (pin (num 27) (name NTCyP) (type output))
        (pin (num 28) (name HREFy) (type output))
        (pin (num 29) (name GNDy) (type power_out))
        (pin (num 30) (name VOUTy) (type power_out))
        (pin (num 31) (name SSSHy) (type input))
        (pin (num 32) (name HRSTBy) (type output))
        (pin (num 33) (name LDy0EN) (type output))
        (pin (num 34) (name HVin) (type input))
        (pin (num 35) (name HVout) (type output)))))
  (libraries
    (library (logical Connector_Generic)
      (uri "C:\\Program Files\\KiCad\\share\\kicad\\library/Connector_Generic.lib"))
    (library (logical Device)
      (uri "C:\\Program Files\\KiCad\\share\\kicad\\library/Device.lib"))
    (library (logical starChips)
      (uri H:\KiCad\starChipsSEE/starChips.lib)))
  (nets
    (net (code 1) (name /R3L1_N)
      (node (ref C6) (pin 2))
      (node (ref R1) (pin 1))
      (node (ref J2) (pin 3)))
    (net (code 2) (name /BTC_P)
      (node (ref J2) (pin 18))
      (node (ref C2) (pin 2))
      (node (ref R3) (pin 2)))
    (net (code 3) (name /BTC_N)
      (node (ref C5) (pin 2))
      (node (ref R3) (pin 1))
      (node (ref J2) (pin 16)))
    (net (code 4) (name /R3L1_P)
      (node (ref C3) (pin 2))
      (node (ref J2) (pin 5))
      (node (ref R1) (pin 2)))
    (net (code 5) (name "Net-(C7-Pad1)")
      (node (ref U3) (pin 44))
      (node (ref C7) (pin 1)))
    (net (code 6) (name /GNDx)
      (node (ref C12) (pin 1))
      (node (ref C13) (pin 1))
      (node (ref C14) (pin 1))
      (node (ref C11) (pin 2))
      (node (ref C10) (pin 1))
      (node (ref U1) (pin 29))
      (node (ref U1) (pin 16))
      (node (ref U4) (pin 18))
      (node (ref U3) (pin 45))
      (node (ref C7) (pin 2))
      (node (ref C8) (pin 2))
      (node (ref C9) (pin 1)))
    (net (code 7) (name /LCB_P)
      (node (ref R2) (pin 2))
      (node (ref C1) (pin 2))
      (node (ref J2) (pin 12)))
    (net (code 8) (name "Net-(C14-Pad2)")
      (node (ref C14) (pin 2))
      (node (ref U4) (pin 19)))
    (net (code 9) (name "Net-(C13-Pad2)")
      (node (ref C13) (pin 2))
      (node (ref U4) (pin 17)))
    (net (code 10) (name "Net-(C12-Pad2)")
      (node (ref U4) (pin 16))
      (node (ref C12) (pin 2)))
    (net (code 11) (name /LCB_N)
      (node (ref C4) (pin 2))
      (node (ref J2) (pin 10))
      (node (ref R2) (pin 1)))
    (net (code 12) (name "Net-(U3-Pad34)")
      (node (ref U3) (pin 34)))
    (net (code 13) (name "Net-(U3-Pad26)")
      (node (ref U3) (pin 26)))
    (net (code 14) (name "Net-(U3-Pad27)")
      (node (ref U3) (pin 27)))
    (net (code 15) (name "Net-(U3-Pad28)")
      (node (ref U3) (pin 28)))
    (net (code 16) (name "Net-(U3-Pad29)")
      (node (ref U3) (pin 29)))
    (net (code 17) (name "Net-(U3-Pad30)")
      (node (ref U3) (pin 30)))
    (net (code 18) (name "Net-(U3-Pad31)")
      (node (ref U3) (pin 31)))
    (net (code 19) (name "Net-(U3-Pad32)")
      (node (ref U3) (pin 32)))
    (net (code 20) (name "Net-(U3-Pad33)")
      (node (ref U3) (pin 33)))
    (net (code 21) (name "Net-(U3-Pad25)")
      (node (ref U3) (pin 25)))
    (net (code 22) (name "Net-(U3-Pad35)")
      (node (ref U3) (pin 35)))
    (net (code 23) (name "Net-(U3-Pad36)")
      (node (ref U3) (pin 36)))
    (net (code 24) (name "Net-(U3-Pad37)")
      (node (ref U3) (pin 37)))
    (net (code 25) (name "Net-(U3-Pad38)")
      (node (ref U3) (pin 38)))
    (net (code 26) (name "Net-(U3-Pad39)")
      (node (ref U3) (pin 39)))
    (net (code 27) (name "Net-(U3-Pad40)")
      (node (ref U3) (pin 40)))
    (net (code 28) (name "Net-(U3-Pad41)")
      (node (ref U3) (pin 41)))
    (net (code 29) (name +12V)
      (node (ref U2) (pin 2))
      (node (ref J1) (pin 3))
      (node (ref U1) (pin 2))
      (node (ref J1) (pin 6)))
    (net (code 30) (name "Net-(U3-Pad24)")
      (node (ref U3) (pin 24)))
    (net (code 31) (name "Net-(U1-Pad12)")
      (node (ref U1) (pin 12)))
    (net (code 32) (name GND)
      (node (ref U1) (pin 1))
      (node (ref J1) (pin 2))
      (node (ref J1) (pin 1))
      (node (ref U2) (pin 1))
      (node (ref J1) (pin 5))
      (node (ref J2) (pin 14))
      (node (ref J2) (pin 19))
      (node (ref J2) (pin 21))
      (node (ref J2) (pin 22))
      (node (ref J2) (pin 13))
      (node (ref J2) (pin 7))
      (node (ref J2) (pin 8))
      (node (ref J2) (pin 1))
      (node (ref J3) (pin 21))
      (node (ref R12) (pin 2))
      (node (ref J3) (pin 13))
      (node (ref J3) (pin 7))
      (node (ref J3) (pin 14))
      (node (ref J3) (pin 1))
      (node (ref J3) (pin 8))
      (node (ref J3) (pin 22))
      (node (ref J3) (pin 19)))
    (net (code 33) (name "Net-(J3-Pad3)")
      (node (ref J3) (pin 3)))
    (net (code 34) (name "Net-(J3-Pad6)")
      (node (ref J3) (pin 6)))
    (net (code 35) (name "Net-(J3-Pad9)")
      (node (ref J3) (pin 9)))
    (net (code 36) (name "Net-(U2-Pad34)")
      (node (ref U2) (pin 34)))
    (net (code 37) (name "Net-(U2-Pad35)")
      (node (ref U2) (pin 35)))
    (net (code 38) (name "Net-(U1-Pad9)")
      (node (ref U1) (pin 9))
      (node (ref U2) (pin 8)))
    (net (code 39) (name "Net-(U1-Pad8)")
      (node (ref U1) (pin 8))
      (node (ref U2) (pin 9)))
    (net (code 40) (name "Net-(J3-Pad15)")
      (node (ref J3) (pin 15)))
    (net (code 41) (name "Net-(J3-Pad11)")
      (node (ref J3) (pin 11)))
    (net (code 42) (name "Net-(J3-Pad17)")
      (node (ref J3) (pin 17)))
    (net (code 43) (name "Net-(J3-Pad2)")
      (node (ref J3) (pin 2)))
    (net (code 44) (name "Net-(J3-Pad20)")
      (node (ref J3) (pin 20)))
    (net (code 45) (name "Net-(R10-Pad2)")
      (node (ref R12) (pin 1))
      (node (ref R10) (pin 2)))
    (net (code 46) (name "Net-(R11-Pad2)")
      (node (ref U2) (pin 30))
      (node (ref R11) (pin 2)))
    (net (code 47) (name /VOUT_MONITOR)
      (node (ref R11) (pin 1))
      (node (ref J3) (pin 5)))
    (net (code 48) (name "Net-(C8-Pad1)")
      (node (ref U3) (pin 42))
      (node (ref C8) (pin 1)))
    (net (code 49) (name /HVin)
      (node (ref U1) (pin 34))
      (node (ref J1) (pin 4)))
    (net (code 50) (name /NTCyN)
      (node (ref U1) (pin 26))
      (node (ref NTC2) (pin 2)))
    (net (code 51) (name "Net-(U1-Pad17)")
      (node (ref U1) (pin 17)))
    (net (code 52) (name "Net-(U1-Pad18)")
      (node (ref U1) (pin 18)))
    (net (code 53) (name /NTCyP)
      (node (ref NTC2) (pin 1))
      (node (ref U1) (pin 27)))
    (net (code 54) (name "Net-(U1-Pad13)")
      (node (ref U1) (pin 13)))
    (net (code 55) (name /LCBin_P)
      (node (ref U3) (pin 6))
      (node (ref C1) (pin 1)))
    (net (code 56) (name /LCBin_N)
      (node (ref U3) (pin 5))
      (node (ref C4) (pin 1)))
    (net (code 57) (name /BTCin_P)
      (node (ref U3) (pin 4))
      (node (ref C2) (pin 1)))
    (net (code 58) (name /BTCin_N)
      (node (ref C5) (pin 1))
      (node (ref U3) (pin 3)))
    (net (code 59) (name /R3L1in_P)
      (node (ref U3) (pin 2))
      (node (ref C3) (pin 1)))
    (net (code 60) (name /R3L1in_N)
      (node (ref U3) (pin 1))
      (node (ref C6) (pin 1)))
    (net (code 61) (name "Net-(U2-Pad28)")
      (node (ref U2) (pin 28)))
    (net (code 62) (name "Net-(U2-Pad29)")
      (node (ref U2) (pin 29)))
    (net (code 63) (name "Net-(U2-Pad31)")
      (node (ref U2) (pin 31)))
    (net (code 64) (name "Net-(U2-Pad32)")
      (node (ref U2) (pin 32)))
    (net (code 65) (name "Net-(U2-Pad33)")
      (node (ref U2) (pin 33)))
    (net (code 66) (name "Net-(U2-Pad27)")
      (node (ref U2) (pin 27)))
    (net (code 67) (name /CALx)
      (node (ref U1) (pin 10))
      (node (ref U3) (pin 9)))
    (net (code 68) (name "Net-(U2-Pad12)")
      (node (ref U2) (pin 12)))
    (net (code 69) (name "Net-(U2-Pad13)")
      (node (ref U2) (pin 13)))
    (net (code 70) (name "Net-(U2-Pad14)")
      (node (ref U2) (pin 14)))
    (net (code 71) (name "Net-(U2-Pad15)")
      (node (ref U2) (pin 15)))
    (net (code 72) (name "Net-(U2-Pad16)")
      (node (ref U2) (pin 16)))
    (net (code 73) (name "Net-(U2-Pad17)")
      (node (ref U2) (pin 17)))
    (net (code 74) (name "Net-(U2-Pad18)")
      (node (ref U2) (pin 18)))
    (net (code 75) (name "Net-(U2-Pad19)")
      (node (ref U2) (pin 19)))
    (net (code 76) (name /SHUNTx)
      (node (ref U4) (pin 8))
      (node (ref U1) (pin 11)))
    (net (code 77) (name "Net-(U2-Pad20)")
      (node (ref U2) (pin 20)))
    (net (code 78) (name "Net-(U2-Pad21)")
      (node (ref U2) (pin 21)))
    (net (code 79) (name "Net-(U2-Pad22)")
      (node (ref U2) (pin 22)))
    (net (code 80) (name "Net-(U2-Pad23)")
      (node (ref U2) (pin 23)))
    (net (code 81) (name "Net-(U2-Pad24)")
      (node (ref U2) (pin 24)))
    (net (code 82) (name "Net-(U2-Pad25)")
      (node (ref U2) (pin 25)))
    (net (code 83) (name "Net-(U2-Pad26)")
      (node (ref U2) (pin 26)))
    (net (code 84) (name /HVout)
      (node (ref R10) (pin 1))
      (node (ref U1) (pin 35)))
    (net (code 85) (name "Net-(U1-Pad28)")
      (node (ref U1) (pin 28)))
    (net (code 86) (name /CMDin_N)
      (node (ref U2) (pin 3))
      (node (ref U1) (pin 3))
      (node (ref J3) (pin 12))
      (node (ref R5) (pin 1)))
    (net (code 87) (name /VOUTx)
      (node (ref U1) (pin 30))
      (node (ref C9) (pin 2))
      (node (ref C10) (pin 2))
      (node (ref C11) (pin 1))
      (node (ref U4) (pin 15))
      (node (ref U3) (pin 43)))
    (net (code 88) (name "Net-(U1-Pad31)")
      (node (ref U1) (pin 31)))
    (net (code 89) (name "Net-(U1-Pad32)")
      (node (ref U1) (pin 32)))
    (net (code 90) (name "Net-(U1-Pad33)")
      (node (ref U1) (pin 33)))
    (net (code 91) (name /CMDin_P)
      (node (ref U1) (pin 4))
      (node (ref R5) (pin 2))
      (node (ref U2) (pin 4))
      (node (ref J3) (pin 10)))
    (net (code 92) (name /CMDout_N)
      (node (ref U1) (pin 5))
      (node (ref U2) (pin 5))
      (node (ref J3) (pin 18)))
    (net (code 93) (name /CMDout_P)
      (node (ref J3) (pin 16))
      (node (ref U2) (pin 6))
      (node (ref U1) (pin 6)))
    (net (code 94) (name /CALin)
      (node (ref J3) (pin 4))
      (node (ref U2) (pin 7))
      (node (ref U1) (pin 7)))
    (net (code 95) (name /NTCxN)
      (node (ref U1) (pin 14))
      (node (ref NTC1) (pin 2)))
    (net (code 96) (name /NTCxP)
      (node (ref NTC1) (pin 1))
      (node (ref U1) (pin 15)))
    (net (code 97) (name "Net-(U2-Pad11)")
      (node (ref U2) (pin 11)))
    (net (code 98) (name /HRSTBx)
      (node (ref U1) (pin 20))
      (node (ref U3) (pin 11)))
    (net (code 99) (name /LD0xEN)
      (node (ref U3) (pin 10))
      (node (ref U1) (pin 21)))
    (net (code 100) (name "Net-(U1-Pad23)")
      (node (ref U1) (pin 23)))
    (net (code 101) (name "Net-(U1-Pad24)")
      (node (ref U1) (pin 24)))
    (net (code 102) (name /LDy1EN)
      (node (ref U1) (pin 25))
      (node (ref U4) (pin 7)))
    (net (code 103) (name /LCBHYB_N)
      (node (ref U4) (pin 9))
      (node (ref U3) (pin 16))
      (node (ref R8) (pin 1)))
    (net (code 104) (name /SSSHx)
      (node (ref U3) (pin 12))
      (node (ref U1) (pin 19)))
    (net (code 105) (name /RSTB)
      (node (ref U3) (pin 13))
      (node (ref U4) (pin 6)))
    (net (code 106) (name /PRLPHYB_N)
      (node (ref U4) (pin 3))
      (node (ref U3) (pin 18))
      (node (ref R7) (pin 1)))
    (net (code 107) (name /BCHYB_N)
      (node (ref U3) (pin 20))
      (node (ref U4) (pin 1))
      (node (ref R6) (pin 1)))
    (net (code 108) (name /LCBHYB_P)
      (node (ref R8) (pin 2))
      (node (ref U4) (pin 10))
      (node (ref U3) (pin 17)))
    (net (code 109) (name /RCLK_N)
      (node (ref U3) (pin 14))
      (node (ref R9) (pin 1))
      (node (ref U4) (pin 11)))
    (net (code 110) (name /RCLK_P)
      (node (ref U4) (pin 12))
      (node (ref R9) (pin 2))
      (node (ref U3) (pin 15)))
    (net (code 111) (name /DATA_N)
      (node (ref U4) (pin 13))
      (node (ref U3) (pin 23)))
    (net (code 112) (name /DATA_P)
      (node (ref U3) (pin 22))
      (node (ref U4) (pin 14)))
    (net (code 113) (name /BCHYB_P)
      (node (ref U4) (pin 2))
      (node (ref U3) (pin 21))
      (node (ref R6) (pin 2)))
    (net (code 114) (name /D1_N)
      (node (ref J2) (pin 17))
      (node (ref U4) (pin 20)))
    (net (code 115) (name /D1_P)
      (node (ref J2) (pin 15))
      (node (ref U4) (pin 21)))
    (net (code 116) (name /PRLPHYB_P)
      (node (ref R7) (pin 2))
      (node (ref U3) (pin 19))
      (node (ref U4) (pin 4)))
    (net (code 117) (name /CALy)
      (node (ref U1) (pin 22))
      (node (ref U4) (pin 5)))
    (net (code 118) (name /D0_N)
      (node (ref U3) (pin 7))
      (node (ref J2) (pin 11))
      (node (ref R4) (pin 1)))
    (net (code 119) (name /D0_P)
      (node (ref R4) (pin 2))
      (node (ref U3) (pin 8))
      (node (ref J2) (pin 9)))
    (net (code 120) (name "Net-(U2-Pad10)")
      (node (ref U2) (pin 10)))
    (net (code 121) (name "Net-(J2-Pad2)")
      (node (ref J2) (pin 2)))
    (net (code 122) (name "Net-(J2-Pad4)")
      (node (ref J2) (pin 4)))
    (net (code 123) (name "Net-(J2-Pad6)")
      (node (ref J2) (pin 6)))
    (net (code 124) (name "Net-(J2-Pad20)")
      (node (ref J2) (pin 20)))))