G04 #@! TF.GenerationSoftware,KiCad,Pcbnew,(5.1.6)-1*
G04 #@! TF.CreationDate,2022-01-12T08:52:13+00:00*
G04 #@! TF.ProjectId,starChipsSEE,73746172-4368-4697-9073-5345452e6b69,rev?*
G04 #@! TF.SameCoordinates,Original*
G04 #@! TF.FileFunction,Legend,Top*
G04 #@! TF.FilePolarity,Positive*
%FSLAX46Y46*%
G04 Gerber Fmt 4.6, Leading zero omitted, Abs format (unit mm)*
G04 Created by KiCad (PCBNEW (5.1.6)-1) date 2022-01-12 08:52:13*
%MOMM*%
%LPD*%
G01*
G04 APERTURE LIST*
%ADD10C,0.150000*%
%ADD11C,0.300000*%
%ADD12C,0.120000*%
%ADD13C,0.200000*%
G04 APERTURE END LIST*
D10*
X150976666Y-121658095D02*
X150976666Y-121181904D01*
X151262380Y-121753333D02*
X150262380Y-121420000D01*
X151262380Y-121086666D01*
X151262380Y-120753333D02*
X150262380Y-120753333D01*
X150976666Y-120420000D01*
X150262380Y-120086666D01*
X151262380Y-120086666D01*
X150976666Y-119658095D02*
X150976666Y-119181904D01*
X151262380Y-119753333D02*
X150262380Y-119420000D01*
X151262380Y-119086666D01*
X151167142Y-118181904D02*
X151214761Y-118229523D01*
X151262380Y-118372380D01*
X151262380Y-118467619D01*
X151214761Y-118610476D01*
X151119523Y-118705714D01*
X151024285Y-118753333D01*
X150833809Y-118800952D01*
X150690952Y-118800952D01*
X150500476Y-118753333D01*
X150405238Y-118705714D01*
X150310000Y-118610476D01*
X150262380Y-118467619D01*
X150262380Y-118372380D01*
X150310000Y-118229523D01*
X150357619Y-118181904D01*
X151057142Y-108014761D02*
X151104761Y-108062380D01*
X151152380Y-108205238D01*
X151152380Y-108300476D01*
X151104761Y-108443333D01*
X151009523Y-108538571D01*
X150914285Y-108586190D01*
X150723809Y-108633809D01*
X150580952Y-108633809D01*
X150390476Y-108586190D01*
X150295238Y-108538571D01*
X150200000Y-108443333D01*
X150152380Y-108300476D01*
X150152380Y-108205238D01*
X150200000Y-108062380D01*
X150247619Y-108014761D01*
X151057142Y-107014761D02*
X151104761Y-107062380D01*
X151152380Y-107205238D01*
X151152380Y-107300476D01*
X151104761Y-107443333D01*
X151009523Y-107538571D01*
X150914285Y-107586190D01*
X150723809Y-107633809D01*
X150580952Y-107633809D01*
X150390476Y-107586190D01*
X150295238Y-107538571D01*
X150200000Y-107443333D01*
X150152380Y-107300476D01*
X150152380Y-107205238D01*
X150200000Y-107062380D01*
X150247619Y-107014761D01*
X151152380Y-106014761D02*
X150676190Y-106348095D01*
X151152380Y-106586190D02*
X150152380Y-106586190D01*
X150152380Y-106205238D01*
X150200000Y-106110000D01*
X150247619Y-106062380D01*
X150342857Y-106014761D01*
X150485714Y-106014761D01*
X150580952Y-106062380D01*
X150628571Y-106110000D01*
X150676190Y-106205238D01*
X150676190Y-106586190D01*
X150104761Y-104871904D02*
X151390476Y-105729047D01*
X151152380Y-104538571D02*
X150152380Y-104538571D01*
X150152380Y-104300476D01*
X150200000Y-104157619D01*
X150295238Y-104062380D01*
X150390476Y-104014761D01*
X150580952Y-103967142D01*
X150723809Y-103967142D01*
X150914285Y-104014761D01*
X151009523Y-104062380D01*
X151104761Y-104157619D01*
X151152380Y-104300476D01*
X151152380Y-104538571D01*
X151152380Y-103110000D02*
X150628571Y-103110000D01*
X150533333Y-103157619D01*
X150485714Y-103252857D01*
X150485714Y-103443333D01*
X150533333Y-103538571D01*
X151104761Y-103110000D02*
X151152380Y-103205238D01*
X151152380Y-103443333D01*
X151104761Y-103538571D01*
X151009523Y-103586190D01*
X150914285Y-103586190D01*
X150819047Y-103538571D01*
X150771428Y-103443333D01*
X150771428Y-103205238D01*
X150723809Y-103110000D01*
X150485714Y-102776666D02*
X150485714Y-102395714D01*
X150152380Y-102633809D02*
X151009523Y-102633809D01*
X151104761Y-102586190D01*
X151152380Y-102490952D01*
X151152380Y-102395714D01*
X151152380Y-101633809D02*
X150628571Y-101633809D01*
X150533333Y-101681428D01*
X150485714Y-101776666D01*
X150485714Y-101967142D01*
X150533333Y-102062380D01*
X151104761Y-101633809D02*
X151152380Y-101729047D01*
X151152380Y-101967142D01*
X151104761Y-102062380D01*
X151009523Y-102110000D01*
X150914285Y-102110000D01*
X150819047Y-102062380D01*
X150771428Y-101967142D01*
X150771428Y-101729047D01*
X150723809Y-101633809D01*
X160138571Y-86842380D02*
X160138571Y-85842380D01*
X160138571Y-86318571D02*
X160710000Y-86318571D01*
X160710000Y-86842380D02*
X160710000Y-85842380D01*
X161043333Y-85842380D02*
X161376666Y-86842380D01*
X161710000Y-85842380D01*
X162043333Y-86842380D02*
X162043333Y-86175714D01*
X162043333Y-86366190D02*
X162090952Y-86270952D01*
X162138571Y-86223333D01*
X162233809Y-86175714D01*
X162329047Y-86175714D01*
X163043333Y-86794761D02*
X162948095Y-86842380D01*
X162757619Y-86842380D01*
X162662380Y-86794761D01*
X162614761Y-86699523D01*
X162614761Y-86318571D01*
X162662380Y-86223333D01*
X162757619Y-86175714D01*
X162948095Y-86175714D01*
X163043333Y-86223333D01*
X163090952Y-86318571D01*
X163090952Y-86413809D01*
X162614761Y-86509047D01*
X163376666Y-86175714D02*
X163757619Y-86175714D01*
X163519523Y-85842380D02*
X163519523Y-86699523D01*
X163567142Y-86794761D01*
X163662380Y-86842380D01*
X163757619Y-86842380D01*
X164852857Y-86318571D02*
X165614761Y-86318571D01*
X165614761Y-86604285D02*
X164852857Y-86604285D01*
X166852857Y-86842380D02*
X166852857Y-85842380D01*
X166852857Y-86318571D02*
X167424285Y-86318571D01*
X167424285Y-86842380D02*
X167424285Y-85842380D01*
X167757619Y-85842380D02*
X168090952Y-86842380D01*
X168424285Y-85842380D01*
X160669047Y-82602380D02*
X160192857Y-82602380D01*
X160192857Y-81602380D01*
X160859523Y-81602380D02*
X161192857Y-82602380D01*
X161526190Y-81602380D01*
X161859523Y-82602380D02*
X161859523Y-81935714D01*
X161859523Y-82126190D02*
X161907142Y-82030952D01*
X161954761Y-81983333D01*
X162050000Y-81935714D01*
X162145238Y-81935714D01*
X162859523Y-82554761D02*
X162764285Y-82602380D01*
X162573809Y-82602380D01*
X162478571Y-82554761D01*
X162430952Y-82459523D01*
X162430952Y-82078571D01*
X162478571Y-81983333D01*
X162573809Y-81935714D01*
X162764285Y-81935714D01*
X162859523Y-81983333D01*
X162907142Y-82078571D01*
X162907142Y-82173809D01*
X162430952Y-82269047D01*
X163192857Y-81935714D02*
X163573809Y-81935714D01*
X163335714Y-81602380D02*
X163335714Y-82459523D01*
X163383333Y-82554761D01*
X163478571Y-82602380D01*
X163573809Y-82602380D01*
X164669047Y-82078571D02*
X165430952Y-82078571D01*
X165430952Y-82364285D02*
X164669047Y-82364285D01*
X167145238Y-82602380D02*
X166669047Y-82602380D01*
X166669047Y-81602380D01*
X167335714Y-81602380D02*
X167669047Y-82602380D01*
X168002380Y-81602380D01*
X168335714Y-82602380D02*
X168335714Y-81935714D01*
X168335714Y-82126190D02*
X168383333Y-82030952D01*
X168430952Y-81983333D01*
X168526190Y-81935714D01*
X168621428Y-81935714D01*
X169335714Y-82554761D02*
X169240476Y-82602380D01*
X169050000Y-82602380D01*
X168954761Y-82554761D01*
X168907142Y-82459523D01*
X168907142Y-82078571D01*
X168954761Y-81983333D01*
X169050000Y-81935714D01*
X169240476Y-81935714D01*
X169335714Y-81983333D01*
X169383333Y-82078571D01*
X169383333Y-82173809D01*
X168907142Y-82269047D01*
X169669047Y-81935714D02*
X170050000Y-81935714D01*
X169811904Y-81602380D02*
X169811904Y-82459523D01*
X169859523Y-82554761D01*
X169954761Y-82602380D01*
X170050000Y-82602380D01*
X160716666Y-78462380D02*
X160240476Y-78462380D01*
X160240476Y-77462380D01*
X160907142Y-77462380D02*
X161240476Y-78462380D01*
X161573809Y-77462380D01*
X162669047Y-77938571D02*
X163430952Y-77938571D01*
X163430952Y-78224285D02*
X162669047Y-78224285D01*
X165145238Y-78462380D02*
X164669047Y-78462380D01*
X164669047Y-77462380D01*
X165335714Y-77462380D02*
X165669047Y-78462380D01*
X166002380Y-77462380D01*
D11*
X221147142Y-76321428D02*
X221504285Y-76440476D01*
X221623333Y-76559523D01*
X221742380Y-76797619D01*
X221742380Y-77154761D01*
X221623333Y-77392857D01*
X221504285Y-77511904D01*
X221266190Y-77630952D01*
X220313809Y-77630952D01*
X220313809Y-75130952D01*
X221147142Y-75130952D01*
X221385238Y-75250000D01*
X221504285Y-75369047D01*
X221623333Y-75607142D01*
X221623333Y-75845238D01*
X221504285Y-76083333D01*
X221385238Y-76202380D01*
X221147142Y-76321428D01*
X220313809Y-76321428D01*
X222813809Y-77392857D02*
X222932857Y-77511904D01*
X222813809Y-77630952D01*
X222694761Y-77511904D01*
X222813809Y-77392857D01*
X222813809Y-77630952D01*
X224004285Y-76321428D02*
X224837619Y-76321428D01*
X225194761Y-77630952D02*
X224004285Y-77630952D01*
X224004285Y-75130952D01*
X225194761Y-75130952D01*
X226266190Y-77392857D02*
X226385238Y-77511904D01*
X226266190Y-77630952D01*
X226147142Y-77511904D01*
X226266190Y-77392857D01*
X226266190Y-77630952D01*
X227099523Y-75130952D02*
X228528095Y-75130952D01*
X227813809Y-77630952D02*
X227813809Y-75130952D01*
X229361428Y-77392857D02*
X229480476Y-77511904D01*
X229361428Y-77630952D01*
X229242380Y-77511904D01*
X229361428Y-77392857D01*
X229361428Y-77630952D01*
X230432857Y-77511904D02*
X230790000Y-77630952D01*
X231385238Y-77630952D01*
X231623333Y-77511904D01*
X231742380Y-77392857D01*
X231861428Y-77154761D01*
X231861428Y-76916666D01*
X231742380Y-76678571D01*
X231623333Y-76559523D01*
X231385238Y-76440476D01*
X230909047Y-76321428D01*
X230670952Y-76202380D01*
X230551904Y-76083333D01*
X230432857Y-75845238D01*
X230432857Y-75607142D01*
X230551904Y-75369047D01*
X230670952Y-75250000D01*
X230909047Y-75130952D01*
X231504285Y-75130952D01*
X231861428Y-75250000D01*
X232932857Y-77392857D02*
X233051904Y-77511904D01*
X232932857Y-77630952D01*
X232813809Y-77511904D01*
X232932857Y-77392857D01*
X232932857Y-77630952D01*
X234123333Y-76321428D02*
X234956666Y-76321428D01*
X235313809Y-77630952D02*
X234123333Y-77630952D01*
X234123333Y-75130952D01*
X235313809Y-75130952D01*
X236385238Y-77392857D02*
X236504285Y-77511904D01*
X236385238Y-77630952D01*
X236266190Y-77511904D01*
X236385238Y-77392857D01*
X236385238Y-77630952D01*
X237575714Y-76321428D02*
X238409047Y-76321428D01*
X238766190Y-77630952D02*
X237575714Y-77630952D01*
X237575714Y-75130952D01*
X238766190Y-75130952D01*
X239837619Y-77392857D02*
X239956666Y-77511904D01*
X239837619Y-77630952D01*
X239718571Y-77511904D01*
X239837619Y-77392857D01*
X239837619Y-77630952D01*
X242575714Y-75130952D02*
X243409047Y-77630952D01*
X244242380Y-75130952D01*
X246385238Y-77630952D02*
X244956666Y-77630952D01*
X245670952Y-77630952D02*
X245670952Y-75130952D01*
X245432857Y-75488095D01*
X245194761Y-75726190D01*
X244956666Y-75845238D01*
X179482142Y-83310714D02*
X179410714Y-83382142D01*
X179196428Y-83453571D01*
X179053571Y-83453571D01*
X178839285Y-83382142D01*
X178696428Y-83239285D01*
X178625000Y-83096428D01*
X178553571Y-82810714D01*
X178553571Y-82596428D01*
X178625000Y-82310714D01*
X178696428Y-82167857D01*
X178839285Y-82025000D01*
X179053571Y-81953571D01*
X179196428Y-81953571D01*
X179410714Y-82025000D01*
X179482142Y-82096428D01*
X180125000Y-83310714D02*
X180196428Y-83382142D01*
X180125000Y-83453571D01*
X180053571Y-83382142D01*
X180125000Y-83310714D01*
X180125000Y-83453571D01*
X181910714Y-83025000D02*
X182625000Y-83025000D01*
X181767857Y-83453571D02*
X182267857Y-81953571D01*
X182767857Y-83453571D01*
X183267857Y-83310714D02*
X183339285Y-83382142D01*
X183267857Y-83453571D01*
X183196428Y-83382142D01*
X183267857Y-83310714D01*
X183267857Y-83453571D01*
X185053571Y-83382142D02*
X185267857Y-83453571D01*
X185625000Y-83453571D01*
X185767857Y-83382142D01*
X185839285Y-83310714D01*
X185910714Y-83167857D01*
X185910714Y-83025000D01*
X185839285Y-82882142D01*
X185767857Y-82810714D01*
X185625000Y-82739285D01*
X185339285Y-82667857D01*
X185196428Y-82596428D01*
X185125000Y-82525000D01*
X185053571Y-82382142D01*
X185053571Y-82239285D01*
X185125000Y-82096428D01*
X185196428Y-82025000D01*
X185339285Y-81953571D01*
X185696428Y-81953571D01*
X185910714Y-82025000D01*
X187196428Y-83453571D02*
X187196428Y-82667857D01*
X187125000Y-82525000D01*
X186982142Y-82453571D01*
X186696428Y-82453571D01*
X186553571Y-82525000D01*
X187196428Y-83382142D02*
X187053571Y-83453571D01*
X186696428Y-83453571D01*
X186553571Y-83382142D01*
X186482142Y-83239285D01*
X186482142Y-83096428D01*
X186553571Y-82953571D01*
X186696428Y-82882142D01*
X187053571Y-82882142D01*
X187196428Y-82810714D01*
X187767857Y-82453571D02*
X188053571Y-83453571D01*
X188339285Y-82739285D01*
X188625000Y-83453571D01*
X188910714Y-82453571D01*
X189339285Y-82453571D02*
X189696428Y-83453571D01*
X190053571Y-82453571D02*
X189696428Y-83453571D01*
X189553571Y-83810714D01*
X189482142Y-83882142D01*
X189339285Y-83953571D01*
X191196428Y-83382142D02*
X191053571Y-83453571D01*
X190767857Y-83453571D01*
X190625000Y-83382142D01*
X190553571Y-83239285D01*
X190553571Y-82667857D01*
X190625000Y-82525000D01*
X190767857Y-82453571D01*
X191053571Y-82453571D01*
X191196428Y-82525000D01*
X191267857Y-82667857D01*
X191267857Y-82810714D01*
X190553571Y-82953571D01*
X191910714Y-83453571D02*
X191910714Y-82453571D01*
X191910714Y-82739285D02*
X191982142Y-82596428D01*
X192053571Y-82525000D01*
X192196428Y-82453571D01*
X192339285Y-82453571D01*
X176839285Y-86003571D02*
X176839285Y-84503571D01*
X177196428Y-84503571D01*
X177410714Y-84575000D01*
X177553571Y-84717857D01*
X177625000Y-84860714D01*
X177696428Y-85146428D01*
X177696428Y-85360714D01*
X177625000Y-85646428D01*
X177553571Y-85789285D01*
X177410714Y-85932142D01*
X177196428Y-86003571D01*
X176839285Y-86003571D01*
X178910714Y-85932142D02*
X178767857Y-86003571D01*
X178482142Y-86003571D01*
X178339285Y-85932142D01*
X178267857Y-85789285D01*
X178267857Y-85217857D01*
X178339285Y-85075000D01*
X178482142Y-85003571D01*
X178767857Y-85003571D01*
X178910714Y-85075000D01*
X178982142Y-85217857D01*
X178982142Y-85360714D01*
X178267857Y-85503571D01*
X180267857Y-85932142D02*
X180125000Y-86003571D01*
X179839285Y-86003571D01*
X179696428Y-85932142D01*
X179625000Y-85860714D01*
X179553571Y-85717857D01*
X179553571Y-85289285D01*
X179625000Y-85146428D01*
X179696428Y-85075000D01*
X179839285Y-85003571D01*
X180125000Y-85003571D01*
X180267857Y-85075000D01*
X181482142Y-85932142D02*
X181339285Y-86003571D01*
X181053571Y-86003571D01*
X180910714Y-85932142D01*
X180839285Y-85789285D01*
X180839285Y-85217857D01*
X180910714Y-85075000D01*
X181053571Y-85003571D01*
X181339285Y-85003571D01*
X181482142Y-85075000D01*
X181553571Y-85217857D01*
X181553571Y-85360714D01*
X180839285Y-85503571D01*
X182196428Y-86003571D02*
X182196428Y-85003571D01*
X182196428Y-85146428D02*
X182267857Y-85075000D01*
X182410714Y-85003571D01*
X182625000Y-85003571D01*
X182767857Y-85075000D01*
X182839285Y-85217857D01*
X182839285Y-86003571D01*
X182839285Y-85217857D02*
X182910714Y-85075000D01*
X183053571Y-85003571D01*
X183267857Y-85003571D01*
X183410714Y-85075000D01*
X183482142Y-85217857D01*
X183482142Y-86003571D01*
X184196428Y-86003571D02*
X184196428Y-84503571D01*
X184196428Y-85075000D02*
X184339285Y-85003571D01*
X184625000Y-85003571D01*
X184767857Y-85075000D01*
X184839285Y-85146428D01*
X184910714Y-85289285D01*
X184910714Y-85717857D01*
X184839285Y-85860714D01*
X184767857Y-85932142D01*
X184625000Y-86003571D01*
X184339285Y-86003571D01*
X184196428Y-85932142D01*
X186125000Y-85932142D02*
X185982142Y-86003571D01*
X185696428Y-86003571D01*
X185553571Y-85932142D01*
X185482142Y-85789285D01*
X185482142Y-85217857D01*
X185553571Y-85075000D01*
X185696428Y-85003571D01*
X185982142Y-85003571D01*
X186125000Y-85075000D01*
X186196428Y-85217857D01*
X186196428Y-85360714D01*
X185482142Y-85503571D01*
X186839285Y-86003571D02*
X186839285Y-85003571D01*
X186839285Y-85289285D02*
X186910714Y-85146428D01*
X186982142Y-85075000D01*
X187125000Y-85003571D01*
X187267857Y-85003571D01*
X188839285Y-84646428D02*
X188910714Y-84575000D01*
X189053571Y-84503571D01*
X189410714Y-84503571D01*
X189553571Y-84575000D01*
X189625000Y-84646428D01*
X189696428Y-84789285D01*
X189696428Y-84932142D01*
X189625000Y-85146428D01*
X188767857Y-86003571D01*
X189696428Y-86003571D01*
X190625000Y-84503571D02*
X190767857Y-84503571D01*
X190910714Y-84575000D01*
X190982142Y-84646428D01*
X191053571Y-84789285D01*
X191125000Y-85075000D01*
X191125000Y-85432142D01*
X191053571Y-85717857D01*
X190982142Y-85860714D01*
X190910714Y-85932142D01*
X190767857Y-86003571D01*
X190625000Y-86003571D01*
X190482142Y-85932142D01*
X190410714Y-85860714D01*
X190339285Y-85717857D01*
X190267857Y-85432142D01*
X190267857Y-85075000D01*
X190339285Y-84789285D01*
X190410714Y-84646428D01*
X190482142Y-84575000D01*
X190625000Y-84503571D01*
X191696428Y-84646428D02*
X191767857Y-84575000D01*
X191910714Y-84503571D01*
X192267857Y-84503571D01*
X192410714Y-84575000D01*
X192482142Y-84646428D01*
X192553571Y-84789285D01*
X192553571Y-84932142D01*
X192482142Y-85146428D01*
X191625000Y-86003571D01*
X192553571Y-86003571D01*
X193982142Y-86003571D02*
X193125000Y-86003571D01*
X193553571Y-86003571D02*
X193553571Y-84503571D01*
X193410714Y-84717857D01*
X193267857Y-84860714D01*
X193125000Y-84932142D01*
X222712142Y-79792857D02*
X222926428Y-79864285D01*
X222997857Y-79935714D01*
X223069285Y-80078571D01*
X223069285Y-80292857D01*
X222997857Y-80435714D01*
X222926428Y-80507142D01*
X222783571Y-80578571D01*
X222212142Y-80578571D01*
X222212142Y-79078571D01*
X222712142Y-79078571D01*
X222855000Y-79150000D01*
X222926428Y-79221428D01*
X222997857Y-79364285D01*
X222997857Y-79507142D01*
X222926428Y-79650000D01*
X222855000Y-79721428D01*
X222712142Y-79792857D01*
X222212142Y-79792857D01*
X223926428Y-80578571D02*
X223783571Y-80507142D01*
X223712142Y-80435714D01*
X223640714Y-80292857D01*
X223640714Y-79864285D01*
X223712142Y-79721428D01*
X223783571Y-79650000D01*
X223926428Y-79578571D01*
X224140714Y-79578571D01*
X224283571Y-79650000D01*
X224355000Y-79721428D01*
X224426428Y-79864285D01*
X224426428Y-80292857D01*
X224355000Y-80435714D01*
X224283571Y-80507142D01*
X224140714Y-80578571D01*
X223926428Y-80578571D01*
X225712142Y-80578571D02*
X225712142Y-79792857D01*
X225640714Y-79650000D01*
X225497857Y-79578571D01*
X225212142Y-79578571D01*
X225069285Y-79650000D01*
X225712142Y-80507142D02*
X225569285Y-80578571D01*
X225212142Y-80578571D01*
X225069285Y-80507142D01*
X224997857Y-80364285D01*
X224997857Y-80221428D01*
X225069285Y-80078571D01*
X225212142Y-80007142D01*
X225569285Y-80007142D01*
X225712142Y-79935714D01*
X226426428Y-80578571D02*
X226426428Y-79578571D01*
X226426428Y-79864285D02*
X226497857Y-79721428D01*
X226569285Y-79650000D01*
X226712142Y-79578571D01*
X226855000Y-79578571D01*
X227997857Y-80578571D02*
X227997857Y-79078571D01*
X227997857Y-80507142D02*
X227855000Y-80578571D01*
X227569285Y-80578571D01*
X227426428Y-80507142D01*
X227355000Y-80435714D01*
X227283571Y-80292857D01*
X227283571Y-79864285D01*
X227355000Y-79721428D01*
X227426428Y-79650000D01*
X227569285Y-79578571D01*
X227855000Y-79578571D01*
X227997857Y-79650000D01*
X229640714Y-79578571D02*
X230212142Y-79578571D01*
X229855000Y-80578571D02*
X229855000Y-79292857D01*
X229926428Y-79150000D01*
X230069285Y-79078571D01*
X230212142Y-79078571D01*
X230926428Y-80578571D02*
X230783571Y-80507142D01*
X230712142Y-80435714D01*
X230640714Y-80292857D01*
X230640714Y-79864285D01*
X230712142Y-79721428D01*
X230783571Y-79650000D01*
X230926428Y-79578571D01*
X231140714Y-79578571D01*
X231283571Y-79650000D01*
X231355000Y-79721428D01*
X231426428Y-79864285D01*
X231426428Y-80292857D01*
X231355000Y-80435714D01*
X231283571Y-80507142D01*
X231140714Y-80578571D01*
X230926428Y-80578571D01*
X232069285Y-80578571D02*
X232069285Y-79578571D01*
X232069285Y-79864285D02*
X232140714Y-79721428D01*
X232212142Y-79650000D01*
X232355000Y-79578571D01*
X232497857Y-79578571D01*
X234140714Y-79792857D02*
X234640714Y-79792857D01*
X234855000Y-80578571D02*
X234140714Y-80578571D01*
X234140714Y-79078571D01*
X234855000Y-79078571D01*
X235355000Y-79578571D02*
X235712142Y-80578571D01*
X236069285Y-79578571D01*
X237283571Y-80578571D02*
X237283571Y-79792857D01*
X237212142Y-79650000D01*
X237069285Y-79578571D01*
X236783571Y-79578571D01*
X236640714Y-79650000D01*
X237283571Y-80507142D02*
X237140714Y-80578571D01*
X236783571Y-80578571D01*
X236640714Y-80507142D01*
X236569285Y-80364285D01*
X236569285Y-80221428D01*
X236640714Y-80078571D01*
X236783571Y-80007142D01*
X237140714Y-80007142D01*
X237283571Y-79935714D01*
X238212142Y-80578571D02*
X238069285Y-80507142D01*
X237997857Y-80364285D01*
X237997857Y-79078571D01*
X239426428Y-79578571D02*
X239426428Y-80578571D01*
X238783571Y-79578571D02*
X238783571Y-80364285D01*
X238855000Y-80507142D01*
X238997857Y-80578571D01*
X239212142Y-80578571D01*
X239355000Y-80507142D01*
X239426428Y-80435714D01*
X240783571Y-80578571D02*
X240783571Y-79792857D01*
X240712142Y-79650000D01*
X240569285Y-79578571D01*
X240283571Y-79578571D01*
X240140714Y-79650000D01*
X240783571Y-80507142D02*
X240640714Y-80578571D01*
X240283571Y-80578571D01*
X240140714Y-80507142D01*
X240069285Y-80364285D01*
X240069285Y-80221428D01*
X240140714Y-80078571D01*
X240283571Y-80007142D01*
X240640714Y-80007142D01*
X240783571Y-79935714D01*
X241283571Y-79578571D02*
X241855000Y-79578571D01*
X241497857Y-79078571D02*
X241497857Y-80364285D01*
X241569285Y-80507142D01*
X241712142Y-80578571D01*
X241855000Y-80578571D01*
X242355000Y-80578571D02*
X242355000Y-79578571D01*
X242355000Y-79078571D02*
X242283571Y-79150000D01*
X242355000Y-79221428D01*
X242426428Y-79150000D01*
X242355000Y-79078571D01*
X242355000Y-79221428D01*
X243283571Y-80578571D02*
X243140714Y-80507142D01*
X243069285Y-80435714D01*
X242997857Y-80292857D01*
X242997857Y-79864285D01*
X243069285Y-79721428D01*
X243140714Y-79650000D01*
X243283571Y-79578571D01*
X243497857Y-79578571D01*
X243640714Y-79650000D01*
X243712142Y-79721428D01*
X243783571Y-79864285D01*
X243783571Y-80292857D01*
X243712142Y-80435714D01*
X243640714Y-80507142D01*
X243497857Y-80578571D01*
X243283571Y-80578571D01*
X244426428Y-79578571D02*
X244426428Y-80578571D01*
X244426428Y-79721428D02*
X244497857Y-79650000D01*
X244640714Y-79578571D01*
X244855000Y-79578571D01*
X244997857Y-79650000D01*
X245069285Y-79792857D01*
X245069285Y-80578571D01*
X225855000Y-83128571D02*
X225712142Y-83057142D01*
X225640714Y-82985714D01*
X225569285Y-82842857D01*
X225569285Y-82414285D01*
X225640714Y-82271428D01*
X225712142Y-82200000D01*
X225855000Y-82128571D01*
X226069285Y-82128571D01*
X226212142Y-82200000D01*
X226283571Y-82271428D01*
X226355000Y-82414285D01*
X226355000Y-82842857D01*
X226283571Y-82985714D01*
X226212142Y-83057142D01*
X226069285Y-83128571D01*
X225855000Y-83128571D01*
X226783571Y-82128571D02*
X227355000Y-82128571D01*
X226997857Y-83128571D02*
X226997857Y-81842857D01*
X227069285Y-81700000D01*
X227212142Y-81628571D01*
X227355000Y-81628571D01*
X228783571Y-81628571D02*
X229640714Y-81628571D01*
X229212142Y-83128571D02*
X229212142Y-81628571D01*
X230140714Y-83128571D02*
X230140714Y-82128571D01*
X230140714Y-82414285D02*
X230212142Y-82271428D01*
X230283571Y-82200000D01*
X230426428Y-82128571D01*
X230569285Y-82128571D01*
X231069285Y-83128571D02*
X231069285Y-82128571D01*
X231069285Y-81628571D02*
X230997857Y-81700000D01*
X231069285Y-81771428D01*
X231140714Y-81700000D01*
X231069285Y-81628571D01*
X231069285Y-81771428D01*
X231783571Y-82128571D02*
X231783571Y-83628571D01*
X231783571Y-82200000D02*
X231926428Y-82128571D01*
X232212142Y-82128571D01*
X232355000Y-82200000D01*
X232426428Y-82271428D01*
X232497857Y-82414285D01*
X232497857Y-82842857D01*
X232426428Y-82985714D01*
X232355000Y-83057142D01*
X232212142Y-83128571D01*
X231926428Y-83128571D01*
X231783571Y-83057142D01*
X233355000Y-83128571D02*
X233212142Y-83057142D01*
X233140714Y-82914285D01*
X233140714Y-81628571D01*
X234497857Y-83057142D02*
X234355000Y-83128571D01*
X234069285Y-83128571D01*
X233926428Y-83057142D01*
X233855000Y-82914285D01*
X233855000Y-82342857D01*
X233926428Y-82200000D01*
X234069285Y-82128571D01*
X234355000Y-82128571D01*
X234497857Y-82200000D01*
X234569285Y-82342857D01*
X234569285Y-82485714D01*
X233855000Y-82628571D01*
X236997857Y-83057142D02*
X236855000Y-83128571D01*
X236569285Y-83128571D01*
X236426428Y-83057142D01*
X236355000Y-82985714D01*
X236283571Y-82842857D01*
X236283571Y-82414285D01*
X236355000Y-82271428D01*
X236426428Y-82200000D01*
X236569285Y-82128571D01*
X236855000Y-82128571D01*
X236997857Y-82200000D01*
X237640714Y-83128571D02*
X237640714Y-81628571D01*
X238283571Y-83128571D02*
X238283571Y-82342857D01*
X238212142Y-82200000D01*
X238069285Y-82128571D01*
X237855000Y-82128571D01*
X237712142Y-82200000D01*
X237640714Y-82271428D01*
X238997857Y-83128571D02*
X238997857Y-82128571D01*
X238997857Y-81628571D02*
X238926428Y-81700000D01*
X238997857Y-81771428D01*
X239069285Y-81700000D01*
X238997857Y-81628571D01*
X238997857Y-81771428D01*
X239712142Y-82128571D02*
X239712142Y-83628571D01*
X239712142Y-82200000D02*
X239855000Y-82128571D01*
X240140714Y-82128571D01*
X240283571Y-82200000D01*
X240355000Y-82271428D01*
X240426428Y-82414285D01*
X240426428Y-82842857D01*
X240355000Y-82985714D01*
X240283571Y-83057142D01*
X240140714Y-83128571D01*
X239855000Y-83128571D01*
X239712142Y-83057142D01*
X242140714Y-83057142D02*
X242355000Y-83128571D01*
X242712142Y-83128571D01*
X242855000Y-83057142D01*
X242926428Y-82985714D01*
X242997857Y-82842857D01*
X242997857Y-82700000D01*
X242926428Y-82557142D01*
X242855000Y-82485714D01*
X242712142Y-82414285D01*
X242426428Y-82342857D01*
X242283571Y-82271428D01*
X242212142Y-82200000D01*
X242140714Y-82057142D01*
X242140714Y-81914285D01*
X242212142Y-81771428D01*
X242283571Y-81700000D01*
X242426428Y-81628571D01*
X242783571Y-81628571D01*
X242997857Y-81700000D01*
X243640714Y-83128571D02*
X243640714Y-82128571D01*
X243640714Y-81628571D02*
X243569285Y-81700000D01*
X243640714Y-81771428D01*
X243712142Y-81700000D01*
X243640714Y-81628571D01*
X243640714Y-81771428D01*
X244355000Y-82128571D02*
X244355000Y-83128571D01*
X244355000Y-82271428D02*
X244426428Y-82200000D01*
X244569285Y-82128571D01*
X244783571Y-82128571D01*
X244926428Y-82200000D01*
X244997857Y-82342857D01*
X244997857Y-83128571D01*
X246355000Y-82128571D02*
X246355000Y-83342857D01*
X246283571Y-83485714D01*
X246212142Y-83557142D01*
X246069285Y-83628571D01*
X245855000Y-83628571D01*
X245712142Y-83557142D01*
X246355000Y-83057142D02*
X246212142Y-83128571D01*
X245926428Y-83128571D01*
X245783571Y-83057142D01*
X245712142Y-82985714D01*
X245640714Y-82842857D01*
X245640714Y-82414285D01*
X245712142Y-82271428D01*
X245783571Y-82200000D01*
X245926428Y-82128571D01*
X246212142Y-82128571D01*
X246355000Y-82200000D01*
X247283571Y-83128571D02*
X247140714Y-83057142D01*
X247069285Y-82914285D01*
X247069285Y-81628571D01*
X248426428Y-83057142D02*
X248283571Y-83128571D01*
X247997857Y-83128571D01*
X247855000Y-83057142D01*
X247783571Y-82914285D01*
X247783571Y-82342857D01*
X247855000Y-82200000D01*
X247997857Y-82128571D01*
X248283571Y-82128571D01*
X248426428Y-82200000D01*
X248497857Y-82342857D01*
X248497857Y-82485714D01*
X247783571Y-82628571D01*
X229069285Y-84892857D02*
X229569285Y-84892857D01*
X229783571Y-85678571D02*
X229069285Y-85678571D01*
X229069285Y-84178571D01*
X229783571Y-84178571D01*
X230283571Y-84678571D02*
X230640714Y-85678571D01*
X230997857Y-84678571D01*
X232140714Y-85607142D02*
X231997857Y-85678571D01*
X231712142Y-85678571D01*
X231569285Y-85607142D01*
X231497857Y-85464285D01*
X231497857Y-84892857D01*
X231569285Y-84750000D01*
X231712142Y-84678571D01*
X231997857Y-84678571D01*
X232140714Y-84750000D01*
X232212142Y-84892857D01*
X232212142Y-85035714D01*
X231497857Y-85178571D01*
X232855000Y-84678571D02*
X232855000Y-85678571D01*
X232855000Y-84821428D02*
X232926428Y-84750000D01*
X233069285Y-84678571D01*
X233283571Y-84678571D01*
X233426428Y-84750000D01*
X233497857Y-84892857D01*
X233497857Y-85678571D01*
X233997857Y-84678571D02*
X234569285Y-84678571D01*
X234212142Y-84178571D02*
X234212142Y-85464285D01*
X234283571Y-85607142D01*
X234426428Y-85678571D01*
X234569285Y-85678571D01*
X236212142Y-84892857D02*
X236712142Y-84892857D01*
X236926428Y-85678571D02*
X236212142Y-85678571D01*
X236212142Y-84178571D01*
X236926428Y-84178571D01*
X237355000Y-84678571D02*
X237926428Y-84678571D01*
X237569285Y-85678571D02*
X237569285Y-84392857D01*
X237640714Y-84250000D01*
X237783571Y-84178571D01*
X237926428Y-84178571D01*
X238212142Y-84678571D02*
X238783571Y-84678571D01*
X238426428Y-85678571D02*
X238426428Y-84392857D01*
X238497857Y-84250000D01*
X238640714Y-84178571D01*
X238783571Y-84178571D01*
X239855000Y-85607142D02*
X239712142Y-85678571D01*
X239426428Y-85678571D01*
X239283571Y-85607142D01*
X239212142Y-85464285D01*
X239212142Y-84892857D01*
X239283571Y-84750000D01*
X239426428Y-84678571D01*
X239712142Y-84678571D01*
X239855000Y-84750000D01*
X239926428Y-84892857D01*
X239926428Y-85035714D01*
X239212142Y-85178571D01*
X241212142Y-85607142D02*
X241069285Y-85678571D01*
X240783571Y-85678571D01*
X240640714Y-85607142D01*
X240569285Y-85535714D01*
X240497857Y-85392857D01*
X240497857Y-84964285D01*
X240569285Y-84821428D01*
X240640714Y-84750000D01*
X240783571Y-84678571D01*
X241069285Y-84678571D01*
X241212142Y-84750000D01*
X241640714Y-84678571D02*
X242212142Y-84678571D01*
X241855000Y-84178571D02*
X241855000Y-85464285D01*
X241926428Y-85607142D01*
X242069285Y-85678571D01*
X242212142Y-85678571D01*
X242640714Y-85607142D02*
X242783571Y-85678571D01*
X243069285Y-85678571D01*
X243212142Y-85607142D01*
X243283571Y-85464285D01*
X243283571Y-85392857D01*
X243212142Y-85250000D01*
X243069285Y-85178571D01*
X242855000Y-85178571D01*
X242712142Y-85107142D01*
X242640714Y-84964285D01*
X242640714Y-84892857D01*
X242712142Y-84750000D01*
X242855000Y-84678571D01*
X243069285Y-84678571D01*
X243212142Y-84750000D01*
D10*
X246000000Y-101500000D02*
X246000000Y-97500000D01*
X248000000Y-101500000D02*
X246000000Y-101500000D01*
X248000000Y-104500000D02*
X248000000Y-101500000D01*
X246000000Y-104500000D02*
X248000000Y-104500000D01*
X246000000Y-108500000D02*
X246000000Y-104500000D01*
X246000000Y-97500000D02*
X174000000Y-97500000D01*
X174000000Y-108500000D02*
X246000000Y-108500000D01*
X174000000Y-97500000D02*
X174000000Y-108500000D01*
X246000000Y-118500000D02*
X246000000Y-114500000D01*
X248000000Y-118500000D02*
X246000000Y-118500000D01*
X248000000Y-121500000D02*
X248000000Y-118500000D01*
X246000000Y-121500000D02*
X248000000Y-121500000D01*
X246000000Y-125500000D02*
X246000000Y-121500000D01*
X246000000Y-114500000D02*
X174000000Y-114500000D01*
X174000000Y-125500000D02*
X246000000Y-125500000D01*
X174000000Y-114500000D02*
X174000000Y-125500000D01*
D12*
X163770000Y-102687221D02*
X163770000Y-103012779D01*
X164790000Y-102687221D02*
X164790000Y-103012779D01*
D13*
X144475000Y-110700000D02*
X142175000Y-110700000D01*
X144475000Y-99300000D02*
X142325000Y-99300000D01*
X139300000Y-110200000D02*
X137000000Y-110200000D01*
X139300000Y-99800000D02*
X137000000Y-99800000D01*
X149650000Y-110700000D02*
X147500000Y-110700000D01*
X149650000Y-99300000D02*
X147500000Y-99300000D01*
X149650000Y-99300000D02*
X149650000Y-110700000D01*
X149650000Y-114300000D02*
X149650000Y-125700000D01*
X149650000Y-114300000D02*
X147500000Y-114300000D01*
X149650000Y-125700000D02*
X147500000Y-125700000D01*
X139300000Y-114800000D02*
X137000000Y-114800000D01*
X139300000Y-125200000D02*
X137000000Y-125200000D01*
X144475000Y-114300000D02*
X142325000Y-114300000D01*
X144475000Y-125700000D02*
X142175000Y-125700000D01*
D12*
X231820000Y-88357221D02*
X231820000Y-88682779D01*
X230800000Y-88357221D02*
X230800000Y-88682779D01*
X233440000Y-90237221D02*
X233440000Y-90562779D01*
X232420000Y-90237221D02*
X232420000Y-90562779D01*
X230810000Y-92087221D02*
X230810000Y-92412779D01*
X231830000Y-92087221D02*
X231830000Y-92412779D01*
X150760000Y-88260000D02*
X150760000Y-89070000D01*
X150760000Y-89070000D02*
X137740000Y-89070000D01*
X137740000Y-89070000D02*
X137740000Y-82060000D01*
X150760000Y-75860000D02*
X150760000Y-75050000D01*
X150760000Y-75050000D02*
X137740000Y-75050000D01*
X137740000Y-75050000D02*
X137740000Y-82060000D01*
X153860000Y-86560000D02*
X155140000Y-86560000D01*
X153860000Y-85960000D02*
X155140000Y-85960000D01*
X153860000Y-82360000D02*
X155140000Y-82360000D01*
X153860000Y-81760000D02*
X155140000Y-81760000D01*
X153860000Y-78160000D02*
X155140000Y-78160000D01*
X153860000Y-77560000D02*
X155140000Y-77560000D01*
X150750000Y-84650000D02*
X150750000Y-83670000D01*
X150750000Y-80450000D02*
X150750000Y-79470000D01*
X151750000Y-88260000D02*
X152050000Y-88860000D01*
X152050000Y-88860000D02*
X151450000Y-88860000D01*
X151450000Y-88860000D02*
X151750000Y-88260000D01*
X202299721Y-128240000D02*
X202625279Y-128240000D01*
X202299721Y-129260000D02*
X202625279Y-129260000D01*
X176681422Y-92920000D02*
X177198578Y-92920000D01*
X176681422Y-94340000D02*
X177198578Y-94340000D01*
X172901422Y-92920000D02*
X173418578Y-92920000D01*
X172901422Y-94340000D02*
X173418578Y-94340000D01*
D10*
X209062380Y-91571904D02*
X209871904Y-91571904D01*
X209967142Y-91524285D01*
X210014761Y-91476666D01*
X210062380Y-91381428D01*
X210062380Y-91190952D01*
X210014761Y-91095714D01*
X209967142Y-91048095D01*
X209871904Y-91000476D01*
X209062380Y-91000476D01*
X209062380Y-90619523D02*
X209062380Y-90000476D01*
X209443333Y-90333809D01*
X209443333Y-90190952D01*
X209490952Y-90095714D01*
X209538571Y-90048095D01*
X209633809Y-90000476D01*
X209871904Y-90000476D01*
X209967142Y-90048095D01*
X210014761Y-90095714D01*
X210062380Y-90190952D01*
X210062380Y-90476666D01*
X210014761Y-90571904D01*
X209967142Y-90619523D01*
X207952380Y-93541904D02*
X208761904Y-93541904D01*
X208857142Y-93494285D01*
X208904761Y-93446666D01*
X208952380Y-93351428D01*
X208952380Y-93160952D01*
X208904761Y-93065714D01*
X208857142Y-93018095D01*
X208761904Y-92970476D01*
X207952380Y-92970476D01*
X208285714Y-92065714D02*
X208952380Y-92065714D01*
X207904761Y-92303809D02*
X208619047Y-92541904D01*
X208619047Y-91922857D01*
X196227142Y-90462857D02*
X196274761Y-90510476D01*
X196322380Y-90653333D01*
X196322380Y-90748571D01*
X196274761Y-90891428D01*
X196179523Y-90986666D01*
X196084285Y-91034285D01*
X195893809Y-91081904D01*
X195750952Y-91081904D01*
X195560476Y-91034285D01*
X195465238Y-90986666D01*
X195370000Y-90891428D01*
X195322380Y-90748571D01*
X195322380Y-90653333D01*
X195370000Y-90510476D01*
X195417619Y-90462857D01*
X196322380Y-89510476D02*
X196322380Y-90081904D01*
X196322380Y-89796190D02*
X195322380Y-89796190D01*
X195465238Y-89891428D01*
X195560476Y-89986666D01*
X195608095Y-90081904D01*
X196322380Y-88558095D02*
X196322380Y-89129523D01*
X196322380Y-88843809D02*
X195322380Y-88843809D01*
X195465238Y-88939047D01*
X195560476Y-89034285D01*
X195608095Y-89129523D01*
X186738095Y-108952380D02*
X186738095Y-109761904D01*
X186785714Y-109857142D01*
X186833333Y-109904761D01*
X186928571Y-109952380D01*
X187119047Y-109952380D01*
X187214285Y-109904761D01*
X187261904Y-109857142D01*
X187309523Y-109761904D01*
X187309523Y-108952380D01*
X188309523Y-109952380D02*
X187738095Y-109952380D01*
X188023809Y-109952380D02*
X188023809Y-108952380D01*
X187928571Y-109095238D01*
X187833333Y-109190476D01*
X187738095Y-109238095D01*
X186738095Y-125952380D02*
X186738095Y-126761904D01*
X186785714Y-126857142D01*
X186833333Y-126904761D01*
X186928571Y-126952380D01*
X187119047Y-126952380D01*
X187214285Y-126904761D01*
X187261904Y-126857142D01*
X187309523Y-126761904D01*
X187309523Y-125952380D01*
X187738095Y-126047619D02*
X187785714Y-126000000D01*
X187880952Y-125952380D01*
X188119047Y-125952380D01*
X188214285Y-126000000D01*
X188261904Y-126047619D01*
X188309523Y-126142857D01*
X188309523Y-126238095D01*
X188261904Y-126380952D01*
X187690476Y-126952380D01*
X188309523Y-126952380D01*
X163302380Y-103016666D02*
X162826190Y-103350000D01*
X163302380Y-103588095D02*
X162302380Y-103588095D01*
X162302380Y-103207142D01*
X162350000Y-103111904D01*
X162397619Y-103064285D01*
X162492857Y-103016666D01*
X162635714Y-103016666D01*
X162730952Y-103064285D01*
X162778571Y-103111904D01*
X162826190Y-103207142D01*
X162826190Y-103588095D01*
X162302380Y-102111904D02*
X162302380Y-102588095D01*
X162778571Y-102635714D01*
X162730952Y-102588095D01*
X162683333Y-102492857D01*
X162683333Y-102254761D01*
X162730952Y-102159523D01*
X162778571Y-102111904D01*
X162873809Y-102064285D01*
X163111904Y-102064285D01*
X163207142Y-102111904D01*
X163254761Y-102159523D01*
X163302380Y-102254761D01*
X163302380Y-102492857D01*
X163254761Y-102588095D01*
X163207142Y-102635714D01*
X143166666Y-111312380D02*
X143166666Y-112026666D01*
X143119047Y-112169523D01*
X143023809Y-112264761D01*
X142880952Y-112312380D01*
X142785714Y-112312380D01*
X143595238Y-111407619D02*
X143642857Y-111360000D01*
X143738095Y-111312380D01*
X143976190Y-111312380D01*
X144071428Y-111360000D01*
X144119047Y-111407619D01*
X144166666Y-111502857D01*
X144166666Y-111598095D01*
X144119047Y-111740952D01*
X143547619Y-112312380D01*
X144166666Y-112312380D01*
X143016666Y-126392380D02*
X143016666Y-127106666D01*
X142969047Y-127249523D01*
X142873809Y-127344761D01*
X142730952Y-127392380D01*
X142635714Y-127392380D01*
X143397619Y-126392380D02*
X144016666Y-126392380D01*
X143683333Y-126773333D01*
X143826190Y-126773333D01*
X143921428Y-126820952D01*
X143969047Y-126868571D01*
X144016666Y-126963809D01*
X144016666Y-127201904D01*
X143969047Y-127297142D01*
X143921428Y-127344761D01*
X143826190Y-127392380D01*
X143540476Y-127392380D01*
X143445238Y-127344761D01*
X143397619Y-127297142D01*
X211717142Y-97052380D02*
X211717142Y-96052380D01*
X212288571Y-97052380D01*
X212288571Y-96052380D01*
X212621904Y-96052380D02*
X213193333Y-96052380D01*
X212907619Y-97052380D02*
X212907619Y-96052380D01*
X214098095Y-96957142D02*
X214050476Y-97004761D01*
X213907619Y-97052380D01*
X213812380Y-97052380D01*
X213669523Y-97004761D01*
X213574285Y-96909523D01*
X213526666Y-96814285D01*
X213479047Y-96623809D01*
X213479047Y-96480952D01*
X213526666Y-96290476D01*
X213574285Y-96195238D01*
X213669523Y-96100000D01*
X213812380Y-96052380D01*
X213907619Y-96052380D01*
X214050476Y-96100000D01*
X214098095Y-96147619D01*
X215050476Y-97052380D02*
X214479047Y-97052380D01*
X214764761Y-97052380D02*
X214764761Y-96052380D01*
X214669523Y-96195238D01*
X214574285Y-96290476D01*
X214479047Y-96338095D01*
X233352380Y-87976666D02*
X232876190Y-88310000D01*
X233352380Y-88548095D02*
X232352380Y-88548095D01*
X232352380Y-88167142D01*
X232400000Y-88071904D01*
X232447619Y-88024285D01*
X232542857Y-87976666D01*
X232685714Y-87976666D01*
X232780952Y-88024285D01*
X232828571Y-88071904D01*
X232876190Y-88167142D01*
X232876190Y-88548095D01*
X233352380Y-87024285D02*
X233352380Y-87595714D01*
X233352380Y-87310000D02*
X232352380Y-87310000D01*
X232495238Y-87405238D01*
X232590476Y-87500476D01*
X232638095Y-87595714D01*
X234812380Y-90566666D02*
X234336190Y-90900000D01*
X234812380Y-91138095D02*
X233812380Y-91138095D01*
X233812380Y-90757142D01*
X233860000Y-90661904D01*
X233907619Y-90614285D01*
X234002857Y-90566666D01*
X234145714Y-90566666D01*
X234240952Y-90614285D01*
X234288571Y-90661904D01*
X234336190Y-90757142D01*
X234336190Y-91138095D01*
X233907619Y-90185714D02*
X233860000Y-90138095D01*
X233812380Y-90042857D01*
X233812380Y-89804761D01*
X233860000Y-89709523D01*
X233907619Y-89661904D01*
X234002857Y-89614285D01*
X234098095Y-89614285D01*
X234240952Y-89661904D01*
X234812380Y-90233333D01*
X234812380Y-89614285D01*
X233422380Y-93146666D02*
X232946190Y-93480000D01*
X233422380Y-93718095D02*
X232422380Y-93718095D01*
X232422380Y-93337142D01*
X232470000Y-93241904D01*
X232517619Y-93194285D01*
X232612857Y-93146666D01*
X232755714Y-93146666D01*
X232850952Y-93194285D01*
X232898571Y-93241904D01*
X232946190Y-93337142D01*
X232946190Y-93718095D01*
X232422380Y-92813333D02*
X232422380Y-92194285D01*
X232803333Y-92527619D01*
X232803333Y-92384761D01*
X232850952Y-92289523D01*
X232898571Y-92241904D01*
X232993809Y-92194285D01*
X233231904Y-92194285D01*
X233327142Y-92241904D01*
X233374761Y-92289523D01*
X233422380Y-92384761D01*
X233422380Y-92670476D01*
X233374761Y-92765714D01*
X233327142Y-92813333D01*
X140356666Y-90072380D02*
X140356666Y-90786666D01*
X140309047Y-90929523D01*
X140213809Y-91024761D01*
X140070952Y-91072380D01*
X139975714Y-91072380D01*
X141356666Y-91072380D02*
X140785238Y-91072380D01*
X141070952Y-91072380D02*
X141070952Y-90072380D01*
X140975714Y-90215238D01*
X140880476Y-90310476D01*
X140785238Y-90358095D01*
D12*
X226476666Y-90495714D02*
X226438571Y-90533809D01*
X226324285Y-90571904D01*
X226248095Y-90571904D01*
X226133809Y-90533809D01*
X226057619Y-90457619D01*
X226019523Y-90381428D01*
X225981428Y-90229047D01*
X225981428Y-90114761D01*
X226019523Y-89962380D01*
X226057619Y-89886190D01*
X226133809Y-89810000D01*
X226248095Y-89771904D01*
X226324285Y-89771904D01*
X226438571Y-89810000D01*
X226476666Y-89848095D01*
X227238571Y-90571904D02*
X226781428Y-90571904D01*
X227010000Y-90571904D02*
X227010000Y-89771904D01*
X226933809Y-89886190D01*
X226857619Y-89962380D01*
X226781428Y-90000476D01*
X226456666Y-92485714D02*
X226418571Y-92523809D01*
X226304285Y-92561904D01*
X226228095Y-92561904D01*
X226113809Y-92523809D01*
X226037619Y-92447619D01*
X225999523Y-92371428D01*
X225961428Y-92219047D01*
X225961428Y-92104761D01*
X225999523Y-91952380D01*
X226037619Y-91876190D01*
X226113809Y-91800000D01*
X226228095Y-91761904D01*
X226304285Y-91761904D01*
X226418571Y-91800000D01*
X226456666Y-91838095D01*
X226761428Y-91838095D02*
X226799523Y-91800000D01*
X226875714Y-91761904D01*
X227066190Y-91761904D01*
X227142380Y-91800000D01*
X227180476Y-91838095D01*
X227218571Y-91914285D01*
X227218571Y-91990476D01*
X227180476Y-92104761D01*
X226723333Y-92561904D01*
X227218571Y-92561904D01*
X226486666Y-88465714D02*
X226448571Y-88503809D01*
X226334285Y-88541904D01*
X226258095Y-88541904D01*
X226143809Y-88503809D01*
X226067619Y-88427619D01*
X226029523Y-88351428D01*
X225991428Y-88199047D01*
X225991428Y-88084761D01*
X226029523Y-87932380D01*
X226067619Y-87856190D01*
X226143809Y-87780000D01*
X226258095Y-87741904D01*
X226334285Y-87741904D01*
X226448571Y-87780000D01*
X226486666Y-87818095D01*
X226753333Y-87741904D02*
X227248571Y-87741904D01*
X226981904Y-88046666D01*
X227096190Y-88046666D01*
X227172380Y-88084761D01*
X227210476Y-88122857D01*
X227248571Y-88199047D01*
X227248571Y-88389523D01*
X227210476Y-88465714D01*
X227172380Y-88503809D01*
X227096190Y-88541904D01*
X226867619Y-88541904D01*
X226791428Y-88503809D01*
X226753333Y-88465714D01*
X226506666Y-89455714D02*
X226468571Y-89493809D01*
X226354285Y-89531904D01*
X226278095Y-89531904D01*
X226163809Y-89493809D01*
X226087619Y-89417619D01*
X226049523Y-89341428D01*
X226011428Y-89189047D01*
X226011428Y-89074761D01*
X226049523Y-88922380D01*
X226087619Y-88846190D01*
X226163809Y-88770000D01*
X226278095Y-88731904D01*
X226354285Y-88731904D01*
X226468571Y-88770000D01*
X226506666Y-88808095D01*
X227192380Y-88998571D02*
X227192380Y-89531904D01*
X227001904Y-88693809D02*
X226811428Y-89265238D01*
X227306666Y-89265238D01*
X226476666Y-91495714D02*
X226438571Y-91533809D01*
X226324285Y-91571904D01*
X226248095Y-91571904D01*
X226133809Y-91533809D01*
X226057619Y-91457619D01*
X226019523Y-91381428D01*
X225981428Y-91229047D01*
X225981428Y-91114761D01*
X226019523Y-90962380D01*
X226057619Y-90886190D01*
X226133809Y-90810000D01*
X226248095Y-90771904D01*
X226324285Y-90771904D01*
X226438571Y-90810000D01*
X226476666Y-90848095D01*
X227200476Y-90771904D02*
X226819523Y-90771904D01*
X226781428Y-91152857D01*
X226819523Y-91114761D01*
X226895714Y-91076666D01*
X227086190Y-91076666D01*
X227162380Y-91114761D01*
X227200476Y-91152857D01*
X227238571Y-91229047D01*
X227238571Y-91419523D01*
X227200476Y-91495714D01*
X227162380Y-91533809D01*
X227086190Y-91571904D01*
X226895714Y-91571904D01*
X226819523Y-91533809D01*
X226781428Y-91495714D01*
X226486666Y-87465714D02*
X226448571Y-87503809D01*
X226334285Y-87541904D01*
X226258095Y-87541904D01*
X226143809Y-87503809D01*
X226067619Y-87427619D01*
X226029523Y-87351428D01*
X225991428Y-87199047D01*
X225991428Y-87084761D01*
X226029523Y-86932380D01*
X226067619Y-86856190D01*
X226143809Y-86780000D01*
X226258095Y-86741904D01*
X226334285Y-86741904D01*
X226448571Y-86780000D01*
X226486666Y-86818095D01*
X227172380Y-86741904D02*
X227020000Y-86741904D01*
X226943809Y-86780000D01*
X226905714Y-86818095D01*
X226829523Y-86932380D01*
X226791428Y-87084761D01*
X226791428Y-87389523D01*
X226829523Y-87465714D01*
X226867619Y-87503809D01*
X226943809Y-87541904D01*
X227096190Y-87541904D01*
X227172380Y-87503809D01*
X227210476Y-87465714D01*
X227248571Y-87389523D01*
X227248571Y-87199047D01*
X227210476Y-87122857D01*
X227172380Y-87084761D01*
X227096190Y-87046666D01*
X226943809Y-87046666D01*
X226867619Y-87084761D01*
X226829523Y-87122857D01*
X226791428Y-87199047D01*
D10*
X219783333Y-97197142D02*
X219735714Y-97244761D01*
X219592857Y-97292380D01*
X219497619Y-97292380D01*
X219354761Y-97244761D01*
X219259523Y-97149523D01*
X219211904Y-97054285D01*
X219164285Y-96863809D01*
X219164285Y-96720952D01*
X219211904Y-96530476D01*
X219259523Y-96435238D01*
X219354761Y-96340000D01*
X219497619Y-96292380D01*
X219592857Y-96292380D01*
X219735714Y-96340000D01*
X219783333Y-96387619D01*
X220116666Y-96292380D02*
X220783333Y-96292380D01*
X220354761Y-97292380D01*
X219800633Y-85936642D02*
X219753014Y-85984261D01*
X219610157Y-86031880D01*
X219514919Y-86031880D01*
X219372061Y-85984261D01*
X219276823Y-85889023D01*
X219229204Y-85793785D01*
X219181585Y-85603309D01*
X219181585Y-85460452D01*
X219229204Y-85269976D01*
X219276823Y-85174738D01*
X219372061Y-85079500D01*
X219514919Y-85031880D01*
X219610157Y-85031880D01*
X219753014Y-85079500D01*
X219800633Y-85127119D01*
X220372061Y-85460452D02*
X220276823Y-85412833D01*
X220229204Y-85365214D01*
X220181585Y-85269976D01*
X220181585Y-85222357D01*
X220229204Y-85127119D01*
X220276823Y-85079500D01*
X220372061Y-85031880D01*
X220562538Y-85031880D01*
X220657776Y-85079500D01*
X220705395Y-85127119D01*
X220753014Y-85222357D01*
X220753014Y-85269976D01*
X220705395Y-85365214D01*
X220657776Y-85412833D01*
X220562538Y-85460452D01*
X220372061Y-85460452D01*
X220276823Y-85508071D01*
X220229204Y-85555690D01*
X220181585Y-85650928D01*
X220181585Y-85841404D01*
X220229204Y-85936642D01*
X220276823Y-85984261D01*
X220372061Y-86031880D01*
X220562538Y-86031880D01*
X220657776Y-85984261D01*
X220705395Y-85936642D01*
X220753014Y-85841404D01*
X220753014Y-85650928D01*
X220705395Y-85555690D01*
X220657776Y-85508071D01*
X220562538Y-85460452D01*
X221303333Y-93917142D02*
X221255714Y-93964761D01*
X221112857Y-94012380D01*
X221017619Y-94012380D01*
X220874761Y-93964761D01*
X220779523Y-93869523D01*
X220731904Y-93774285D01*
X220684285Y-93583809D01*
X220684285Y-93440952D01*
X220731904Y-93250476D01*
X220779523Y-93155238D01*
X220874761Y-93060000D01*
X221017619Y-93012380D01*
X221112857Y-93012380D01*
X221255714Y-93060000D01*
X221303333Y-93107619D01*
X221779523Y-94012380D02*
X221970000Y-94012380D01*
X222065238Y-93964761D01*
X222112857Y-93917142D01*
X222208095Y-93774285D01*
X222255714Y-93583809D01*
X222255714Y-93202857D01*
X222208095Y-93107619D01*
X222160476Y-93060000D01*
X222065238Y-93012380D01*
X221874761Y-93012380D01*
X221779523Y-93060000D01*
X221731904Y-93107619D01*
X221684285Y-93202857D01*
X221684285Y-93440952D01*
X221731904Y-93536190D01*
X221779523Y-93583809D01*
X221874761Y-93631428D01*
X222065238Y-93631428D01*
X222160476Y-93583809D01*
X222208095Y-93536190D01*
X222255714Y-93440952D01*
X219324442Y-89276642D02*
X219276823Y-89324261D01*
X219133966Y-89371880D01*
X219038728Y-89371880D01*
X218895871Y-89324261D01*
X218800633Y-89229023D01*
X218753014Y-89133785D01*
X218705395Y-88943309D01*
X218705395Y-88800452D01*
X218753014Y-88609976D01*
X218800633Y-88514738D01*
X218895871Y-88419500D01*
X219038728Y-88371880D01*
X219133966Y-88371880D01*
X219276823Y-88419500D01*
X219324442Y-88467119D01*
X220276823Y-89371880D02*
X219705395Y-89371880D01*
X219991109Y-89371880D02*
X219991109Y-88371880D01*
X219895871Y-88514738D01*
X219800633Y-88609976D01*
X219705395Y-88657595D01*
X220895871Y-88371880D02*
X220991109Y-88371880D01*
X221086347Y-88419500D01*
X221133966Y-88467119D01*
X221181585Y-88562357D01*
X221229204Y-88752833D01*
X221229204Y-88990928D01*
X221181585Y-89181404D01*
X221133966Y-89276642D01*
X221086347Y-89324261D01*
X220991109Y-89371880D01*
X220895871Y-89371880D01*
X220800633Y-89324261D01*
X220753014Y-89276642D01*
X220705395Y-89181404D01*
X220657776Y-88990928D01*
X220657776Y-88752833D01*
X220705395Y-88562357D01*
X220753014Y-88467119D01*
X220800633Y-88419500D01*
X220895871Y-88371880D01*
X224899680Y-93826166D02*
X224423490Y-94159500D01*
X224899680Y-94397595D02*
X223899680Y-94397595D01*
X223899680Y-94016642D01*
X223947300Y-93921404D01*
X223994919Y-93873785D01*
X224090157Y-93826166D01*
X224233014Y-93826166D01*
X224328252Y-93873785D01*
X224375871Y-93921404D01*
X224423490Y-94016642D01*
X224423490Y-94397595D01*
X224233014Y-92969023D02*
X224899680Y-92969023D01*
X223852061Y-93207119D02*
X224566347Y-93445214D01*
X224566347Y-92826166D01*
X210413333Y-82902380D02*
X210080000Y-82426190D01*
X209841904Y-82902380D02*
X209841904Y-81902380D01*
X210222857Y-81902380D01*
X210318095Y-81950000D01*
X210365714Y-81997619D01*
X210413333Y-82092857D01*
X210413333Y-82235714D01*
X210365714Y-82330952D01*
X210318095Y-82378571D01*
X210222857Y-82426190D01*
X209841904Y-82426190D01*
X211270476Y-81902380D02*
X211080000Y-81902380D01*
X210984761Y-81950000D01*
X210937142Y-81997619D01*
X210841904Y-82140476D01*
X210794285Y-82330952D01*
X210794285Y-82711904D01*
X210841904Y-82807142D01*
X210889523Y-82854761D01*
X210984761Y-82902380D01*
X211175238Y-82902380D01*
X211270476Y-82854761D01*
X211318095Y-82807142D01*
X211365714Y-82711904D01*
X211365714Y-82473809D01*
X211318095Y-82378571D01*
X211270476Y-82330952D01*
X211175238Y-82283333D01*
X210984761Y-82283333D01*
X210889523Y-82330952D01*
X210841904Y-82378571D01*
X210794285Y-82473809D01*
X207177030Y-80287733D02*
X206604610Y-80186718D01*
X206772969Y-80691794D02*
X206065862Y-79984688D01*
X206335236Y-79715313D01*
X206436251Y-79681642D01*
X206503595Y-79681642D01*
X206604610Y-79715313D01*
X206705625Y-79816329D01*
X206739297Y-79917344D01*
X206739297Y-79984688D01*
X206705625Y-80085703D01*
X206436251Y-80355077D01*
X206705625Y-79344924D02*
X207177030Y-78873520D01*
X207581091Y-79883672D01*
X201127380Y-80846666D02*
X200651190Y-81180000D01*
X201127380Y-81418095D02*
X200127380Y-81418095D01*
X200127380Y-81037142D01*
X200175000Y-80941904D01*
X200222619Y-80894285D01*
X200317857Y-80846666D01*
X200460714Y-80846666D01*
X200555952Y-80894285D01*
X200603571Y-80941904D01*
X200651190Y-81037142D01*
X200651190Y-81418095D01*
X200555952Y-80275238D02*
X200508333Y-80370476D01*
X200460714Y-80418095D01*
X200365476Y-80465714D01*
X200317857Y-80465714D01*
X200222619Y-80418095D01*
X200175000Y-80370476D01*
X200127380Y-80275238D01*
X200127380Y-80084761D01*
X200175000Y-79989523D01*
X200222619Y-79941904D01*
X200317857Y-79894285D01*
X200365476Y-79894285D01*
X200460714Y-79941904D01*
X200508333Y-79989523D01*
X200555952Y-80084761D01*
X200555952Y-80275238D01*
X200603571Y-80370476D01*
X200651190Y-80418095D01*
X200746428Y-80465714D01*
X200936904Y-80465714D01*
X201032142Y-80418095D01*
X201079761Y-80370476D01*
X201127380Y-80275238D01*
X201127380Y-80084761D01*
X201079761Y-79989523D01*
X201032142Y-79941904D01*
X200936904Y-79894285D01*
X200746428Y-79894285D01*
X200651190Y-79941904D01*
X200603571Y-79989523D01*
X200555952Y-80084761D01*
X197876413Y-84958719D02*
X197303993Y-84857704D01*
X197472352Y-85362780D02*
X196765245Y-84655674D01*
X197034619Y-84386299D01*
X197135634Y-84352628D01*
X197202978Y-84352628D01*
X197303993Y-84386299D01*
X197405008Y-84487315D01*
X197438680Y-84588330D01*
X197438680Y-84655674D01*
X197405008Y-84756689D01*
X197135634Y-85026063D01*
X198213131Y-84622002D02*
X198347818Y-84487315D01*
X198381489Y-84386299D01*
X198381489Y-84318956D01*
X198347818Y-84150597D01*
X198246802Y-83982238D01*
X197977428Y-83712864D01*
X197876413Y-83679193D01*
X197809070Y-83679193D01*
X197708054Y-83712864D01*
X197573367Y-83847551D01*
X197539695Y-83948567D01*
X197539695Y-84015910D01*
X197573367Y-84116925D01*
X197741726Y-84285284D01*
X197842741Y-84318956D01*
X197910085Y-84318956D01*
X198011100Y-84285284D01*
X198145787Y-84150597D01*
X198179459Y-84049582D01*
X198179459Y-83982238D01*
X198145787Y-83881223D01*
X204252380Y-113002857D02*
X203252380Y-113002857D01*
X204252380Y-112431428D01*
X203252380Y-112431428D01*
X203252380Y-112098095D02*
X203252380Y-111526666D01*
X204252380Y-111812380D02*
X203252380Y-111812380D01*
X204157142Y-110621904D02*
X204204761Y-110669523D01*
X204252380Y-110812380D01*
X204252380Y-110907619D01*
X204204761Y-111050476D01*
X204109523Y-111145714D01*
X204014285Y-111193333D01*
X203823809Y-111240952D01*
X203680952Y-111240952D01*
X203490476Y-111193333D01*
X203395238Y-111145714D01*
X203300000Y-111050476D01*
X203252380Y-110907619D01*
X203252380Y-110812380D01*
X203300000Y-110669523D01*
X203347619Y-110621904D01*
X203347619Y-110240952D02*
X203300000Y-110193333D01*
X203252380Y-110098095D01*
X203252380Y-109860000D01*
X203300000Y-109764761D01*
X203347619Y-109717142D01*
X203442857Y-109669523D01*
X203538095Y-109669523D01*
X203680952Y-109717142D01*
X204252380Y-110288571D01*
X204252380Y-109669523D01*
X201819642Y-127772380D02*
X201486309Y-127296190D01*
X201248214Y-127772380D02*
X201248214Y-126772380D01*
X201629166Y-126772380D01*
X201724404Y-126820000D01*
X201772023Y-126867619D01*
X201819642Y-126962857D01*
X201819642Y-127105714D01*
X201772023Y-127200952D01*
X201724404Y-127248571D01*
X201629166Y-127296190D01*
X201248214Y-127296190D01*
X202772023Y-127772380D02*
X202200595Y-127772380D01*
X202486309Y-127772380D02*
X202486309Y-126772380D01*
X202391071Y-126915238D01*
X202295833Y-127010476D01*
X202200595Y-127058095D01*
X203724404Y-127772380D02*
X203152976Y-127772380D01*
X203438690Y-127772380D02*
X203438690Y-126772380D01*
X203343452Y-126915238D01*
X203248214Y-127010476D01*
X203152976Y-127058095D01*
X176297142Y-92432380D02*
X175963809Y-91956190D01*
X175725714Y-92432380D02*
X175725714Y-91432380D01*
X176106666Y-91432380D01*
X176201904Y-91480000D01*
X176249523Y-91527619D01*
X176297142Y-91622857D01*
X176297142Y-91765714D01*
X176249523Y-91860952D01*
X176201904Y-91908571D01*
X176106666Y-91956190D01*
X175725714Y-91956190D01*
X177249523Y-92432380D02*
X176678095Y-92432380D01*
X176963809Y-92432380D02*
X176963809Y-91432380D01*
X176868571Y-91575238D01*
X176773333Y-91670476D01*
X176678095Y-91718095D01*
X177630476Y-91527619D02*
X177678095Y-91480000D01*
X177773333Y-91432380D01*
X178011428Y-91432380D01*
X178106666Y-91480000D01*
X178154285Y-91527619D01*
X178201904Y-91622857D01*
X178201904Y-91718095D01*
X178154285Y-91860952D01*
X177582857Y-92432380D01*
X178201904Y-92432380D01*
X172517142Y-92432380D02*
X172183809Y-91956190D01*
X171945714Y-92432380D02*
X171945714Y-91432380D01*
X172326666Y-91432380D01*
X172421904Y-91480000D01*
X172469523Y-91527619D01*
X172517142Y-91622857D01*
X172517142Y-91765714D01*
X172469523Y-91860952D01*
X172421904Y-91908571D01*
X172326666Y-91956190D01*
X171945714Y-91956190D01*
X173469523Y-92432380D02*
X172898095Y-92432380D01*
X173183809Y-92432380D02*
X173183809Y-91432380D01*
X173088571Y-91575238D01*
X172993333Y-91670476D01*
X172898095Y-91718095D01*
X174088571Y-91432380D02*
X174183809Y-91432380D01*
X174279047Y-91480000D01*
X174326666Y-91527619D01*
X174374285Y-91622857D01*
X174421904Y-91813333D01*
X174421904Y-92051428D01*
X174374285Y-92241904D01*
X174326666Y-92337142D01*
X174279047Y-92384761D01*
X174183809Y-92432380D01*
X174088571Y-92432380D01*
X173993333Y-92384761D01*
X173945714Y-92337142D01*
X173898095Y-92241904D01*
X173850476Y-92051428D01*
X173850476Y-91813333D01*
X173898095Y-91622857D01*
X173945714Y-91527619D01*
X173993333Y-91480000D01*
X174088571Y-91432380D01*
M02*
