G04 #@! TF.GenerationSoftware,KiCad,Pcbnew,(5.1.6)-1*
G04 #@! TF.CreationDate,2022-01-12T09:12:12+00:00*
G04 #@! TF.ProjectId,starChipsSEE,73746172-4368-4697-9073-5345452e6b69,rev?*
G04 #@! TF.SameCoordinates,Original*
G04 #@! TF.FileFunction,Copper,L1,Top*
G04 #@! TF.FilePolarity,Positive*
%FSLAX46Y46*%
G04 Gerber Fmt 4.6, Leading zero omitted, Abs format (unit mm)*
G04 Created by KiCad (PCBNEW (5.1.6)-1) date 2022-01-12 09:12:12*
%MOMM*%
%LPD*%
G01*
G04 APERTURE LIST*
G04 #@! TA.AperFunction,SMDPad,CuDef*
%ADD10R,5.000000X0.398000*%
G04 #@! TD*
G04 #@! TA.AperFunction,SMDPad,CuDef*
%ADD11R,0.280000X0.150000*%
G04 #@! TD*
G04 #@! TA.AperFunction,SMDPad,CuDef*
%ADD12R,0.150000X0.280000*%
G04 #@! TD*
G04 #@! TA.AperFunction,SMDPad,CuDef*
%ADD13R,0.250000X0.250000*%
G04 #@! TD*
G04 #@! TA.AperFunction,SMDPad,CuDef*
%ADD14R,2.985000X2.550000*%
G04 #@! TD*
G04 #@! TA.AperFunction,SMDPad,CuDef*
%ADD15R,0.820000X3.800000*%
G04 #@! TD*
G04 #@! TA.AperFunction,SMDPad,CuDef*
%ADD16R,4.850000X0.360000*%
G04 #@! TD*
G04 #@! TA.AperFunction,SMDPad,CuDef*
%ADD17R,0.600000X0.540000*%
G04 #@! TD*
G04 #@! TA.AperFunction,SMDPad,CuDef*
%ADD18R,2.885000X2.550000*%
G04 #@! TD*
G04 #@! TA.AperFunction,SMDPad,CuDef*
%ADD19R,2.985000X2.450000*%
G04 #@! TD*
G04 #@! TA.AperFunction,SMDPad,CuDef*
%ADD20R,0.300000X1.150000*%
G04 #@! TD*
G04 #@! TA.AperFunction,SMDPad,CuDef*
%ADD21R,2.885000X2.450000*%
G04 #@! TD*
G04 #@! TA.AperFunction,SMDPad,CuDef*
%ADD22R,0.550000X0.750000*%
G04 #@! TD*
G04 #@! TA.AperFunction,SMDPad,CuDef*
%ADD23R,1.050000X3.650000*%
G04 #@! TD*
G04 #@! TA.AperFunction,SMDPad,CuDef*
%ADD24R,7.230000X0.620000*%
G04 #@! TD*
G04 #@! TA.AperFunction,SMDPad,CuDef*
%ADD25R,7.230000X0.280000*%
G04 #@! TD*
G04 #@! TA.AperFunction,SMDPad,CuDef*
%ADD26R,2.550000X0.280000*%
G04 #@! TD*
G04 #@! TA.AperFunction,SMDPad,CuDef*
%ADD27R,2.300000X0.280000*%
G04 #@! TD*
G04 #@! TA.AperFunction,SMDPad,CuDef*
%ADD28R,1.670000X0.280000*%
G04 #@! TD*
G04 #@! TA.AperFunction,SMDPad,CuDef*
%ADD29R,0.180000X0.280000*%
G04 #@! TD*
G04 #@! TA.AperFunction,SMDPad,CuDef*
%ADD30R,0.150000X0.300000*%
G04 #@! TD*
G04 #@! TA.AperFunction,SMDPad,CuDef*
%ADD31R,0.400000X0.300000*%
G04 #@! TD*
G04 #@! TA.AperFunction,SMDPad,CuDef*
%ADD32R,2.780000X2.430000*%
G04 #@! TD*
G04 #@! TA.AperFunction,SMDPad,CuDef*
%ADD33R,0.300000X0.150000*%
G04 #@! TD*
G04 #@! TA.AperFunction,SMDPad,CuDef*
%ADD34R,1.000000X0.150000*%
G04 #@! TD*
G04 #@! TA.AperFunction,ComponentPad*
%ADD35R,1.200000X1.500000*%
G04 #@! TD*
G04 #@! TA.AperFunction,ComponentPad*
%ADD36R,2.000000X2.000000*%
G04 #@! TD*
G04 #@! TA.AperFunction,SMDPad,CuDef*
%ADD37R,1.270000X0.300000*%
G04 #@! TD*
G04 #@! TA.AperFunction,SMDPad,CuDef*
%ADD38R,0.127000X0.508000*%
G04 #@! TD*
G04 #@! TA.AperFunction,SMDPad,CuDef*
%ADD39R,5.000000X0.508000*%
G04 #@! TD*
G04 #@! TA.AperFunction,SMDPad,CuDef*
%ADD40R,6.400000X0.508000*%
G04 #@! TD*
G04 #@! TA.AperFunction,SMDPad,CuDef*
%ADD41R,0.300000X1.000000*%
G04 #@! TD*
G04 #@! TA.AperFunction,SMDPad,CuDef*
%ADD42R,1.500000X1.270000*%
G04 #@! TD*
G04 #@! TA.AperFunction,ComponentPad*
%ADD43O,2.250000X1.200000*%
G04 #@! TD*
G04 #@! TA.AperFunction,ComponentPad*
%ADD44C,0.750000*%
G04 #@! TD*
G04 #@! TA.AperFunction,ComponentPad*
%ADD45O,2.850000X1.400000*%
G04 #@! TD*
G04 #@! TA.AperFunction,ComponentPad*
%ADD46O,3.700000X2.700000*%
G04 #@! TD*
G04 #@! TA.AperFunction,ViaPad*
%ADD47C,0.800000*%
G04 #@! TD*
G04 #@! TA.AperFunction,Conductor*
%ADD48C,0.125000*%
G04 #@! TD*
G04 #@! TA.AperFunction,Conductor*
%ADD49C,0.300000*%
G04 #@! TD*
G04 #@! TA.AperFunction,Conductor*
%ADD50C,0.250000*%
G04 #@! TD*
G04 #@! TA.AperFunction,Conductor*
%ADD51C,0.254000*%
G04 #@! TD*
G04 APERTURE END LIST*
D10*
X215160000Y-94600000D03*
D11*
X219710000Y-92190000D03*
X219710000Y-92740000D03*
D12*
X215260000Y-88740000D03*
D11*
X210750000Y-90510000D03*
X210750000Y-90760000D03*
X210750000Y-91010000D03*
X210750000Y-91510000D03*
D12*
X215980000Y-88740000D03*
D11*
X210750000Y-91760000D03*
X210750000Y-92100000D03*
X219710000Y-91370000D03*
D12*
X213760000Y-88740000D03*
D11*
X219710000Y-91640000D03*
D12*
X216960000Y-88740000D03*
X213380000Y-95140000D03*
X214380000Y-95140000D03*
X213130000Y-95140000D03*
D13*
X212830000Y-95120000D03*
D11*
X219710000Y-91920000D03*
X219710000Y-92470000D03*
D12*
X214760000Y-88740000D03*
X214260000Y-88740000D03*
X216960000Y-95140000D03*
X213880000Y-95140000D03*
D11*
X210750000Y-91260000D03*
D12*
X213260000Y-88740000D03*
X217230000Y-88740000D03*
X217230000Y-95140000D03*
X214510000Y-88740000D03*
X213010000Y-88740000D03*
X216710000Y-95140000D03*
X216210000Y-95140000D03*
X214130000Y-95140000D03*
X215010000Y-88740000D03*
X214010000Y-88740000D03*
X213510000Y-88740000D03*
X216460000Y-95140000D03*
D11*
X219710000Y-90820000D03*
X219710000Y-91090000D03*
D12*
X213630000Y-95140000D03*
D14*
X213700000Y-93132500D03*
D15*
X218480000Y-91920000D03*
D16*
X215140000Y-89240000D03*
D11*
X210750000Y-93100000D03*
D17*
X217180000Y-94110000D03*
D11*
X210750000Y-92350000D03*
X210750000Y-92850000D03*
X210750000Y-92600000D03*
X210750000Y-93350000D03*
D18*
X216630000Y-93132500D03*
D19*
X213700000Y-90637500D03*
D20*
X219260000Y-93110000D03*
X219260000Y-90760000D03*
D21*
X216630000Y-90637500D03*
D22*
X216490000Y-88690000D03*
D23*
X211690000Y-91930000D03*
D24*
X203060000Y-89435000D03*
D25*
X203060000Y-88835000D03*
D26*
X205400000Y-88405000D03*
D27*
X200590000Y-88405000D03*
D28*
X203030000Y-88405000D03*
D29*
X201970000Y-88405000D03*
D30*
X200720000Y-87965000D03*
X200450000Y-87965000D03*
X200190000Y-87965000D03*
X199920000Y-87965000D03*
D31*
X199510000Y-87960000D03*
D30*
X204980000Y-87965000D03*
X205240000Y-87965000D03*
X205510000Y-87965000D03*
X205770000Y-87965000D03*
X206030000Y-87965000D03*
X206300000Y-87965000D03*
X206560000Y-87965000D03*
D31*
X199510000Y-87450000D03*
D32*
X200270000Y-95755000D03*
X200270000Y-93325001D03*
X200270000Y-90925001D03*
X203050000Y-90925001D03*
X203050000Y-95755000D03*
X203050000Y-93325001D03*
X205830000Y-90925001D03*
X205830000Y-95755000D03*
X205830000Y-93325001D03*
D33*
X198420000Y-91445000D03*
D34*
X198770000Y-91715000D03*
D33*
X198420000Y-91985000D03*
D34*
X198770000Y-92255000D03*
G04 #@! TA.AperFunction,SMDPad,CuDef*
G36*
G01*
X196917500Y-90010000D02*
X197262500Y-90010000D01*
G75*
G02*
X197410000Y-90157500I0J-147500D01*
G01*
X197410000Y-90452500D01*
G75*
G02*
X197262500Y-90600000I-147500J0D01*
G01*
X196917500Y-90600000D01*
G75*
G02*
X196770000Y-90452500I0J147500D01*
G01*
X196770000Y-90157500D01*
G75*
G02*
X196917500Y-90010000I147500J0D01*
G01*
G37*
G04 #@! TD.AperFunction*
G04 #@! TA.AperFunction,SMDPad,CuDef*
G36*
G01*
X196917500Y-89040000D02*
X197262500Y-89040000D01*
G75*
G02*
X197410000Y-89187500I0J-147500D01*
G01*
X197410000Y-89482500D01*
G75*
G02*
X197262500Y-89630000I-147500J0D01*
G01*
X196917500Y-89630000D01*
G75*
G02*
X196770000Y-89482500I0J147500D01*
G01*
X196770000Y-89187500D01*
G75*
G02*
X196917500Y-89040000I147500J0D01*
G01*
G37*
G04 #@! TD.AperFunction*
D35*
X219300000Y-105050000D03*
X219300000Y-103550000D03*
X218100000Y-103550000D03*
X218100000Y-105050000D03*
D36*
X242400000Y-107000000D03*
X244400000Y-99000000D03*
X244400000Y-101000000D03*
X244400000Y-103000000D03*
X244400000Y-105000000D03*
X244400000Y-107000000D03*
X242400000Y-103000000D03*
X242400000Y-105000000D03*
X242400000Y-99000000D03*
X242400000Y-101000000D03*
X238400000Y-107000000D03*
X240400000Y-99000000D03*
X240400000Y-101000000D03*
X240400000Y-103000000D03*
X240400000Y-105000000D03*
X240400000Y-107000000D03*
X238400000Y-103000000D03*
X238400000Y-105000000D03*
X238400000Y-99000000D03*
X238400000Y-101000000D03*
X234400000Y-107000000D03*
X236400000Y-99000000D03*
X236400000Y-101000000D03*
X236400000Y-103000000D03*
X236400000Y-105000000D03*
X236400000Y-107000000D03*
X234400000Y-103000000D03*
X234400000Y-105000000D03*
X234400000Y-99000000D03*
X234400000Y-101000000D03*
X232400000Y-107000000D03*
X232400000Y-105000000D03*
X232400000Y-103000000D03*
X232400000Y-101000000D03*
X232400000Y-99000000D03*
X230400000Y-107000000D03*
X230400000Y-105000000D03*
X230400000Y-99000000D03*
X230400000Y-101000000D03*
X230400000Y-103000000D03*
D37*
X172250000Y-98000000D03*
X172250000Y-100000000D03*
D38*
X208650000Y-110000000D03*
X209900000Y-110000000D03*
X209650000Y-110000000D03*
X208900000Y-110000000D03*
X209400000Y-110000000D03*
X209150000Y-110000000D03*
X208400000Y-110000000D03*
D39*
X222600000Y-110000000D03*
D40*
X216500000Y-110000000D03*
D38*
X209900000Y-96000000D03*
X209650000Y-96000000D03*
X209400000Y-96000000D03*
X209150000Y-96000000D03*
X208900000Y-96000000D03*
X208650000Y-96000000D03*
X208400000Y-96000000D03*
D41*
X164400000Y-107800000D03*
X165000000Y-107400000D03*
X165600000Y-107000000D03*
X166200000Y-106200000D03*
X166800000Y-106600000D03*
X167400000Y-105800000D03*
X168000000Y-105400000D03*
D42*
X172250000Y-104000000D03*
X172250000Y-102500000D03*
D38*
X225750000Y-96000000D03*
X226250000Y-96000000D03*
X226750000Y-96000000D03*
X225750000Y-110000000D03*
X226250000Y-110000000D03*
X226750000Y-110000000D03*
D35*
X219300000Y-122050000D03*
X219300000Y-120550000D03*
X218100000Y-120550000D03*
X218100000Y-122050000D03*
D36*
X242400000Y-124000000D03*
X244400000Y-116000000D03*
X244400000Y-118000000D03*
X244400000Y-120000000D03*
X244400000Y-122000000D03*
X244400000Y-124000000D03*
X242400000Y-120000000D03*
X242400000Y-122000000D03*
X242400000Y-116000000D03*
X242400000Y-118000000D03*
X238400000Y-124000000D03*
X240400000Y-116000000D03*
X240400000Y-118000000D03*
X240400000Y-120000000D03*
X240400000Y-122000000D03*
X240400000Y-124000000D03*
X238400000Y-120000000D03*
X238400000Y-122000000D03*
X238400000Y-116000000D03*
X238400000Y-118000000D03*
X234400000Y-124000000D03*
X236400000Y-116000000D03*
X236400000Y-118000000D03*
X236400000Y-120000000D03*
X236400000Y-122000000D03*
X236400000Y-124000000D03*
X234400000Y-120000000D03*
X234400000Y-122000000D03*
X234400000Y-116000000D03*
X234400000Y-118000000D03*
X232400000Y-124000000D03*
X232400000Y-122000000D03*
X232400000Y-120000000D03*
X232400000Y-118000000D03*
X232400000Y-116000000D03*
X230400000Y-124000000D03*
X230400000Y-122000000D03*
X230400000Y-116000000D03*
X230400000Y-118000000D03*
X230400000Y-120000000D03*
D37*
X172250000Y-115000000D03*
X172250000Y-117000000D03*
D38*
X208650000Y-127000000D03*
X209900000Y-127000000D03*
X209650000Y-127000000D03*
X208900000Y-127000000D03*
X209400000Y-127000000D03*
X209150000Y-127000000D03*
X208400000Y-127000000D03*
D39*
X222600000Y-127000000D03*
D40*
X216500000Y-127000000D03*
D38*
X209900000Y-113000000D03*
X209650000Y-113000000D03*
X209400000Y-113000000D03*
X209150000Y-113000000D03*
X208900000Y-113000000D03*
X208650000Y-113000000D03*
X208400000Y-113000000D03*
D41*
X164400000Y-124800000D03*
X165000000Y-124400000D03*
X165600000Y-124000000D03*
X166200000Y-123200000D03*
X166800000Y-123600000D03*
X167400000Y-122800000D03*
X168000000Y-122400000D03*
D42*
X172250000Y-121000000D03*
X172250000Y-119500000D03*
D38*
X225750000Y-113000000D03*
X226250000Y-113000000D03*
X226750000Y-113000000D03*
X225750000Y-127000000D03*
X226250000Y-127000000D03*
X226750000Y-127000000D03*
G04 #@! TA.AperFunction,SMDPad,CuDef*
G36*
G01*
X164023750Y-103200000D02*
X164536250Y-103200000D01*
G75*
G02*
X164755000Y-103418750I0J-218750D01*
G01*
X164755000Y-103856250D01*
G75*
G02*
X164536250Y-104075000I-218750J0D01*
G01*
X164023750Y-104075000D01*
G75*
G02*
X163805000Y-103856250I0J218750D01*
G01*
X163805000Y-103418750D01*
G75*
G02*
X164023750Y-103200000I218750J0D01*
G01*
G37*
G04 #@! TD.AperFunction*
G04 #@! TA.AperFunction,SMDPad,CuDef*
G36*
G01*
X164023750Y-101625000D02*
X164536250Y-101625000D01*
G75*
G02*
X164755000Y-101843750I0J-218750D01*
G01*
X164755000Y-102281250D01*
G75*
G02*
X164536250Y-102500000I-218750J0D01*
G01*
X164023750Y-102500000D01*
G75*
G02*
X163805000Y-102281250I0J218750D01*
G01*
X163805000Y-101843750D01*
G75*
G02*
X164023750Y-101625000I218750J0D01*
G01*
G37*
G04 #@! TD.AperFunction*
D43*
X140500000Y-110200000D03*
D44*
X149150000Y-107250000D03*
X149150000Y-106350000D03*
X149150000Y-105450000D03*
X148350000Y-105900000D03*
X148350000Y-107700000D03*
X149150000Y-104550000D03*
X149150000Y-103650000D03*
X148350000Y-104100000D03*
X149150000Y-102750000D03*
X148350000Y-102300000D03*
X145800000Y-107250000D03*
X145800000Y-106350000D03*
X145800000Y-105450000D03*
X145800000Y-104550000D03*
X145800000Y-103650000D03*
X145000000Y-105900000D03*
X145000000Y-107700000D03*
X145000000Y-104100000D03*
X145800000Y-102750000D03*
X145000000Y-102300000D03*
D43*
X140500000Y-99800000D03*
D45*
X146000000Y-110500000D03*
X146000000Y-99500000D03*
X146000000Y-114500000D03*
X146000000Y-125500000D03*
D43*
X140500000Y-114800000D03*
D44*
X145000000Y-117300000D03*
X145800000Y-117750000D03*
X145000000Y-119100000D03*
X145000000Y-122700000D03*
X145000000Y-120900000D03*
X145800000Y-118650000D03*
X145800000Y-119550000D03*
X145800000Y-120450000D03*
X145800000Y-121350000D03*
X145800000Y-122250000D03*
X148350000Y-117300000D03*
X149150000Y-117750000D03*
X148350000Y-119100000D03*
X149150000Y-118650000D03*
X149150000Y-119550000D03*
X148350000Y-122700000D03*
X148350000Y-120900000D03*
X149150000Y-120450000D03*
X149150000Y-121350000D03*
X149150000Y-122250000D03*
D43*
X140500000Y-125200000D03*
G04 #@! TA.AperFunction,SMDPad,CuDef*
G36*
G01*
X211672500Y-95670000D02*
X211327500Y-95670000D01*
G75*
G02*
X211180000Y-95522500I0J147500D01*
G01*
X211180000Y-95227500D01*
G75*
G02*
X211327500Y-95080000I147500J0D01*
G01*
X211672500Y-95080000D01*
G75*
G02*
X211820000Y-95227500I0J-147500D01*
G01*
X211820000Y-95522500D01*
G75*
G02*
X211672500Y-95670000I-147500J0D01*
G01*
G37*
G04 #@! TD.AperFunction*
G04 #@! TA.AperFunction,SMDPad,CuDef*
G36*
G01*
X211672500Y-94700000D02*
X211327500Y-94700000D01*
G75*
G02*
X211180000Y-94552500I0J147500D01*
G01*
X211180000Y-94257500D01*
G75*
G02*
X211327500Y-94110000I147500J0D01*
G01*
X211672500Y-94110000D01*
G75*
G02*
X211820000Y-94257500I0J-147500D01*
G01*
X211820000Y-94552500D01*
G75*
G02*
X211672500Y-94700000I-147500J0D01*
G01*
G37*
G04 #@! TD.AperFunction*
G04 #@! TA.AperFunction,SMDPad,CuDef*
G36*
G01*
X231053750Y-87295000D02*
X231566250Y-87295000D01*
G75*
G02*
X231785000Y-87513750I0J-218750D01*
G01*
X231785000Y-87951250D01*
G75*
G02*
X231566250Y-88170000I-218750J0D01*
G01*
X231053750Y-88170000D01*
G75*
G02*
X230835000Y-87951250I0J218750D01*
G01*
X230835000Y-87513750D01*
G75*
G02*
X231053750Y-87295000I218750J0D01*
G01*
G37*
G04 #@! TD.AperFunction*
G04 #@! TA.AperFunction,SMDPad,CuDef*
G36*
G01*
X231053750Y-88870000D02*
X231566250Y-88870000D01*
G75*
G02*
X231785000Y-89088750I0J-218750D01*
G01*
X231785000Y-89526250D01*
G75*
G02*
X231566250Y-89745000I-218750J0D01*
G01*
X231053750Y-89745000D01*
G75*
G02*
X230835000Y-89526250I0J218750D01*
G01*
X230835000Y-89088750D01*
G75*
G02*
X231053750Y-88870000I218750J0D01*
G01*
G37*
G04 #@! TD.AperFunction*
G04 #@! TA.AperFunction,SMDPad,CuDef*
G36*
G01*
X232673750Y-89175000D02*
X233186250Y-89175000D01*
G75*
G02*
X233405000Y-89393750I0J-218750D01*
G01*
X233405000Y-89831250D01*
G75*
G02*
X233186250Y-90050000I-218750J0D01*
G01*
X232673750Y-90050000D01*
G75*
G02*
X232455000Y-89831250I0J218750D01*
G01*
X232455000Y-89393750D01*
G75*
G02*
X232673750Y-89175000I218750J0D01*
G01*
G37*
G04 #@! TD.AperFunction*
G04 #@! TA.AperFunction,SMDPad,CuDef*
G36*
G01*
X232673750Y-90750000D02*
X233186250Y-90750000D01*
G75*
G02*
X233405000Y-90968750I0J-218750D01*
G01*
X233405000Y-91406250D01*
G75*
G02*
X233186250Y-91625000I-218750J0D01*
G01*
X232673750Y-91625000D01*
G75*
G02*
X232455000Y-91406250I0J218750D01*
G01*
X232455000Y-90968750D01*
G75*
G02*
X232673750Y-90750000I218750J0D01*
G01*
G37*
G04 #@! TD.AperFunction*
G04 #@! TA.AperFunction,SMDPad,CuDef*
G36*
G01*
X231063750Y-92600000D02*
X231576250Y-92600000D01*
G75*
G02*
X231795000Y-92818750I0J-218750D01*
G01*
X231795000Y-93256250D01*
G75*
G02*
X231576250Y-93475000I-218750J0D01*
G01*
X231063750Y-93475000D01*
G75*
G02*
X230845000Y-93256250I0J218750D01*
G01*
X230845000Y-92818750D01*
G75*
G02*
X231063750Y-92600000I218750J0D01*
G01*
G37*
G04 #@! TD.AperFunction*
G04 #@! TA.AperFunction,SMDPad,CuDef*
G36*
G01*
X231063750Y-91025000D02*
X231576250Y-91025000D01*
G75*
G02*
X231795000Y-91243750I0J-218750D01*
G01*
X231795000Y-91681250D01*
G75*
G02*
X231576250Y-91900000I-218750J0D01*
G01*
X231063750Y-91900000D01*
G75*
G02*
X230845000Y-91681250I0J218750D01*
G01*
X230845000Y-91243750D01*
G75*
G02*
X231063750Y-91025000I218750J0D01*
G01*
G37*
G04 #@! TD.AperFunction*
G04 #@! TA.AperFunction,ComponentPad*
G36*
G01*
X153349999Y-87610000D02*
X150150001Y-87610000D01*
G75*
G02*
X149900000Y-87359999I0J250001D01*
G01*
X149900000Y-85160001D01*
G75*
G02*
X150150001Y-84910000I250001J0D01*
G01*
X153349999Y-84910000D01*
G75*
G02*
X153600000Y-85160001I0J-250001D01*
G01*
X153600000Y-87359999D01*
G75*
G02*
X153349999Y-87610000I-250001J0D01*
G01*
G37*
G04 #@! TD.AperFunction*
D46*
X151750000Y-82060000D03*
X151750000Y-77860000D03*
X157250000Y-86260000D03*
X157250000Y-82060000D03*
X157250000Y-77860000D03*
G04 #@! TA.AperFunction,SMDPad,CuDef*
G36*
G01*
X223467300Y-90362000D02*
X223467300Y-90017000D01*
G75*
G02*
X223614800Y-89869500I147500J0D01*
G01*
X223909800Y-89869500D01*
G75*
G02*
X224057300Y-90017000I0J-147500D01*
G01*
X224057300Y-90362000D01*
G75*
G02*
X223909800Y-90509500I-147500J0D01*
G01*
X223614800Y-90509500D01*
G75*
G02*
X223467300Y-90362000I0J147500D01*
G01*
G37*
G04 #@! TD.AperFunction*
G04 #@! TA.AperFunction,SMDPad,CuDef*
G36*
G01*
X222497300Y-90362000D02*
X222497300Y-90017000D01*
G75*
G02*
X222644800Y-89869500I147500J0D01*
G01*
X222939800Y-89869500D01*
G75*
G02*
X223087300Y-90017000I0J-147500D01*
G01*
X223087300Y-90362000D01*
G75*
G02*
X222939800Y-90509500I-147500J0D01*
G01*
X222644800Y-90509500D01*
G75*
G02*
X222497300Y-90362000I0J147500D01*
G01*
G37*
G04 #@! TD.AperFunction*
G04 #@! TA.AperFunction,SMDPad,CuDef*
G36*
G01*
X223467300Y-92362000D02*
X223467300Y-92017000D01*
G75*
G02*
X223614800Y-91869500I147500J0D01*
G01*
X223909800Y-91869500D01*
G75*
G02*
X224057300Y-92017000I0J-147500D01*
G01*
X224057300Y-92362000D01*
G75*
G02*
X223909800Y-92509500I-147500J0D01*
G01*
X223614800Y-92509500D01*
G75*
G02*
X223467300Y-92362000I0J147500D01*
G01*
G37*
G04 #@! TD.AperFunction*
G04 #@! TA.AperFunction,SMDPad,CuDef*
G36*
G01*
X222497300Y-92362000D02*
X222497300Y-92017000D01*
G75*
G02*
X222644800Y-91869500I147500J0D01*
G01*
X222939800Y-91869500D01*
G75*
G02*
X223087300Y-92017000I0J-147500D01*
G01*
X223087300Y-92362000D01*
G75*
G02*
X222939800Y-92509500I-147500J0D01*
G01*
X222644800Y-92509500D01*
G75*
G02*
X222497300Y-92362000I0J147500D01*
G01*
G37*
G04 #@! TD.AperFunction*
G04 #@! TA.AperFunction,SMDPad,CuDef*
G36*
G01*
X223467300Y-88362000D02*
X223467300Y-88017000D01*
G75*
G02*
X223614800Y-87869500I147500J0D01*
G01*
X223909800Y-87869500D01*
G75*
G02*
X224057300Y-88017000I0J-147500D01*
G01*
X224057300Y-88362000D01*
G75*
G02*
X223909800Y-88509500I-147500J0D01*
G01*
X223614800Y-88509500D01*
G75*
G02*
X223467300Y-88362000I0J147500D01*
G01*
G37*
G04 #@! TD.AperFunction*
G04 #@! TA.AperFunction,SMDPad,CuDef*
G36*
G01*
X222497300Y-88362000D02*
X222497300Y-88017000D01*
G75*
G02*
X222644800Y-87869500I147500J0D01*
G01*
X222939800Y-87869500D01*
G75*
G02*
X223087300Y-88017000I0J-147500D01*
G01*
X223087300Y-88362000D01*
G75*
G02*
X222939800Y-88509500I-147500J0D01*
G01*
X222644800Y-88509500D01*
G75*
G02*
X222497300Y-88362000I0J147500D01*
G01*
G37*
G04 #@! TD.AperFunction*
G04 #@! TA.AperFunction,SMDPad,CuDef*
G36*
G01*
X222497300Y-89362000D02*
X222497300Y-89017000D01*
G75*
G02*
X222644800Y-88869500I147500J0D01*
G01*
X222939800Y-88869500D01*
G75*
G02*
X223087300Y-89017000I0J-147500D01*
G01*
X223087300Y-89362000D01*
G75*
G02*
X222939800Y-89509500I-147500J0D01*
G01*
X222644800Y-89509500D01*
G75*
G02*
X222497300Y-89362000I0J147500D01*
G01*
G37*
G04 #@! TD.AperFunction*
G04 #@! TA.AperFunction,SMDPad,CuDef*
G36*
G01*
X223467300Y-89362000D02*
X223467300Y-89017000D01*
G75*
G02*
X223614800Y-88869500I147500J0D01*
G01*
X223909800Y-88869500D01*
G75*
G02*
X224057300Y-89017000I0J-147500D01*
G01*
X224057300Y-89362000D01*
G75*
G02*
X223909800Y-89509500I-147500J0D01*
G01*
X223614800Y-89509500D01*
G75*
G02*
X223467300Y-89362000I0J147500D01*
G01*
G37*
G04 #@! TD.AperFunction*
G04 #@! TA.AperFunction,SMDPad,CuDef*
G36*
G01*
X222497300Y-91362000D02*
X222497300Y-91017000D01*
G75*
G02*
X222644800Y-90869500I147500J0D01*
G01*
X222939800Y-90869500D01*
G75*
G02*
X223087300Y-91017000I0J-147500D01*
G01*
X223087300Y-91362000D01*
G75*
G02*
X222939800Y-91509500I-147500J0D01*
G01*
X222644800Y-91509500D01*
G75*
G02*
X222497300Y-91362000I0J147500D01*
G01*
G37*
G04 #@! TD.AperFunction*
G04 #@! TA.AperFunction,SMDPad,CuDef*
G36*
G01*
X223467300Y-91362000D02*
X223467300Y-91017000D01*
G75*
G02*
X223614800Y-90869500I147500J0D01*
G01*
X223909800Y-90869500D01*
G75*
G02*
X224057300Y-91017000I0J-147500D01*
G01*
X224057300Y-91362000D01*
G75*
G02*
X223909800Y-91509500I-147500J0D01*
G01*
X223614800Y-91509500D01*
G75*
G02*
X223467300Y-91362000I0J147500D01*
G01*
G37*
G04 #@! TD.AperFunction*
G04 #@! TA.AperFunction,SMDPad,CuDef*
G36*
G01*
X222497300Y-87362000D02*
X222497300Y-87017000D01*
G75*
G02*
X222644800Y-86869500I147500J0D01*
G01*
X222939800Y-86869500D01*
G75*
G02*
X223087300Y-87017000I0J-147500D01*
G01*
X223087300Y-87362000D01*
G75*
G02*
X222939800Y-87509500I-147500J0D01*
G01*
X222644800Y-87509500D01*
G75*
G02*
X222497300Y-87362000I0J147500D01*
G01*
G37*
G04 #@! TD.AperFunction*
G04 #@! TA.AperFunction,SMDPad,CuDef*
G36*
G01*
X223467300Y-87362000D02*
X223467300Y-87017000D01*
G75*
G02*
X223614800Y-86869500I147500J0D01*
G01*
X223909800Y-86869500D01*
G75*
G02*
X224057300Y-87017000I0J-147500D01*
G01*
X224057300Y-87362000D01*
G75*
G02*
X223909800Y-87509500I-147500J0D01*
G01*
X223614800Y-87509500D01*
G75*
G02*
X223467300Y-87362000I0J147500D01*
G01*
G37*
G04 #@! TD.AperFunction*
G04 #@! TA.AperFunction,SMDPad,CuDef*
G36*
G01*
X220157300Y-95812000D02*
X220157300Y-95467000D01*
G75*
G02*
X220304800Y-95319500I147500J0D01*
G01*
X220599800Y-95319500D01*
G75*
G02*
X220747300Y-95467000I0J-147500D01*
G01*
X220747300Y-95812000D01*
G75*
G02*
X220599800Y-95959500I-147500J0D01*
G01*
X220304800Y-95959500D01*
G75*
G02*
X220157300Y-95812000I0J147500D01*
G01*
G37*
G04 #@! TD.AperFunction*
G04 #@! TA.AperFunction,SMDPad,CuDef*
G36*
G01*
X219187300Y-95812000D02*
X219187300Y-95467000D01*
G75*
G02*
X219334800Y-95319500I147500J0D01*
G01*
X219629800Y-95319500D01*
G75*
G02*
X219777300Y-95467000I0J-147500D01*
G01*
X219777300Y-95812000D01*
G75*
G02*
X219629800Y-95959500I-147500J0D01*
G01*
X219334800Y-95959500D01*
G75*
G02*
X219187300Y-95812000I0J147500D01*
G01*
G37*
G04 #@! TD.AperFunction*
G04 #@! TA.AperFunction,SMDPad,CuDef*
G36*
G01*
X219187300Y-86922000D02*
X219187300Y-86577000D01*
G75*
G02*
X219334800Y-86429500I147500J0D01*
G01*
X219629800Y-86429500D01*
G75*
G02*
X219777300Y-86577000I0J-147500D01*
G01*
X219777300Y-86922000D01*
G75*
G02*
X219629800Y-87069500I-147500J0D01*
G01*
X219334800Y-87069500D01*
G75*
G02*
X219187300Y-86922000I0J147500D01*
G01*
G37*
G04 #@! TD.AperFunction*
G04 #@! TA.AperFunction,SMDPad,CuDef*
G36*
G01*
X220157300Y-86922000D02*
X220157300Y-86577000D01*
G75*
G02*
X220304800Y-86429500I147500J0D01*
G01*
X220599800Y-86429500D01*
G75*
G02*
X220747300Y-86577000I0J-147500D01*
G01*
X220747300Y-86922000D01*
G75*
G02*
X220599800Y-87069500I-147500J0D01*
G01*
X220304800Y-87069500D01*
G75*
G02*
X220157300Y-86922000I0J147500D01*
G01*
G37*
G04 #@! TD.AperFunction*
G04 #@! TA.AperFunction,SMDPad,CuDef*
G36*
G01*
X219777300Y-94467000D02*
X219777300Y-94812000D01*
G75*
G02*
X219629800Y-94959500I-147500J0D01*
G01*
X219334800Y-94959500D01*
G75*
G02*
X219187300Y-94812000I0J147500D01*
G01*
X219187300Y-94467000D01*
G75*
G02*
X219334800Y-94319500I147500J0D01*
G01*
X219629800Y-94319500D01*
G75*
G02*
X219777300Y-94467000I0J-147500D01*
G01*
G37*
G04 #@! TD.AperFunction*
G04 #@! TA.AperFunction,SMDPad,CuDef*
G36*
G01*
X220747300Y-94467000D02*
X220747300Y-94812000D01*
G75*
G02*
X220599800Y-94959500I-147500J0D01*
G01*
X220304800Y-94959500D01*
G75*
G02*
X220157300Y-94812000I0J147500D01*
G01*
X220157300Y-94467000D01*
G75*
G02*
X220304800Y-94319500I147500J0D01*
G01*
X220599800Y-94319500D01*
G75*
G02*
X220747300Y-94467000I0J-147500D01*
G01*
G37*
G04 #@! TD.AperFunction*
G04 #@! TA.AperFunction,SMDPad,CuDef*
G36*
G01*
X220747300Y-87577000D02*
X220747300Y-87922000D01*
G75*
G02*
X220599800Y-88069500I-147500J0D01*
G01*
X220304800Y-88069500D01*
G75*
G02*
X220157300Y-87922000I0J147500D01*
G01*
X220157300Y-87577000D01*
G75*
G02*
X220304800Y-87429500I147500J0D01*
G01*
X220599800Y-87429500D01*
G75*
G02*
X220747300Y-87577000I0J-147500D01*
G01*
G37*
G04 #@! TD.AperFunction*
G04 #@! TA.AperFunction,SMDPad,CuDef*
G36*
G01*
X219777300Y-87577000D02*
X219777300Y-87922000D01*
G75*
G02*
X219629800Y-88069500I-147500J0D01*
G01*
X219334800Y-88069500D01*
G75*
G02*
X219187300Y-87922000I0J147500D01*
G01*
X219187300Y-87577000D01*
G75*
G02*
X219334800Y-87429500I147500J0D01*
G01*
X219629800Y-87429500D01*
G75*
G02*
X219777300Y-87577000I0J-147500D01*
G01*
G37*
G04 #@! TD.AperFunction*
G04 #@! TA.AperFunction,SMDPad,CuDef*
G36*
G01*
X203327500Y-84795000D02*
X203672500Y-84795000D01*
G75*
G02*
X203820000Y-84942500I0J-147500D01*
G01*
X203820000Y-85237500D01*
G75*
G02*
X203672500Y-85385000I-147500J0D01*
G01*
X203327500Y-85385000D01*
G75*
G02*
X203180000Y-85237500I0J147500D01*
G01*
X203180000Y-84942500D01*
G75*
G02*
X203327500Y-84795000I147500J0D01*
G01*
G37*
G04 #@! TD.AperFunction*
G04 #@! TA.AperFunction,SMDPad,CuDef*
G36*
G01*
X203327500Y-85765000D02*
X203672500Y-85765000D01*
G75*
G02*
X203820000Y-85912500I0J-147500D01*
G01*
X203820000Y-86207500D01*
G75*
G02*
X203672500Y-86355000I-147500J0D01*
G01*
X203327500Y-86355000D01*
G75*
G02*
X203180000Y-86207500I0J147500D01*
G01*
X203180000Y-85912500D01*
G75*
G02*
X203327500Y-85765000I147500J0D01*
G01*
G37*
G04 #@! TD.AperFunction*
G04 #@! TA.AperFunction,SMDPad,CuDef*
G36*
G01*
X202327500Y-85765000D02*
X202672500Y-85765000D01*
G75*
G02*
X202820000Y-85912500I0J-147500D01*
G01*
X202820000Y-86207500D01*
G75*
G02*
X202672500Y-86355000I-147500J0D01*
G01*
X202327500Y-86355000D01*
G75*
G02*
X202180000Y-86207500I0J147500D01*
G01*
X202180000Y-85912500D01*
G75*
G02*
X202327500Y-85765000I147500J0D01*
G01*
G37*
G04 #@! TD.AperFunction*
G04 #@! TA.AperFunction,SMDPad,CuDef*
G36*
G01*
X202327500Y-84795000D02*
X202672500Y-84795000D01*
G75*
G02*
X202820000Y-84942500I0J-147500D01*
G01*
X202820000Y-85237500D01*
G75*
G02*
X202672500Y-85385000I-147500J0D01*
G01*
X202327500Y-85385000D01*
G75*
G02*
X202180000Y-85237500I0J147500D01*
G01*
X202180000Y-84942500D01*
G75*
G02*
X202327500Y-84795000I147500J0D01*
G01*
G37*
G04 #@! TD.AperFunction*
G04 #@! TA.AperFunction,SMDPad,CuDef*
G36*
G01*
X201327500Y-84795000D02*
X201672500Y-84795000D01*
G75*
G02*
X201820000Y-84942500I0J-147500D01*
G01*
X201820000Y-85237500D01*
G75*
G02*
X201672500Y-85385000I-147500J0D01*
G01*
X201327500Y-85385000D01*
G75*
G02*
X201180000Y-85237500I0J147500D01*
G01*
X201180000Y-84942500D01*
G75*
G02*
X201327500Y-84795000I147500J0D01*
G01*
G37*
G04 #@! TD.AperFunction*
G04 #@! TA.AperFunction,SMDPad,CuDef*
G36*
G01*
X201327500Y-85765000D02*
X201672500Y-85765000D01*
G75*
G02*
X201820000Y-85912500I0J-147500D01*
G01*
X201820000Y-86207500D01*
G75*
G02*
X201672500Y-86355000I-147500J0D01*
G01*
X201327500Y-86355000D01*
G75*
G02*
X201180000Y-86207500I0J147500D01*
G01*
X201180000Y-85912500D01*
G75*
G02*
X201327500Y-85765000I147500J0D01*
G01*
G37*
G04 #@! TD.AperFunction*
G04 #@! TA.AperFunction,SMDPad,CuDef*
G36*
G01*
X223104800Y-92879500D02*
X223449800Y-92879500D01*
G75*
G02*
X223597300Y-93027000I0J-147500D01*
G01*
X223597300Y-93322000D01*
G75*
G02*
X223449800Y-93469500I-147500J0D01*
G01*
X223104800Y-93469500D01*
G75*
G02*
X222957300Y-93322000I0J147500D01*
G01*
X222957300Y-93027000D01*
G75*
G02*
X223104800Y-92879500I147500J0D01*
G01*
G37*
G04 #@! TD.AperFunction*
G04 #@! TA.AperFunction,SMDPad,CuDef*
G36*
G01*
X223104800Y-93849500D02*
X223449800Y-93849500D01*
G75*
G02*
X223597300Y-93997000I0J-147500D01*
G01*
X223597300Y-94292000D01*
G75*
G02*
X223449800Y-94439500I-147500J0D01*
G01*
X223104800Y-94439500D01*
G75*
G02*
X222957300Y-94292000I0J147500D01*
G01*
X222957300Y-93997000D01*
G75*
G02*
X223104800Y-93849500I147500J0D01*
G01*
G37*
G04 #@! TD.AperFunction*
G04 #@! TA.AperFunction,SMDPad,CuDef*
G36*
G01*
X210720000Y-83722500D02*
X210720000Y-83377500D01*
G75*
G02*
X210867500Y-83230000I147500J0D01*
G01*
X211162500Y-83230000D01*
G75*
G02*
X211310000Y-83377500I0J-147500D01*
G01*
X211310000Y-83722500D01*
G75*
G02*
X211162500Y-83870000I-147500J0D01*
G01*
X210867500Y-83870000D01*
G75*
G02*
X210720000Y-83722500I0J147500D01*
G01*
G37*
G04 #@! TD.AperFunction*
G04 #@! TA.AperFunction,SMDPad,CuDef*
G36*
G01*
X209750000Y-83722500D02*
X209750000Y-83377500D01*
G75*
G02*
X209897500Y-83230000I147500J0D01*
G01*
X210192500Y-83230000D01*
G75*
G02*
X210340000Y-83377500I0J-147500D01*
G01*
X210340000Y-83722500D01*
G75*
G02*
X210192500Y-83870000I-147500J0D01*
G01*
X209897500Y-83870000D01*
G75*
G02*
X209750000Y-83722500I0J147500D01*
G01*
G37*
G04 #@! TD.AperFunction*
G04 #@! TA.AperFunction,SMDPad,CuDef*
G36*
G01*
X208116326Y-80557625D02*
X207872375Y-80313673D01*
G75*
G02*
X207872375Y-80105077I104298J104298D01*
G01*
X208080971Y-79896481D01*
G75*
G02*
X208289567Y-79896481I104298J-104298D01*
G01*
X208533519Y-80140433D01*
G75*
G02*
X208533519Y-80349029I-104298J-104298D01*
G01*
X208324923Y-80557625D01*
G75*
G02*
X208116327Y-80557625I-104298J104298D01*
G01*
G37*
G04 #@! TD.AperFunction*
G04 #@! TA.AperFunction,SMDPad,CuDef*
G36*
G01*
X207430432Y-81243519D02*
X207186481Y-80999567D01*
G75*
G02*
X207186481Y-80790971I104298J104298D01*
G01*
X207395077Y-80582375D01*
G75*
G02*
X207603673Y-80582375I104298J-104298D01*
G01*
X207847625Y-80826327D01*
G75*
G02*
X207847625Y-81034923I-104298J-104298D01*
G01*
X207639029Y-81243519D01*
G75*
G02*
X207430433Y-81243519I-104298J104298D01*
G01*
G37*
G04 #@! TD.AperFunction*
G04 #@! TA.AperFunction,SMDPad,CuDef*
G36*
G01*
X201982500Y-80490000D02*
X201637500Y-80490000D01*
G75*
G02*
X201490000Y-80342500I0J147500D01*
G01*
X201490000Y-80047500D01*
G75*
G02*
X201637500Y-79900000I147500J0D01*
G01*
X201982500Y-79900000D01*
G75*
G02*
X202130000Y-80047500I0J-147500D01*
G01*
X202130000Y-80342500D01*
G75*
G02*
X201982500Y-80490000I-147500J0D01*
G01*
G37*
G04 #@! TD.AperFunction*
G04 #@! TA.AperFunction,SMDPad,CuDef*
G36*
G01*
X201982500Y-81460000D02*
X201637500Y-81460000D01*
G75*
G02*
X201490000Y-81312500I0J147500D01*
G01*
X201490000Y-81017500D01*
G75*
G02*
X201637500Y-80870000I147500J0D01*
G01*
X201982500Y-80870000D01*
G75*
G02*
X202130000Y-81017500I0J-147500D01*
G01*
X202130000Y-81312500D01*
G75*
G02*
X201982500Y-81460000I-147500J0D01*
G01*
G37*
G04 #@! TD.AperFunction*
G04 #@! TA.AperFunction,SMDPad,CuDef*
G36*
G01*
X198966621Y-84639428D02*
X199210572Y-84883380D01*
G75*
G02*
X199210572Y-85091976I-104298J-104298D01*
G01*
X199001976Y-85300572D01*
G75*
G02*
X198793380Y-85300572I-104298J104298D01*
G01*
X198549428Y-85056620D01*
G75*
G02*
X198549428Y-84848024I104298J104298D01*
G01*
X198758024Y-84639428D01*
G75*
G02*
X198966620Y-84639428I104298J-104298D01*
G01*
G37*
G04 #@! TD.AperFunction*
G04 #@! TA.AperFunction,SMDPad,CuDef*
G36*
G01*
X198280727Y-85325322D02*
X198524678Y-85569274D01*
G75*
G02*
X198524678Y-85777870I-104298J-104298D01*
G01*
X198316082Y-85986466D01*
G75*
G02*
X198107486Y-85986466I-104298J104298D01*
G01*
X197863534Y-85742514D01*
G75*
G02*
X197863534Y-85533918I104298J104298D01*
G01*
X198072130Y-85325322D01*
G75*
G02*
X198280726Y-85325322I104298J-104298D01*
G01*
G37*
G04 #@! TD.AperFunction*
G04 #@! TA.AperFunction,SMDPad,CuDef*
G36*
G01*
X205142500Y-112140000D02*
X204797500Y-112140000D01*
G75*
G02*
X204650000Y-111992500I0J147500D01*
G01*
X204650000Y-111697500D01*
G75*
G02*
X204797500Y-111550000I147500J0D01*
G01*
X205142500Y-111550000D01*
G75*
G02*
X205290000Y-111697500I0J-147500D01*
G01*
X205290000Y-111992500D01*
G75*
G02*
X205142500Y-112140000I-147500J0D01*
G01*
G37*
G04 #@! TD.AperFunction*
G04 #@! TA.AperFunction,SMDPad,CuDef*
G36*
G01*
X205142500Y-111170000D02*
X204797500Y-111170000D01*
G75*
G02*
X204650000Y-111022500I0J147500D01*
G01*
X204650000Y-110727500D01*
G75*
G02*
X204797500Y-110580000I147500J0D01*
G01*
X205142500Y-110580000D01*
G75*
G02*
X205290000Y-110727500I0J-147500D01*
G01*
X205290000Y-111022500D01*
G75*
G02*
X205142500Y-111170000I-147500J0D01*
G01*
G37*
G04 #@! TD.AperFunction*
G04 #@! TA.AperFunction,SMDPad,CuDef*
G36*
G01*
X201237500Y-129006250D02*
X201237500Y-128493750D01*
G75*
G02*
X201456250Y-128275000I218750J0D01*
G01*
X201893750Y-128275000D01*
G75*
G02*
X202112500Y-128493750I0J-218750D01*
G01*
X202112500Y-129006250D01*
G75*
G02*
X201893750Y-129225000I-218750J0D01*
G01*
X201456250Y-129225000D01*
G75*
G02*
X201237500Y-129006250I0J218750D01*
G01*
G37*
G04 #@! TD.AperFunction*
G04 #@! TA.AperFunction,SMDPad,CuDef*
G36*
G01*
X202812500Y-129006250D02*
X202812500Y-128493750D01*
G75*
G02*
X203031250Y-128275000I218750J0D01*
G01*
X203468750Y-128275000D01*
G75*
G02*
X203687500Y-128493750I0J-218750D01*
G01*
X203687500Y-129006250D01*
G75*
G02*
X203468750Y-129225000I-218750J0D01*
G01*
X203031250Y-129225000D01*
G75*
G02*
X202812500Y-129006250I0J218750D01*
G01*
G37*
G04 #@! TD.AperFunction*
G04 #@! TA.AperFunction,SMDPad,CuDef*
G36*
G01*
X175515000Y-94086250D02*
X175515000Y-93173750D01*
G75*
G02*
X175758750Y-92930000I243750J0D01*
G01*
X176246250Y-92930000D01*
G75*
G02*
X176490000Y-93173750I0J-243750D01*
G01*
X176490000Y-94086250D01*
G75*
G02*
X176246250Y-94330000I-243750J0D01*
G01*
X175758750Y-94330000D01*
G75*
G02*
X175515000Y-94086250I0J243750D01*
G01*
G37*
G04 #@! TD.AperFunction*
G04 #@! TA.AperFunction,SMDPad,CuDef*
G36*
G01*
X177390000Y-94086250D02*
X177390000Y-93173750D01*
G75*
G02*
X177633750Y-92930000I243750J0D01*
G01*
X178121250Y-92930000D01*
G75*
G02*
X178365000Y-93173750I0J-243750D01*
G01*
X178365000Y-94086250D01*
G75*
G02*
X178121250Y-94330000I-243750J0D01*
G01*
X177633750Y-94330000D01*
G75*
G02*
X177390000Y-94086250I0J243750D01*
G01*
G37*
G04 #@! TD.AperFunction*
G04 #@! TA.AperFunction,SMDPad,CuDef*
G36*
G01*
X171735000Y-94086250D02*
X171735000Y-93173750D01*
G75*
G02*
X171978750Y-92930000I243750J0D01*
G01*
X172466250Y-92930000D01*
G75*
G02*
X172710000Y-93173750I0J-243750D01*
G01*
X172710000Y-94086250D01*
G75*
G02*
X172466250Y-94330000I-243750J0D01*
G01*
X171978750Y-94330000D01*
G75*
G02*
X171735000Y-94086250I0J243750D01*
G01*
G37*
G04 #@! TD.AperFunction*
G04 #@! TA.AperFunction,SMDPad,CuDef*
G36*
G01*
X173610000Y-94086250D02*
X173610000Y-93173750D01*
G75*
G02*
X173853750Y-92930000I243750J0D01*
G01*
X174341250Y-92930000D01*
G75*
G02*
X174585000Y-93173750I0J-243750D01*
G01*
X174585000Y-94086250D01*
G75*
G02*
X174341250Y-94330000I-243750J0D01*
G01*
X173853750Y-94330000D01*
G75*
G02*
X173610000Y-94086250I0J243750D01*
G01*
G37*
G04 #@! TD.AperFunction*
D47*
X224750817Y-90415983D03*
X229980000Y-90890000D03*
X229500000Y-92730000D03*
X224834853Y-92407819D03*
X224750817Y-88395983D03*
X229470000Y-89010000D03*
X225443783Y-89723017D03*
X229980000Y-89910000D03*
X229500000Y-91750000D03*
X225527819Y-91714853D03*
X225443783Y-87703017D03*
X229470000Y-88030000D03*
X200255000Y-93330001D03*
X203045000Y-93360000D03*
X203035000Y-95760000D03*
X200255000Y-95760000D03*
X200260000Y-90930000D03*
X203035000Y-90930000D03*
X205815000Y-93330001D03*
X205810000Y-95755000D03*
X205810000Y-90905000D03*
X213700000Y-111000000D03*
X214500000Y-111000000D03*
X215300000Y-111000000D03*
X216100000Y-111000000D03*
X216900000Y-111000000D03*
X217700000Y-111000000D03*
X218500000Y-111000000D03*
X219300000Y-111000000D03*
X214100000Y-111700000D03*
X215700000Y-111700000D03*
X218900000Y-111700000D03*
X214900000Y-111700000D03*
X217300000Y-111700000D03*
X216500000Y-111700000D03*
X218100000Y-111700000D03*
X221387300Y-87759500D03*
X221387300Y-86759500D03*
X221397300Y-94639500D03*
X221397300Y-95639500D03*
X203660000Y-84065000D03*
X202820000Y-84075000D03*
X201875000Y-84100000D03*
X210959700Y-96545400D03*
X213705000Y-90640000D03*
X213710000Y-93130000D03*
X216630000Y-93130000D03*
X216630000Y-90640000D03*
X222180000Y-111000000D03*
X222580000Y-111700000D03*
X224180000Y-111700000D03*
X221780000Y-111700000D03*
X220980000Y-111700000D03*
X223380000Y-111700000D03*
X221380000Y-111000000D03*
X223780000Y-111000000D03*
X222980000Y-111000000D03*
X224580000Y-111000000D03*
X220580000Y-111000000D03*
X218557300Y-94709500D03*
X218557300Y-95589500D03*
X218517300Y-87739500D03*
X218517300Y-86869500D03*
X198125000Y-89325000D03*
X207338478Y-89224238D03*
X169710000Y-119170000D03*
X170710000Y-119160000D03*
X170220000Y-119810000D03*
X169690000Y-102180000D03*
X170200000Y-102820000D03*
X170690000Y-102170000D03*
X179210000Y-93620000D03*
X153996483Y-121913517D03*
X159276483Y-123113517D03*
X153303517Y-122606483D03*
X158583517Y-123806483D03*
X169690000Y-103790000D03*
X170690000Y-103780000D03*
X170200000Y-104430000D03*
X169700000Y-120800000D03*
X170700000Y-120790000D03*
X170210000Y-121440000D03*
X208870000Y-94320000D03*
X204350000Y-86925000D03*
X204475000Y-85025000D03*
X215980000Y-87710000D03*
X198066483Y-86803517D03*
X210763517Y-87113517D03*
X197373517Y-87496483D03*
X211456483Y-87806483D03*
X211012300Y-84800000D03*
X206401453Y-83555581D03*
X208996483Y-81028517D03*
X204435000Y-83255000D03*
X208303517Y-81721483D03*
X205415000Y-83255000D03*
X203300000Y-80185000D03*
X200060000Y-83255000D03*
X203300000Y-81165000D03*
X201040000Y-83255000D03*
X199058517Y-86531483D03*
X198103517Y-82453517D03*
X199751483Y-85838517D03*
X198796483Y-83146483D03*
X210032300Y-84800000D03*
X207094419Y-84248547D03*
X204450000Y-86000000D03*
X209300000Y-107925000D03*
X199780000Y-84220000D03*
X196700000Y-84090000D03*
X208300000Y-107450000D03*
X201975000Y-86875000D03*
X200240000Y-128750000D03*
X168350000Y-98030000D03*
D48*
X232255000Y-90552500D02*
X232900000Y-91197500D01*
X230297500Y-90552500D02*
X232255000Y-90552500D01*
X229960000Y-90890000D02*
X230297500Y-90552500D01*
X224750817Y-89938685D02*
X224750817Y-90415983D01*
X224654132Y-89842000D02*
X224750817Y-89938685D01*
X224109800Y-89842000D02*
X224654132Y-89842000D01*
X223762300Y-90189500D02*
X224109800Y-89842000D01*
X229642500Y-90552500D02*
X229980000Y-90890000D01*
X227687500Y-82683168D02*
X227687500Y-89573168D01*
X228666832Y-90552500D02*
X229642500Y-90552500D01*
X220506832Y-75502500D02*
X227687500Y-82683168D01*
X227687500Y-89573168D02*
X228666832Y-90552500D01*
X220506832Y-75502500D02*
X180813168Y-75502500D01*
X149447500Y-105152500D02*
X149150000Y-105450000D01*
X151163168Y-105152500D02*
X149447500Y-105152500D01*
X180813168Y-75502500D02*
X151163168Y-105152500D01*
X223762300Y-92189500D02*
X224109800Y-91842000D01*
X230675000Y-92392500D02*
X231320000Y-93037500D01*
X229500000Y-92730000D02*
X229837500Y-92392500D01*
X230675000Y-92392500D02*
X229837500Y-92392500D01*
X224746332Y-91842000D02*
X224834853Y-91930521D01*
X224834853Y-91930521D02*
X224834853Y-92407819D01*
X224109800Y-91842000D02*
X224746332Y-91842000D01*
X149447500Y-106952500D02*
X149150000Y-107250000D01*
X151263168Y-106952500D02*
X149447500Y-106952500D01*
X227007500Y-91173168D02*
X227007500Y-83283168D01*
X228226832Y-92392500D02*
X227007500Y-91173168D01*
X229162500Y-92392500D02*
X228226832Y-92392500D01*
X181333168Y-76882500D02*
X151263168Y-106952500D01*
X229500000Y-92730000D02*
X229162500Y-92392500D01*
X227007500Y-83283168D02*
X220606832Y-76882500D01*
X220606832Y-76882500D02*
X181333168Y-76882500D01*
X230655000Y-88682500D02*
X231300000Y-89327500D01*
X229480000Y-89020000D02*
X229817500Y-88682500D01*
X224750817Y-87918685D02*
X224750817Y-88395983D01*
X224674132Y-87842000D02*
X224750817Y-87918685D01*
X224109800Y-87842000D02*
X224674132Y-87842000D01*
X223762300Y-88189500D02*
X224109800Y-87842000D01*
X229817500Y-88682500D02*
X230655000Y-88682500D01*
X146097500Y-103352500D02*
X145800000Y-103650000D01*
X146563168Y-103352500D02*
X146097500Y-103352500D01*
X147202500Y-102713168D02*
X146563168Y-103352500D01*
X147202500Y-102038168D02*
X147202500Y-102713168D01*
X147763168Y-101477500D02*
X147202500Y-102038168D01*
X153063168Y-101477500D02*
X147763168Y-101477500D01*
X180078168Y-74462500D02*
X153063168Y-101477500D01*
X221166832Y-74462500D02*
X180078168Y-74462500D01*
X228377500Y-81673168D02*
X221166832Y-74462500D01*
X229470000Y-89010000D02*
X228377500Y-87917500D01*
X228377500Y-87917500D02*
X228377500Y-81673168D01*
X232275000Y-90247500D02*
X232900000Y-89622500D01*
X230297500Y-90247500D02*
X232275000Y-90247500D01*
X229960000Y-89910000D02*
X230297500Y-90247500D01*
X223762300Y-89189500D02*
X224109800Y-89537000D01*
X224109800Y-89537000D02*
X224780468Y-89537000D01*
X224780468Y-89537000D02*
X224966485Y-89723017D01*
X224966485Y-89723017D02*
X225443783Y-89723017D01*
X229642500Y-90247500D02*
X229980000Y-89910000D01*
X228793168Y-90247500D02*
X229642500Y-90247500D01*
X227992500Y-89446832D02*
X228793168Y-90247500D01*
X227992500Y-82556832D02*
X227992500Y-89446832D01*
X220633168Y-75197500D02*
X227992500Y-82556832D01*
X220633168Y-75197500D02*
X180686832Y-75197500D01*
X149447500Y-104847500D02*
X149150000Y-104550000D01*
X180686832Y-75197500D02*
X151036832Y-104847500D01*
X151036832Y-104847500D02*
X149447500Y-104847500D01*
X223762300Y-91189500D02*
X224109800Y-91537000D01*
X230695000Y-92087500D02*
X231320000Y-91462500D01*
X229500000Y-91750000D02*
X229837500Y-92087500D01*
X229837500Y-92087500D02*
X230695000Y-92087500D01*
X224109800Y-91537000D02*
X224872668Y-91537000D01*
X224872668Y-91537000D02*
X225050521Y-91714853D01*
X225050521Y-91714853D02*
X225527819Y-91714853D01*
X227312500Y-91046832D02*
X227312500Y-83156832D01*
X151136832Y-106647500D02*
X149447500Y-106647500D01*
X228353168Y-92087500D02*
X227312500Y-91046832D01*
X229162500Y-92087500D02*
X228353168Y-92087500D01*
X229500000Y-91750000D02*
X229162500Y-92087500D01*
X227312500Y-83156832D02*
X220733168Y-76577500D01*
X220733168Y-76577500D02*
X181206832Y-76577500D01*
X181206832Y-76577500D02*
X151136832Y-106647500D01*
X149447500Y-106647500D02*
X149150000Y-106350000D01*
X230675000Y-88377500D02*
X231300000Y-87752500D01*
X229480000Y-88040000D02*
X229817500Y-88377500D01*
X223762300Y-87189500D02*
X224109800Y-87537000D01*
X224109800Y-87537000D02*
X224800468Y-87537000D01*
X224800468Y-87537000D02*
X224966485Y-87703017D01*
X224966485Y-87703017D02*
X225443783Y-87703017D01*
X229817500Y-88377500D02*
X230675000Y-88377500D01*
X228682500Y-81546832D02*
X221293168Y-74157500D01*
X146897500Y-101911832D02*
X146897500Y-102586832D01*
X228682500Y-87791164D02*
X228682500Y-81546832D01*
X152936832Y-101172500D02*
X147636832Y-101172500D01*
X229470000Y-88030000D02*
X228921336Y-88030000D01*
X228921336Y-88030000D02*
X228682500Y-87791164D01*
X147636832Y-101172500D02*
X146897500Y-101911832D01*
X221293168Y-74157500D02*
X179951832Y-74157500D01*
X179951832Y-74157500D02*
X152936832Y-101172500D01*
X146897500Y-102586832D02*
X146436832Y-103047500D01*
X146436832Y-103047500D02*
X146097500Y-103047500D01*
X146097500Y-103047500D02*
X145800000Y-102750000D01*
D49*
X220442300Y-87759500D02*
X221387300Y-87759500D01*
X220442300Y-86759500D02*
X221387300Y-86759500D01*
X220452300Y-94639500D02*
X221397300Y-94639500D01*
X220452300Y-95639500D02*
X221397300Y-95639500D01*
X203500000Y-84225000D02*
X203660000Y-84065000D01*
X203500000Y-85090000D02*
X203500000Y-84225000D01*
X202500000Y-84395000D02*
X202820000Y-84075000D01*
X202500000Y-85090000D02*
X202500000Y-84395000D01*
X201500000Y-85090000D02*
X202500000Y-85090000D01*
X203500000Y-85090000D02*
X202500000Y-85090000D01*
X202830000Y-84065000D02*
X202820000Y-84075000D01*
X203660000Y-84065000D02*
X202830000Y-84065000D01*
X202091165Y-84075000D02*
X201938275Y-84227890D01*
X202820000Y-84075000D02*
X202091165Y-84075000D01*
D48*
X203060000Y-89435000D02*
X203060000Y-93355000D01*
X209900000Y-96000000D02*
X210414300Y-96000000D01*
X210414300Y-96000000D02*
X210959700Y-96545400D01*
X199480001Y-91715000D02*
X200270000Y-90925001D01*
X198770000Y-91715000D02*
X199480001Y-91715000D01*
X200270000Y-91180000D02*
X200270000Y-90925001D01*
X199195000Y-92255000D02*
X200270000Y-91180000D01*
X198770000Y-92255000D02*
X199195000Y-92255000D01*
D49*
X201500000Y-84475000D02*
X201875000Y-84100000D01*
X201500000Y-85090000D02*
X201500000Y-84475000D01*
D50*
X213700000Y-90637500D02*
X213702500Y-90637500D01*
X213702500Y-90637500D02*
X213705000Y-90640000D01*
X213700000Y-93132500D02*
X213707500Y-93132500D01*
X213707500Y-93132500D02*
X213710000Y-93130000D01*
X216630000Y-93132500D02*
X216630000Y-93130000D01*
X216630000Y-90637500D02*
X216630000Y-90640000D01*
X212510000Y-91930000D02*
X213710000Y-93130000D01*
X211680000Y-91930000D02*
X212510000Y-91930000D01*
X215162500Y-94600000D02*
X216630000Y-93132500D01*
X215160000Y-94600000D02*
X215162500Y-94600000D01*
X217840000Y-91920000D02*
X216630000Y-93130000D01*
X218480000Y-91920000D02*
X217840000Y-91920000D01*
X216490000Y-90497500D02*
X216630000Y-90637500D01*
X216490000Y-88690000D02*
X216490000Y-90497500D01*
X215097500Y-89240000D02*
X213700000Y-90637500D01*
X215140000Y-89240000D02*
X215097500Y-89240000D01*
D48*
X218882299Y-96239501D02*
X219482300Y-95639500D01*
X217794501Y-96239501D02*
X218882299Y-96239501D01*
X216960000Y-95405000D02*
X217794501Y-96239501D01*
X216960000Y-95140000D02*
X216960000Y-95405000D01*
D49*
X219412300Y-94709500D02*
X219482300Y-94639500D01*
X218557300Y-94709500D02*
X219412300Y-94709500D01*
X218557300Y-94709500D02*
X218557300Y-95589500D01*
D48*
X218517300Y-88154500D02*
X218517300Y-87739500D01*
D49*
X218517300Y-86869500D02*
X218517300Y-87739500D01*
X218527300Y-87749500D02*
X218517300Y-87739500D01*
X219482300Y-87749500D02*
X218527300Y-87749500D01*
X218517300Y-87739500D02*
X218517300Y-88305185D01*
X203060000Y-88835000D02*
X206975000Y-88835000D01*
X206975000Y-88835000D02*
X207338478Y-89198478D01*
X207338478Y-89198478D02*
X207338478Y-89224238D01*
D50*
X198115000Y-89335000D02*
X198125000Y-89325000D01*
X197090000Y-89335000D02*
X198115000Y-89335000D01*
D49*
X198615000Y-88835000D02*
X198125000Y-89325000D01*
X203060000Y-88835000D02*
X198615000Y-88835000D01*
D50*
X218517300Y-88305185D02*
X218517300Y-88402700D01*
X218517300Y-88402700D02*
X218180000Y-88740000D01*
X218180000Y-88740000D02*
X217310000Y-88740000D01*
X219260000Y-90760000D02*
X219260000Y-89130000D01*
X219482300Y-88907700D02*
X219482300Y-87749500D01*
X219260000Y-89130000D02*
X219482300Y-88907700D01*
X219260000Y-93110000D02*
X219260000Y-93880000D01*
X219482300Y-94102300D02*
X219482300Y-94639500D01*
X219260000Y-93880000D02*
X219482300Y-94102300D01*
X218557300Y-94709500D02*
X218300500Y-94709500D01*
X218300500Y-94709500D02*
X217870000Y-95140000D01*
X217870000Y-95140000D02*
X217310000Y-95140000D01*
D48*
X204265000Y-88405000D02*
X205400000Y-88405000D01*
X203500000Y-87640000D02*
X204265000Y-88405000D01*
X203500000Y-86060000D02*
X203500000Y-87640000D01*
X203030000Y-88140000D02*
X203030000Y-88405000D01*
X203030000Y-86985000D02*
X203030000Y-88140000D01*
X202500000Y-86455000D02*
X203030000Y-86985000D01*
X202500000Y-86060000D02*
X202500000Y-86455000D01*
X201500000Y-86455000D02*
X201200000Y-86755000D01*
X201500000Y-86060000D02*
X201500000Y-86455000D01*
X200797502Y-88405000D02*
X200590000Y-88405000D01*
X201200000Y-88002502D02*
X200797502Y-88405000D01*
X201200000Y-86755000D02*
X201200000Y-88002502D01*
D50*
X177877500Y-93630000D02*
X179200000Y-93630000D01*
X179200000Y-93630000D02*
X179210000Y-93620000D01*
D48*
X223609800Y-93812000D02*
X223277300Y-94144500D01*
X225350468Y-93812000D02*
X223609800Y-93812000D01*
X226642500Y-83986832D02*
X226642500Y-92519968D01*
X220553168Y-77897500D02*
X226642500Y-83986832D01*
X226642500Y-92519968D02*
X225350468Y-93812000D01*
X181586832Y-77897500D02*
X150986832Y-108497500D01*
X220553168Y-77897500D02*
X181586832Y-77897500D01*
X146097500Y-104847500D02*
X146988168Y-104847500D01*
X145800000Y-104550000D02*
X146097500Y-104847500D01*
X146988168Y-104847500D02*
X147677500Y-105536832D01*
X147677500Y-105536832D02*
X147677500Y-108061832D01*
X148113168Y-108497500D02*
X150986832Y-108497500D01*
X147677500Y-108061832D02*
X148113168Y-108497500D01*
X222944800Y-93812000D02*
X223277300Y-94144500D01*
X221434132Y-93812000D02*
X222944800Y-93812000D01*
X219710000Y-92740000D02*
X220362132Y-92740000D01*
X220362132Y-92740000D02*
X221434132Y-93812000D01*
X220426832Y-78202500D02*
X226337500Y-84113168D01*
X226337500Y-84113168D02*
X226337500Y-92393632D01*
X226337500Y-92393632D02*
X225224132Y-93507000D01*
X225224132Y-93507000D02*
X223609800Y-93507000D01*
X223609800Y-93507000D02*
X223277300Y-93174500D01*
X220426832Y-78202500D02*
X181713168Y-78202500D01*
X181713168Y-78202500D02*
X151113168Y-108802500D01*
X145800000Y-105450000D02*
X146097500Y-105152500D01*
X146097500Y-105152500D02*
X146861832Y-105152500D01*
X146861832Y-105152500D02*
X147372500Y-105663168D01*
X147372500Y-105663168D02*
X147372500Y-108188168D01*
X147372500Y-108188168D02*
X147986832Y-108802500D01*
X147986832Y-108802500D02*
X151113168Y-108802500D01*
X222944800Y-93507000D02*
X223277300Y-93174500D01*
X221547654Y-93507000D02*
X222944800Y-93507000D01*
X219710000Y-92470000D02*
X220510654Y-92470000D01*
X220510654Y-92470000D02*
X221547654Y-93507000D01*
X165600000Y-107000000D02*
X165600000Y-124000000D01*
X149150000Y-117750000D02*
X155000000Y-117750000D01*
X155000000Y-117750000D02*
X163800000Y-126550000D01*
X163800000Y-126550000D02*
X164710000Y-126550000D01*
X165600000Y-125660000D02*
X165600000Y-124000000D01*
X164710000Y-126550000D02*
X165600000Y-125660000D01*
X167410000Y-105810000D02*
X167410000Y-104923498D01*
X167400000Y-106425000D02*
X167400000Y-105800000D01*
X167400000Y-122800000D02*
X167400000Y-121913498D01*
X167400000Y-121913498D02*
X167690000Y-121623498D01*
X167690000Y-121623498D02*
X167690000Y-106715000D01*
X167690000Y-106715000D02*
X167400000Y-106425000D01*
X164280000Y-103637500D02*
X164915000Y-103002500D01*
X167690000Y-123715000D02*
X167400000Y-123425000D01*
X167400000Y-123425000D02*
X167400000Y-122800000D01*
X149150000Y-119550000D02*
X149447500Y-119847500D01*
X167690000Y-125874332D02*
X167690000Y-123715000D01*
X164915000Y-103002500D02*
X165992500Y-103002500D01*
X167410000Y-104420000D02*
X167410000Y-104923498D01*
X165992500Y-103002500D02*
X167410000Y-104420000D01*
X164636832Y-128927500D02*
X167690000Y-125874332D01*
X149447500Y-119847500D02*
X153743168Y-119847500D01*
X162823168Y-128927500D02*
X164636832Y-128927500D01*
X153743168Y-119847500D02*
X162823168Y-128927500D01*
X168000000Y-107000000D02*
X168000000Y-105400000D01*
X168000000Y-122400000D02*
X168000000Y-107000000D01*
X164280000Y-102062500D02*
X164915000Y-102697500D01*
X168000000Y-125995668D02*
X168000000Y-124000000D01*
X164763168Y-129232500D02*
X168000000Y-125995668D01*
X149150000Y-120450000D02*
X149447500Y-120152500D01*
X168000000Y-124000000D02*
X168000000Y-122400000D01*
X168000000Y-105400000D02*
X168000000Y-104775000D01*
X164915000Y-102697500D02*
X166107500Y-102697500D01*
X168000000Y-104590000D02*
X168000000Y-104775000D01*
X166107500Y-102697500D02*
X168000000Y-104590000D01*
X149447500Y-120152500D02*
X153616832Y-120152500D01*
X153616832Y-120152500D02*
X162696832Y-129232500D01*
X162696832Y-129232500D02*
X164763168Y-129232500D01*
X166200000Y-107370000D02*
X166200000Y-106200000D01*
X166490000Y-107660000D02*
X166200000Y-107370000D01*
X166490000Y-122295000D02*
X166490000Y-107660000D01*
X166200000Y-124380000D02*
X166200000Y-122585000D01*
X166200000Y-122585000D02*
X166490000Y-122295000D01*
X166490000Y-124670000D02*
X166200000Y-124380000D01*
X153519185Y-121913517D02*
X153996483Y-121913517D01*
X153253168Y-121647500D02*
X153519185Y-121913517D01*
X149447500Y-121647500D02*
X153253168Y-121647500D01*
X149150000Y-121350000D02*
X149447500Y-121647500D01*
X159276483Y-123590815D02*
X163153168Y-127467500D01*
X159276483Y-123113517D02*
X159276483Y-123590815D01*
X163153168Y-127467500D02*
X164606832Y-127467500D01*
X166490000Y-124670000D02*
X166490000Y-125584332D01*
X166490000Y-125584332D02*
X164606832Y-127467500D01*
X166800000Y-122975000D02*
X166800000Y-106600000D01*
X166800000Y-123600000D02*
X166800000Y-122975000D01*
X149150000Y-122250000D02*
X149447500Y-121952500D01*
X153126832Y-121952500D02*
X153303517Y-122129185D01*
X149447500Y-121952500D02*
X153126832Y-121952500D01*
X153303517Y-122129185D02*
X153303517Y-122606483D01*
X159060815Y-123806483D02*
X158583517Y-123806483D01*
X166800000Y-123600000D02*
X166800000Y-125705668D01*
X166800000Y-125705668D02*
X164733168Y-127772500D01*
X164733168Y-127772500D02*
X163026832Y-127772500D01*
X163026832Y-127772500D02*
X159060815Y-123806483D01*
X211080000Y-95375000D02*
X211500000Y-95375000D01*
X209896000Y-95375000D02*
X211080000Y-95375000D01*
X209650000Y-95621000D02*
X209896000Y-95375000D01*
X209650000Y-96000000D02*
X209650000Y-95621000D01*
X211080000Y-94405000D02*
X211500000Y-94405000D01*
X210547788Y-94405000D02*
X211080000Y-94405000D01*
X209400000Y-95552788D02*
X210547788Y-94405000D01*
X209400000Y-96000000D02*
X209400000Y-95552788D01*
X226750000Y-95305000D02*
X226750000Y-96000000D01*
X216710000Y-95560000D02*
X217682700Y-96532700D01*
X216710000Y-95140000D02*
X216710000Y-95560000D01*
X217682700Y-96532700D02*
X222491300Y-96532700D01*
X226237800Y-94792800D02*
X226750000Y-95305000D01*
X222491300Y-96532700D02*
X224231200Y-94792800D01*
X224231200Y-94792800D02*
X226237800Y-94792800D01*
X226250000Y-95351100D02*
X226250000Y-96000000D01*
X226047300Y-95148400D02*
X226250000Y-95351100D01*
X216460000Y-95880000D02*
X217468300Y-96888300D01*
X224447100Y-95148400D02*
X226047300Y-95148400D01*
X217468300Y-96888300D02*
X222707200Y-96888300D01*
X216460000Y-95140000D02*
X216460000Y-95880000D01*
X222707200Y-96888300D02*
X224447100Y-95148400D01*
X224382900Y-96000000D02*
X225750000Y-96000000D01*
X223062800Y-97320100D02*
X224382900Y-96000000D01*
X217240100Y-97320100D02*
X223062800Y-97320100D01*
X216210000Y-95140000D02*
X216210000Y-96290000D01*
X216210000Y-96290000D02*
X217240100Y-97320100D01*
X164400000Y-124800000D02*
X164400000Y-122420000D01*
X164400000Y-122420000D02*
X163280000Y-121300000D01*
X163280000Y-121300000D02*
X163280000Y-106530000D01*
X163280000Y-106530000D02*
X163720000Y-106090000D01*
X163720000Y-106090000D02*
X164640000Y-106090000D01*
X165000000Y-106450000D02*
X165000000Y-107400000D01*
X164640000Y-106090000D02*
X165000000Y-106450000D01*
X164400000Y-107800000D02*
X164400000Y-121290000D01*
X165000000Y-121890000D02*
X165000000Y-124400000D01*
X164400000Y-121290000D02*
X165000000Y-121890000D01*
X209411000Y-97390000D02*
X211850000Y-97390000D01*
X211850000Y-97390000D02*
X212830000Y-96410000D01*
X208400000Y-96000000D02*
X208400000Y-96379000D01*
X212830000Y-96410000D02*
X212830000Y-95120000D01*
X208400000Y-96379000D02*
X209411000Y-97390000D01*
X208870000Y-95112502D02*
X208870000Y-94320000D01*
X208650000Y-96000000D02*
X208650000Y-95332502D01*
X208650000Y-95332502D02*
X208870000Y-95112502D01*
X204980000Y-87965000D02*
X204980000Y-87555000D01*
X204980000Y-87555000D02*
X204350000Y-86925000D01*
X205510000Y-87965000D02*
X205510000Y-86060000D01*
X205510000Y-86060000D02*
X204475000Y-85025000D01*
X215980000Y-88740000D02*
X215980000Y-87710000D01*
X198066483Y-87280815D02*
X198066483Y-86803517D01*
X198338168Y-87552500D02*
X198066483Y-87280815D01*
X199107499Y-87552500D02*
X198338168Y-87552500D01*
X199209999Y-87450000D02*
X199107499Y-87552500D01*
X199510000Y-87450000D02*
X199209999Y-87450000D01*
X211240815Y-87113517D02*
X211976832Y-86377500D01*
X210763517Y-87113517D02*
X211240815Y-87113517D01*
X211976832Y-86377500D02*
X213980968Y-86377500D01*
X215260000Y-87656532D02*
X215260000Y-88740000D01*
X213980968Y-86377500D02*
X215260000Y-87656532D01*
X198211832Y-87857500D02*
X197850815Y-87496483D01*
X199209999Y-87960000D02*
X199107499Y-87857500D01*
X199510000Y-87960000D02*
X199209999Y-87960000D01*
X197850815Y-87496483D02*
X197373517Y-87496483D01*
X199107499Y-87857500D02*
X198211832Y-87857500D01*
X211456483Y-87806483D02*
X211456483Y-87329185D01*
X211456483Y-87329185D02*
X212103168Y-86682500D01*
X212103168Y-86682500D02*
X213854632Y-86682500D01*
X215010000Y-87837868D02*
X215010000Y-88740000D01*
X213854632Y-86682500D02*
X215010000Y-87837868D01*
X210039800Y-90566919D02*
X210477381Y-91004500D01*
X210039800Y-90566919D02*
X210039800Y-86600868D01*
X210674800Y-85965868D02*
X210674800Y-85137500D01*
X210674800Y-85137500D02*
X211012300Y-84800000D01*
X210039800Y-86600868D02*
X210674800Y-85965868D01*
X206300000Y-83657034D02*
X206401453Y-83555581D01*
X206300000Y-87965000D02*
X206300000Y-83657034D01*
X210680832Y-83884168D02*
X210680832Y-84459168D01*
X211015000Y-83550000D02*
X210680832Y-83884168D01*
X211012300Y-84790636D02*
X211012300Y-84800000D01*
X210680832Y-84459168D02*
X211012300Y-84790636D01*
X210744500Y-91004500D02*
X210750000Y-91010000D01*
X210477381Y-91004500D02*
X210744500Y-91004500D01*
X208996483Y-81505815D02*
X208996483Y-81028517D01*
X209469800Y-90796332D02*
X209469800Y-81979132D01*
X210177968Y-91504500D02*
X209469800Y-90796332D01*
X209469800Y-81979132D02*
X208996483Y-81505815D01*
X204435000Y-83255000D02*
X204772500Y-83592500D01*
X204772500Y-83592500D02*
X204772500Y-84363168D01*
X204772500Y-84363168D02*
X205772500Y-85363168D01*
X205770000Y-85365668D02*
X205770000Y-87965000D01*
X205772500Y-85363168D02*
X205770000Y-85365668D01*
X208202947Y-80699085D02*
X208520000Y-81016138D01*
X208202947Y-80227053D02*
X208202947Y-80699085D01*
X208984104Y-81016138D02*
X208996483Y-81028517D01*
X208520000Y-81016138D02*
X208984104Y-81016138D01*
X210744500Y-91504500D02*
X210750000Y-91510000D01*
X210177968Y-91504500D02*
X210744500Y-91504500D01*
X208780815Y-81721483D02*
X208303517Y-81721483D01*
X209164800Y-82105468D02*
X208780815Y-81721483D01*
X209164800Y-90922668D02*
X209164800Y-82105468D01*
X209996632Y-91754500D02*
X209164800Y-90922668D01*
X205415000Y-83255000D02*
X205077500Y-83592500D01*
X205077500Y-83592500D02*
X205077500Y-84236832D01*
X206030000Y-85189332D02*
X205077500Y-84236832D01*
X206030000Y-87965000D02*
X206030000Y-85189332D01*
X207989085Y-80912947D02*
X208310000Y-81233862D01*
X207517053Y-80912947D02*
X207989085Y-80912947D01*
X208310000Y-81715000D02*
X208303517Y-81721483D01*
X208310000Y-81233862D02*
X208310000Y-81715000D01*
X210744500Y-91754500D02*
X210750000Y-91760000D01*
X209996632Y-91754500D02*
X210744500Y-91754500D01*
X201810000Y-80195000D02*
X202142500Y-80527500D01*
X202982500Y-80527500D02*
X202142500Y-80527500D01*
X203320000Y-80190000D02*
X202982500Y-80527500D01*
X200450000Y-83645000D02*
X200060000Y-83255000D01*
X200450000Y-87965000D02*
X200450000Y-83645000D01*
X203637500Y-80522500D02*
X203300000Y-80185000D01*
X209923468Y-92100000D02*
X208879800Y-91056332D01*
X208879800Y-91056332D02*
X208879800Y-83239132D01*
X206163168Y-80522500D02*
X203637500Y-80522500D01*
X210750000Y-92100000D02*
X209923468Y-92100000D01*
X208879800Y-83239132D02*
X206163168Y-80522500D01*
X201810000Y-81165000D02*
X202142500Y-80832500D01*
X203320000Y-81170000D02*
X202982500Y-80832500D01*
X202982500Y-80832500D02*
X202142500Y-80832500D01*
X200720000Y-83575000D02*
X201040000Y-83255000D01*
X200720000Y-87965000D02*
X200720000Y-83575000D01*
X203637500Y-80827500D02*
X203300000Y-81165000D01*
X209742132Y-92350000D02*
X208574800Y-91182668D01*
X210750000Y-92350000D02*
X209742132Y-92350000D01*
X208574800Y-91182668D02*
X208574800Y-83365468D01*
X206036832Y-80827500D02*
X203637500Y-80827500D01*
X208574800Y-83365468D02*
X206036832Y-80827500D01*
X199535815Y-86531483D02*
X199920000Y-86915668D01*
X199920000Y-86915668D02*
X199920000Y-87965000D01*
X199535815Y-86531483D02*
X199058517Y-86531483D01*
X199058517Y-86531483D02*
X199058517Y-86054185D01*
X199058517Y-86048273D02*
X199058517Y-86054185D01*
X198666138Y-85655894D02*
X199058517Y-86048273D01*
X198194106Y-85655894D02*
X198666138Y-85655894D01*
X198580815Y-82453517D02*
X198103517Y-82453517D01*
X199136832Y-81897500D02*
X198580815Y-82453517D01*
X209643468Y-92600000D02*
X208269800Y-91226332D01*
X210750000Y-92600000D02*
X209643468Y-92600000D01*
X208269800Y-91226332D02*
X208269800Y-83504132D01*
X208269800Y-83504132D02*
X206663168Y-81897500D01*
X206663168Y-81897500D02*
X199136832Y-81897500D01*
X200192500Y-86756832D02*
X200190000Y-86759332D01*
X199751483Y-86315815D02*
X200192500Y-86756832D01*
X200190000Y-86759332D02*
X200190000Y-87965000D01*
X199751483Y-85838517D02*
X199751483Y-86315815D01*
X199751483Y-85838517D02*
X199274185Y-85838517D01*
X199274185Y-85836217D02*
X199274185Y-85838517D01*
X198880000Y-85442032D02*
X199274185Y-85836217D01*
X198880000Y-84970000D02*
X198880000Y-85442032D01*
X198796483Y-82669185D02*
X198796483Y-83146483D01*
X199263168Y-82202500D02*
X198796483Y-82669185D01*
X209462132Y-92850000D02*
X207964800Y-91352668D01*
X210750000Y-92850000D02*
X209462132Y-92850000D01*
X207964800Y-91352668D02*
X207964800Y-83630468D01*
X206536832Y-82202500D02*
X199263168Y-82202500D01*
X207964800Y-83630468D02*
X206536832Y-82202500D01*
X209734800Y-90693255D02*
X210296045Y-91254500D01*
X209734800Y-90693255D02*
X209734800Y-86474532D01*
X209734800Y-86474532D02*
X210369800Y-85839532D01*
X210369800Y-85839532D02*
X210369800Y-85137500D01*
X210369800Y-85137500D02*
X210032300Y-84800000D01*
X206560000Y-84782966D02*
X207094419Y-84248547D01*
X206560000Y-87965000D02*
X206560000Y-84782966D01*
X210379168Y-83884168D02*
X210379168Y-84450832D01*
X210045000Y-83550000D02*
X210379168Y-83884168D01*
X210032300Y-84797700D02*
X210032300Y-84800000D01*
X210379168Y-84450832D02*
X210032300Y-84797700D01*
X210744500Y-91254500D02*
X210750000Y-91260000D01*
X210296045Y-91254500D02*
X210744500Y-91254500D01*
X222792300Y-90189500D02*
X222223636Y-90189500D01*
X220773136Y-91640000D02*
X222223636Y-90189500D01*
X219710000Y-91640000D02*
X220773136Y-91640000D01*
X222444800Y-91842000D02*
X221560468Y-91842000D01*
X222792300Y-92189500D02*
X222444800Y-91842000D01*
X221212468Y-92190000D02*
X221560468Y-91842000D01*
X219710000Y-92190000D02*
X221212468Y-92190000D01*
X222223636Y-88189500D02*
X222792300Y-88189500D01*
X221069800Y-89343336D02*
X222223636Y-88189500D01*
X221069800Y-90492668D02*
X221069800Y-89343336D01*
X220472468Y-91090000D02*
X221069800Y-90492668D01*
X219710000Y-91090000D02*
X220472468Y-91090000D01*
X222007967Y-89973833D02*
X222792300Y-89189500D01*
X220611800Y-91370000D02*
X222007967Y-89973833D01*
X219710000Y-91370000D02*
X220611800Y-91370000D01*
X222444800Y-91537000D02*
X222792300Y-91189500D01*
X221434132Y-91537000D02*
X222444800Y-91537000D01*
X221051132Y-91920000D02*
X221434132Y-91537000D01*
X219710000Y-91920000D02*
X221051132Y-91920000D01*
X220764800Y-89217000D02*
X220764800Y-90366332D01*
X222792300Y-87189500D02*
X220764800Y-89217000D01*
X220311132Y-90820000D02*
X220764800Y-90366332D01*
X219710000Y-90820000D02*
X220311132Y-90820000D01*
X209650000Y-110000000D02*
X209650000Y-110780000D01*
X208585000Y-111845000D02*
X204970000Y-111845000D01*
X209650000Y-110780000D02*
X208585000Y-111845000D01*
X205390000Y-110875000D02*
X204970000Y-110875000D01*
X208904000Y-110875000D02*
X205390000Y-110875000D01*
X209400000Y-110379000D02*
X208904000Y-110875000D01*
X209400000Y-110000000D02*
X209400000Y-110379000D01*
X205240000Y-87965000D02*
X205240000Y-86790000D01*
X205240000Y-86790000D02*
X204450000Y-86000000D01*
X209150000Y-110000000D02*
X209150000Y-108075000D01*
X209150000Y-108075000D02*
X209300000Y-107925000D01*
X201980000Y-88395000D02*
X201970000Y-88405000D01*
D50*
X199380001Y-83820001D02*
X196969999Y-83820001D01*
X199780000Y-84220000D02*
X199380001Y-83820001D01*
X196969999Y-83820001D02*
X196700000Y-84090000D01*
D48*
X208400000Y-110000000D02*
X208400000Y-107550000D01*
X208400000Y-107550000D02*
X208300000Y-107450000D01*
X201970000Y-88405000D02*
X201970000Y-86880000D01*
X201970000Y-86880000D02*
X201975000Y-86875000D01*
D50*
X200240000Y-128750000D02*
X201675000Y-128750000D01*
X172240000Y-100010000D02*
X172250000Y-100000000D01*
X171365000Y-100000000D02*
X172250000Y-100000000D01*
X169754315Y-100000000D02*
X171365000Y-100000000D01*
X168350000Y-98595685D02*
X169754315Y-100000000D01*
X168350000Y-98030000D02*
X168350000Y-98595685D01*
X172380000Y-93637500D02*
X172372500Y-93630000D01*
X172250000Y-93657500D02*
X172222500Y-93630000D01*
X172250000Y-98000000D02*
X172250000Y-93657500D01*
X222600000Y-127504000D02*
X222600000Y-127000000D01*
X221354000Y-128750000D02*
X222600000Y-127504000D01*
X203250000Y-128750000D02*
X221354000Y-128750000D01*
D49*
X218952299Y-86219499D02*
X217897301Y-86219499D01*
X219482300Y-86749500D02*
X218952299Y-86219499D01*
D50*
X217897301Y-86219499D02*
X217560501Y-86219499D01*
X217560501Y-86219499D02*
X216960000Y-86820000D01*
X216960000Y-86820000D02*
X216960000Y-87970000D01*
D48*
X216960000Y-87970000D02*
X216960000Y-88740000D01*
D50*
X174097500Y-93630000D02*
X176002500Y-93630000D01*
D48*
X182418168Y-91562500D02*
X198077499Y-91562500D01*
X180163168Y-89307500D02*
X182418168Y-91562500D01*
X172776832Y-89307500D02*
X180163168Y-89307500D01*
X151136832Y-110947500D02*
X172776832Y-89307500D01*
X148938168Y-110947500D02*
X151136832Y-110947500D01*
X198077499Y-91562500D02*
X198194999Y-91445000D01*
X146563168Y-106647500D02*
X147002500Y-107086832D01*
X147002500Y-109011832D02*
X148938168Y-110947500D01*
X145800000Y-106350000D02*
X146097500Y-106647500D01*
X146097500Y-106647500D02*
X146563168Y-106647500D01*
X198194999Y-91445000D02*
X198420000Y-91445000D01*
X147002500Y-107086832D02*
X147002500Y-109011832D01*
X146697500Y-107213168D02*
X146697500Y-109138168D01*
X146436832Y-106952500D02*
X146697500Y-107213168D01*
X146097500Y-106952500D02*
X146436832Y-106952500D01*
X145800000Y-107250000D02*
X146097500Y-106952500D01*
X146697500Y-109138168D02*
X148811832Y-111252500D01*
X148811832Y-111252500D02*
X151263168Y-111252500D01*
X180036832Y-89612500D02*
X182291832Y-91867500D01*
X172903168Y-89612500D02*
X180036832Y-89612500D01*
X151263168Y-111252500D02*
X172903168Y-89612500D01*
X182291832Y-91867500D02*
X198077499Y-91867500D01*
X198077499Y-91867500D02*
X198194999Y-91985000D01*
X198194999Y-91985000D02*
X198420000Y-91985000D01*
D51*
G36*
X172983000Y-103113000D02*
G01*
X169407000Y-103113000D01*
X169407000Y-101896669D01*
X172983000Y-101887332D01*
X172983000Y-103113000D01*
G37*
X172983000Y-103113000D02*
X169407000Y-103113000D01*
X169407000Y-101896669D01*
X172983000Y-101887332D01*
X172983000Y-103113000D01*
G36*
X173003000Y-120103000D02*
G01*
X169426145Y-120103000D01*
X169417861Y-118877000D01*
X173003000Y-118877000D01*
X173003000Y-120103000D01*
G37*
X173003000Y-120103000D02*
X169426145Y-120103000D01*
X169417861Y-118877000D01*
X173003000Y-118877000D01*
X173003000Y-120103000D01*
G36*
X172993000Y-121733000D02*
G01*
X169417000Y-121733000D01*
X169417000Y-120516669D01*
X172993000Y-120507332D01*
X172993000Y-121733000D01*
G37*
X172993000Y-121733000D02*
X169417000Y-121733000D01*
X169417000Y-120516669D01*
X172993000Y-120507332D01*
X172993000Y-121733000D01*
G36*
X172983000Y-104723000D02*
G01*
X169407000Y-104723000D01*
X169407000Y-103506669D01*
X172983000Y-103497332D01*
X172983000Y-104723000D01*
G37*
X172983000Y-104723000D02*
X169407000Y-104723000D01*
X169407000Y-103506669D01*
X172983000Y-103497332D01*
X172983000Y-104723000D01*
G36*
X219573000Y-111364236D02*
G01*
X218965282Y-112098000D01*
X213987513Y-112098000D01*
X213417000Y-111356783D01*
X213417000Y-109877000D01*
X219573000Y-109877000D01*
X219573000Y-111364236D01*
G37*
X219573000Y-111364236D02*
X218965282Y-112098000D01*
X213987513Y-112098000D01*
X213417000Y-111356783D01*
X213417000Y-109877000D01*
X219573000Y-109877000D01*
X219573000Y-111364236D01*
G36*
X224973000Y-111355981D02*
G01*
X224388379Y-112098000D01*
X220811621Y-112098000D01*
X220227000Y-111355981D01*
X220227000Y-109867000D01*
X224973000Y-109867000D01*
X224973000Y-111355981D01*
G37*
X224973000Y-111355981D02*
X224388379Y-112098000D01*
X220811621Y-112098000D01*
X220227000Y-111355981D01*
X220227000Y-109867000D01*
X224973000Y-109867000D01*
X224973000Y-111355981D01*
G36*
X200793000Y-89883926D02*
G01*
X200793000Y-91173000D01*
X198900794Y-91173000D01*
X196897000Y-90498738D01*
X196897000Y-90139191D01*
X197947262Y-89979910D01*
X198058321Y-90002000D01*
X198191679Y-90002000D01*
X198322474Y-89975984D01*
X198445680Y-89924950D01*
X198485619Y-89898263D01*
X198888025Y-89837235D01*
X200793000Y-89883926D01*
G37*
X200793000Y-89883926D02*
X200793000Y-91173000D01*
X198900794Y-91173000D01*
X196897000Y-90498738D01*
X196897000Y-90139191D01*
X197947262Y-89979910D01*
X198058321Y-90002000D01*
X198191679Y-90002000D01*
X198322474Y-89975984D01*
X198445680Y-89924950D01*
X198485619Y-89898263D01*
X198888025Y-89837235D01*
X200793000Y-89883926D01*
M02*
