"Source:","H:\KiCad\starChipsSEE\starChipsSEE.sch"
"Date:","08/06/2020 15:26:55"
"Tool:","Eeschema (5.0.1)-3"
"Generator:","C:\Program Files\KiCad5\bin\scripting\plugins/bom_csv_grouped_by_value.py"
"Component Count:","35"

"Individual Components:"

"Item","Qty","Reference(s)","Value","Case","Mounted","Order Code","Part Description","Part Number"
"","","C1","CC0402_220NF_16V_10%_X7R","0402","Yes","","SMD Multilayer Chip Ceramic Capacitor",""
"","","C2","CC0402_220NF_16V_10%_X7R","0402","Yes","","SMD Multilayer Chip Ceramic Capacitor",""
"","","C3","CC0402_220NF_16V_10%_X7R","0402","Yes","","SMD Multilayer Chip Ceramic Capacitor",""
"","","C4","CC0402_220NF_16V_10%_X7R","0402","Yes","","SMD Multilayer Chip Ceramic Capacitor",""
"","","C5","CC0402_220NF_16V_10%_X7R","0402","Yes","","SMD Multilayer Chip Ceramic Capacitor",""
"","","C6","CC0402_220NF_16V_10%_X7R","0402","Yes","","SMD Multilayer Chip Ceramic Capacitor",""
"","","C7","CC0402_100NF_16V_10%_X7R","0402","Yes","","SMD Multilayer Chip Ceramic Capacitor",""
"","","C8","CC0402_100NF_16V_10%_X7R","0402","Yes","","SMD Multilayer Chip Ceramic Capacitor",""
"","","C9","CC0402_100NF_16V_10%_X7R","0402","Yes","","SMD Multilayer Chip Ceramic Capacitor",""
"","","C10","CC0402_100NF_16V_10%_X7R","0402","Yes","","SMD Multilayer Chip Ceramic Capacitor",""
"","","C11","CC0402_220NF_16V_10%_X7R","0402","Yes","","SMD Multilayer Chip Ceramic Capacitor",""
"","","C12","CC0402_100NF_16V_10%_X7R","0402","Yes","","SMD Multilayer Chip Ceramic Capacitor",""
"","","C13","CC0402_100NF_16V_10%_X7R","0402","Yes","","SMD Multilayer Chip Ceramic Capacitor",""
"","","C14","CC0402_100NF_16V_10%_X7R","0402","Yes","","SMD Multilayer Chip Ceramic Capacitor",""
"","","J1","Molex 39-30-0060","","Yes","Farnell 1697135","Wire-To-Board Connector, Right Angle, 4.2 mm, 6 Contacts, Header, Mini-Fit Jr. 5569 Series",""
"","","J2","TE2129320-3","","Yes","Mouser 571-2129320-3","Mini DisplayPort Connector",""
"","","J3","TE2129320-3","","Yes","Mouser 571-2129320-3","Mini DisplayPort Connector",""
"","","NTC1","ERTJ0EG103FA","0402","Yes","Farnell 1892596","Thermistor, NTC, 10 kohm, ERTJ Series, 3435 K, SMD, 0402 [1005 Metric]",""
"","","NTC2","ERTJ0EG103FA","0402","Yes","Farnell 1892596","Thermistor, NTC, 10 kohm, ERTJ Series, 3435 K, SMD, 0402 [1005 Metric]",""
"","","R1","R0603_100R_1%_0.0625W_100PPM","0603","Yes","","General Purpose Thick Film Chip Resistor",""
"","","R2","R0603_100R_1%_0.0625W_100PPM","0603","Yes","","General Purpose Thick Film Chip Resistor",""
"","","R3","R0603_100R_1%_0.0625W_100PPM","0603","Yes","","General Purpose Thick Film Chip Resistor",""
"","","R4","R0402_100R_1%_0.0625W_100PPM","0402","Yes","","General Purpose Thick Film Chip Resistor",""
"","","R5","R0603_100R_1%_0.0625W_100PPM","0603","Yes","","General Purpose Thick Film Chip Resistor",""
"","","R6","R0402_100R_1%_0.0625W_100PPM","0402","Yes","","General Purpose Thick Film Chip Resistor",""
"","","R7","R0402_100R_1%_0.0625W_100PPM","0402","Yes","","General Purpose Thick Film Chip Resistor",""
"","","R8","R0402_100R_1%_0.0625W_100PPM","0402","Yes","","General Purpose Thick Film Chip Resistor",""
"","","R9","R0402_100R_1%_0.0625W_100PPM","0402","Yes","","General Purpose Thick Film Chip Resistor",""
"","","R10","R0805_249k_1%_0.5W_100PPM","0805","Yes","Farnell 2312205","General Purpose Thick Film Chip Resistor",""
"","","R11","R0603_1k_1%_0.0625W_100PPM","0603","Yes","","General Purpose Thick Film Chip Resistor",""
"","","R12","R0805_249k_1%_0.5W_100PPM","0805","Yes","Farnell 2312205","General Purpose Thick Film Chip Resistor",""
"","","U1","Powerboard","","No","","",""
"","","U2","Powerboard","","No","","",""
"","","U3","HCCStar","","No","","",""
"","","U4","ABCStar","","No","","",""



"Collated Components:"

"Item","Qty","Reference(s)","Value","Case","Mounted","Order Code","Part Description","Part Number"
"1","7","C1, C2, C3, C4, C5, C6, C11","CC0402_220NF_16V_10%_X7R","0402","Yes","","SMD Multilayer Chip Ceramic Capacitor",""
"2","7","C7, C8, C9, C10, C12, C13, C14","CC0402_100NF_16V_10%_X7R","0402","Yes","","SMD Multilayer Chip Ceramic Capacitor",""
"3","1","J1","Molex 39-30-0060","","Yes","Farnell 1697135","Wire-To-Board Connector, Right Angle, 4.2 mm, 6 Contacts, Header, Mini-Fit Jr. 5569 Series",""
"4","2","J2, J3","TE2129320-3","","Yes","Mouser 571-2129320-3","Mini DisplayPort Connector",""
"5","2","NTC1, NTC2","ERTJ0EG103FA","0402","Yes","Farnell 1892596","Thermistor, NTC, 10 kohm, ERTJ Series, 3435 K, SMD, 0402 [1005 Metric]",""
"6","4","R1, R2, R3, R5","R0603_100R_1%_0.0625W_100PPM","0603","Yes","","General Purpose Thick Film Chip Resistor",""
"7","5","R4, R6, R7, R8, R9","R0402_100R_1%_0.0625W_100PPM","0402","Yes","","General Purpose Thick Film Chip Resistor",""
"8","2","R10, R12","R0805_249k_1%_0.5W_100PPM","0805","Yes","Farnell 2312205","General Purpose Thick Film Chip Resistor",""
"9","1","R11","R0603_1k_1%_0.0625W_100PPM","0603","Yes","","General Purpose Thick Film Chip Resistor",""
"10","2","U1, U2","Powerboard","","No","","",""
"11","1","U3","HCCStar","","No","","",""
"12","1","U4","ABCStar","","No","","",""
