(module Powerboard (layer F.Cu) (tedit 5EAFD9F0)
  (fp_text reference U1 (at -22.5 6.5) (layer F.SilkS)
    (effects (font (size 1 1) (thickness 0.15)))
  )
  (fp_text value Powerboard (at -23 -6.5) (layer F.Fab)
    (effects (font (size 1 1) (thickness 0.15)))
  )
  (fp_poly (pts (xy 3 6.5) (xy 17 6.5) (xy 17 7.5) (xy 3 7.5)) (layer F.Mask) (width 0.15))
  (fp_poly (pts (xy -2 6.5) (xy 0.25 6.5) (xy 0.25 7.5) (xy -2 7.5)) (layer F.Mask) (width 0.15))
  (fp_poly (pts (xy 15.49 -7.5) (xy 15.49 -6.5) (xy 17 -6.5) (xy 17 -7.5)) (layer F.Mask) (width 0.15))
  (fp_poly (pts (xy -2 -7.5) (xy 0.25 -7.5) (xy 0.25 -6.5) (xy -2 -6.5)) (layer F.Mask) (width 0.15))
  (fp_poly (pts (xy -38.99 -5.66) (xy -36.49 -5.66) (xy -36.5 2) (xy -39 2)) (layer F.Mask) (width 0.15))
  (fp_poly (pts (xy -41.5 0.75) (xy -41.5 3.25) (xy -46.25 6.25) (xy -46.25 3.75)) (layer F.Mask) (width 0.15))
  (fp_line (start -36 -5.5) (end -36 5.5) (layer F.SilkS) (width 0.15))
  (fp_line (start -36 5.5) (end 36 5.5) (layer F.SilkS) (width 0.15))
  (fp_line (start 36 -5.5) (end -36 -5.5) (layer F.SilkS) (width 0.15))
  (fp_line (start 36 5.5) (end 36 1.5) (layer F.SilkS) (width 0.15))
  (fp_line (start 36 1.5) (end 38 1.5) (layer F.SilkS) (width 0.15))
  (fp_line (start 38 1.5) (end 38 -1.5) (layer F.SilkS) (width 0.15))
  (fp_line (start 38 -1.5) (end 36 -1.5) (layer F.SilkS) (width 0.15))
  (fp_line (start 36 -1.5) (end 36 -5.5) (layer F.SilkS) (width 0.15))
  (pad 33 smd rect (at 16.75 7) (size 0.127 0.508) (layers F.Cu F.Mask))
  (pad 32 smd rect (at 16.25 7) (size 0.127 0.508) (layers F.Cu F.Mask))
  (pad 31 smd rect (at 15.75 7) (size 0.127 0.508) (layers F.Cu F.Mask))
  (pad 21 smd rect (at 16.75 -7) (size 0.127 0.508) (layers F.Cu F.Mask))
  (pad 20 smd rect (at 16.25 -7) (size 0.127 0.508) (layers F.Cu F.Mask))
  (pad 19 smd rect (at 15.75 -7) (size 0.127 0.508) (layers F.Cu F.Mask))
  (pad 1 smd rect (at -37.75 -0.5) (size 1.5 1.27) (layers F.Cu F.Mask))
  (pad 2 smd rect (at -37.75 1) (size 1.5 1.27) (layers F.Cu F.Mask))
  (pad 3 smd rect (at -42 2.4) (size 0.3 1) (layers F.Cu F.Mask))
  (pad 4 smd rect (at -42.6 2.8) (size 0.3 1) (layers F.Cu F.Mask))
  (pad 5 smd rect (at -43.2 3.6) (size 0.3 1) (layers F.Cu F.Mask))
  (pad 6 smd rect (at -43.8 3.2) (size 0.3 1) (layers F.Cu F.Mask))
  (pad 7 smd rect (at -44.4 4) (size 0.3 1) (layers F.Cu F.Mask))
  (pad 8 smd rect (at -45 4.4) (size 0.3 1) (layers F.Cu F.Mask))
  (pad 9 smd rect (at -45.6 4.8) (size 0.3 1) (layers F.Cu F.Mask))
  (pad 10 smd rect (at -1.6 -7) (size 0.127 0.508) (layers F.Cu F.Mask))
  (pad 11 smd rect (at -1.35 -7) (size 0.127 0.508) (layers F.Cu F.Mask))
  (pad 12 smd rect (at -1.1 -7) (size 0.127 0.508) (layers F.Cu F.Mask))
  (pad 13 smd rect (at -0.85 -7) (size 0.127 0.508) (layers F.Cu F.Mask))
  (pad 14 smd rect (at -0.6 -7 180) (size 0.127 0.508) (layers F.Cu F.Mask))
  (pad 15 smd rect (at -0.35 -7) (size 0.127 0.508) (layers F.Cu F.Mask))
  (pad 16 smd rect (at -0.1 -7) (size 0.127 0.508) (layers F.Cu F.Mask))
  (pad 29 smd rect (at 6.5 7) (size 6.4 0.508) (layers F.Cu F.Mask))
  (pad 30 smd rect (at 12.6 7) (size 5 0.508) (layers F.Cu F.Mask))
  (pad 22 smd rect (at -1.6 7) (size 0.127 0.508) (layers F.Cu F.Mask))
  (pad 25 smd rect (at -0.85 7) (size 0.127 0.508) (layers F.Cu F.Mask))
  (pad 26 smd rect (at -0.6 7 180) (size 0.127 0.508) (layers F.Cu F.Mask))
  (pad 24 smd rect (at -1.1 7) (size 0.127 0.508) (layers F.Cu F.Mask))
  (pad 27 smd rect (at -0.35 7) (size 0.127 0.508) (layers F.Cu F.Mask))
  (pad 28 smd rect (at -0.1 7) (size 0.127 0.508) (layers F.Cu F.Mask))
  (pad 23 smd rect (at -1.35 7) (size 0.127 0.508) (layers F.Cu F.Mask))
  (pad 34 smd rect (at -37.75 -3 90) (size 0.3 1.27) (layers F.Cu F.Mask))
  (pad 35 smd rect (at -37.75 -5 90) (size 0.3 1.27) (layers F.Cu F.Mask))
  (pad 40 thru_hole rect (at 20.4 0) (size 2 2) (drill 0.4) (layers *.Cu *.Mask))
  (pad 40 thru_hole rect (at 20.4 -2) (size 2 2) (drill 0.4) (layers *.Cu *.Mask))
  (pad 40 thru_hole rect (at 20.4 -4) (size 2 2) (drill 0.4) (layers *.Cu *.Mask))
  (pad 40 thru_hole rect (at 20.4 2) (size 2 2) (drill 0.4) (layers *.Cu *.Mask))
  (pad 40 thru_hole rect (at 20.4 4) (size 2 2) (drill 0.4) (layers *.Cu *.Mask))
  (pad 40 thru_hole rect (at 22.4 -4) (size 2 2) (drill 0.4) (layers *.Cu *.Mask))
  (pad 40 thru_hole rect (at 22.4 -2) (size 2 2) (drill 0.4) (layers *.Cu *.Mask))
  (pad 40 thru_hole rect (at 22.4 0) (size 2 2) (drill 0.4) (layers *.Cu *.Mask))
  (pad 40 thru_hole rect (at 22.4 2) (size 2 2) (drill 0.4) (layers *.Cu *.Mask))
  (pad 40 thru_hole rect (at 22.4 4) (size 2 2) (drill 0.4) (layers *.Cu *.Mask))
  (pad 40 thru_hole rect (at 24.4 -2) (size 2 2) (drill 0.4) (layers *.Cu *.Mask))
  (pad 40 thru_hole rect (at 24.4 -4) (size 2 2) (drill 0.4) (layers *.Cu *.Mask))
  (pad 40 thru_hole rect (at 24.4 2) (size 2 2) (drill 0.4) (layers *.Cu *.Mask))
  (pad 40 thru_hole rect (at 24.4 0) (size 2 2) (drill 0.4) (layers *.Cu *.Mask))
  (pad 40 thru_hole rect (at 26.4 4) (size 2 2) (drill 0.4) (layers *.Cu *.Mask))
  (pad 40 thru_hole rect (at 26.4 2) (size 2 2) (drill 0.4) (layers *.Cu *.Mask))
  (pad 40 thru_hole rect (at 26.4 0) (size 2 2) (drill 0.4) (layers *.Cu *.Mask))
  (pad 40 thru_hole rect (at 26.4 -2) (size 2 2) (drill 0.4) (layers *.Cu *.Mask))
  (pad 40 thru_hole rect (at 26.4 -4) (size 2 2) (drill 0.4) (layers *.Cu *.Mask))
  (pad 40 thru_hole rect (at 24.4 4) (size 2 2) (drill 0.4) (layers *.Cu *.Mask))
  (pad 40 thru_hole rect (at 28.4 -2) (size 2 2) (drill 0.4) (layers *.Cu *.Mask))
  (pad 40 thru_hole rect (at 28.4 -4) (size 2 2) (drill 0.4) (layers *.Cu *.Mask))
  (pad 40 thru_hole rect (at 28.4 2) (size 2 2) (drill 0.4) (layers *.Cu *.Mask))
  (pad 40 thru_hole rect (at 28.4 0) (size 2 2) (drill 0.4) (layers *.Cu *.Mask))
  (pad 40 thru_hole rect (at 30.4 4) (size 2 2) (drill 0.4) (layers *.Cu *.Mask))
  (pad 40 thru_hole rect (at 30.4 2) (size 2 2) (drill 0.4) (layers *.Cu *.Mask))
  (pad 40 thru_hole rect (at 30.4 0) (size 2 2) (drill 0.4) (layers *.Cu *.Mask))
  (pad 40 thru_hole rect (at 30.4 -2) (size 2 2) (drill 0.4) (layers *.Cu *.Mask))
  (pad 40 thru_hole rect (at 30.4 -4) (size 2 2) (drill 0.4) (layers *.Cu *.Mask))
  (pad 40 thru_hole rect (at 28.4 4) (size 2 2) (drill 0.4) (layers *.Cu *.Mask))
  (pad 40 thru_hole rect (at 32.4 -2) (size 2 2) (drill 0.4) (layers *.Cu *.Mask))
  (pad 40 thru_hole rect (at 32.4 -4) (size 2 2) (drill 0.4) (layers *.Cu *.Mask))
  (pad 40 thru_hole rect (at 32.4 2) (size 2 2) (drill 0.4) (layers *.Cu *.Mask))
  (pad 40 thru_hole rect (at 32.4 0) (size 2 2) (drill 0.4) (layers *.Cu *.Mask))
  (pad 40 thru_hole rect (at 34.4 4) (size 2 2) (drill 0.4) (layers *.Cu *.Mask))
  (pad 40 thru_hole rect (at 34.4 2) (size 2 2) (drill 0.4) (layers *.Cu *.Mask))
  (pad 40 thru_hole rect (at 34.4 0) (size 2 2) (drill 0.4) (layers *.Cu *.Mask))
  (pad 40 thru_hole rect (at 34.4 -2) (size 2 2) (drill 0.4) (layers *.Cu *.Mask))
  (pad 40 thru_hole rect (at 34.4 -4) (size 2 2) (drill 0.4) (layers *.Cu *.Mask))
  (pad 40 thru_hole rect (at 32.4 4) (size 2 2) (drill 0.4) (layers *.Cu *.Mask))
  (pad 40 thru_hole rect (at 8.1 2.05) (size 1.2 1.5) (drill 0.4) (layers *.Cu *.Mask))
  (pad 40 thru_hole rect (at 8.1 0.55) (size 1.2 1.5) (drill 0.4) (layers *.Cu *.Mask))
  (pad 40 thru_hole rect (at 9.3 0.55) (size 1.2 1.5) (drill 0.4) (layers *.Cu *.Mask))
  (pad 40 thru_hole rect (at 9.3 2.05) (size 1.2 1.5) (drill 0.4) (layers *.Cu *.Mask))
)
